,domain,best hyperparams,folds,dev-f1-allen,dev-f1-allen-std,test-f1-allen,test-f1-allen-std
2,Agriculture,dr_0.5_lstm_hs_200_lr_0.005,5,0.6656827003037433,0.06732483070416832,0.5817434927394163,0.052836396594516506
8,Astronomy,dr_0.5_lstm_hs_500_lr_0.005,5,0.6936502485614842,0.05816926154532108,0.6114071073102672,0.052372217978299176
7,Biology,dr_0.5_lstm_hs_500_lr_0.005,5,0.7373813480411007,0.08568310636409994,0.7184975658985213,0.07480988479935351
6,Chemistry,dr_0.5_lstm_hs_350_lr_0.005,5,0.6789589504363572,0.10505297541674645,0.5442341698751962,0.07571175331403682
3,Computer_Science,dr_0.2_lstm_hs_350_lr_0.005,5,0.5780742497575467,0.10672501648032505,0.49528597688545545,0.04216261017352735
1,Earth_Science,dr_0.2_lstm_hs_200_lr_0.005,5,0.6120650631935047,0.07127189994246155,0.4641811792031906,0.05026382865561051
0,Engineering,dr_0.5_lstm_hs_768_lr_0.005,5,0.6526395004655364,0.09348313435167713,0.6436854634445288,0.03149956821123969
10,Materials_Science,dr_0.5_lstm_hs_350_lr_0.005,5,0.7254902286550304,0.08051067636789709,0.6139849090611436,0.10737349498488882
9,Mathematics,dr_0.2_lstm_hs_768_lr_0.001,5,0.5273981191222041,0.13390988509376328,0.3109478234299493,0.05414097361164566
5,Medicine,dr_0.2_lstm_hs_200_lr_0.005,5,0.6436709344119782,0.1243242011552367,0.5628488904839856,0.08420655388990039
4,overall,dr_0.5_lstm_hs_768_lr_0.005,5,0.6941348276285542,0.02166898369829716,0.6590122030470796,0.012144812499575424
