Agriculture,Data,169,22.81
Agriculture,Material,292,39.41
Agriculture,Method,28,3.78
Agriculture,Process,252,34.01
Astronomy,Data,235,29.71
Astronomy,Material,296,37.42
Astronomy,Method,19,2.4
Astronomy,Process,241,30.47
Biology,Data,62,9.55
Biology,Material,291,44.84
Biology,Method,15,2.31
Biology,Process,281,43.3
Chemistry,Data,119,24.64
Chemistry,Material,188,38.92
Chemistry,Method,27,5.59
Chemistry,Process,149,30.85
Computer_Science,Data,165,29.84
Computer_Science,Material,102,18.44
Computer_Science,Method,66,11.93
Computer_Science,Process,220,39.78
Earth_Science,Data,197,28.22
Earth_Science,Material,249,35.67
Earth_Science,Method,9,1.29
Earth_Science,Process,243,34.81
Engineering,Data,258,34.82
Engineering,Material,208,28.07
Engineering,Method,27,3.64
Engineering,Process,248,33.47
Materials_Science,Data,138,24.04
Materials_Science,Material,231,40.24
Materials_Science,Method,27,4.7
Materials_Science,Process,178,31.01
Mathematics,Data,183,54.63
Mathematics,Material,51,15.22
Mathematics,Method,7,2.09
Mathematics,Object,12,3.58
Mathematics,Process,56,16.72
Mathematics,Result,25,7.46
Mathematics,Task,1,0.3
Medicine,Data,132,22.0
Medicine,Material,191,31.83
Medicine,Method,33,5.5
Medicine,Process,244,40.67
overall,Data,1658,26.89
overall,Material,2099,34.05
overall,Method,258,4.18
overall,Object,12,0.19
overall,Process,2112,34.26
overall,Result,25,0.41
overall,Task,1,0.02
