-DOCSTART- (S0016236113008041)

Elemental	0,9	O	B-Process
partitioning	10,22	O	I-Process
,	22,23	O	O
including	24,33	O	O
gaseous	34,41	O	B-Material
elemental	42,51	O	I-Material
emissions	52,61	O	I-Material
from	62,66	O	O
pilot	67,72	O	B-Data
scale	73,78	O	I-Data
(	79,80	O	I-Data
25kWth	80,86	O	I-Data
)	86,87	O	I-Data
,	87,88	O	O
post	89,93	O	B-Process
combustion	94,104	O	I-Process
CO2	105,108	O	I-Process
capture	109,116	O	I-Process
using	117,122	O	O
a	123,124	O	B-Material
Ca	125,127	O	I-Material
-	127,128	O	I-Material
based	128,133	O	I-Material
sorbent	134,141	O	I-Material
,	141,142	O	O
have	143,147	O	O
been	148,152	O	O
investigated	153,165	O	O
for	166,169	O	O
naturally	170,179	O	B-Material
occurring	180,189	O	I-Material
elemental	190,199	O	I-Material
impurities	200,210	O	I-Material
found	211,216	O	O
in	217,219	O	O
limestone	220,229	O	B-Material
,	229,230	O	O
that	231,235	O	O
have	236,240	O	O
the	241,244	O	O
potential	245,254	O	O
to	255,257	O	O
be	258,260	O	O
released	261,269	O	O
to	270,272	O	O
the	273,276	O	B-Material
environment	277,288	O	I-Material
under	289,294	O	O
carbonation	295,306	O	B-Process
and	307,310	O	I-Process
calcination	311,322	O	I-Process
conditions	323,333	O	I-Process
.	333,334	O	O

Inductively	335,346	O	B-Method
Coupled	347,354	O	I-Method
Plasma	355,361	O	I-Method
-	361,362	O	I-Method
Mass	362,366	O	I-Method
Spectrometry	367,379	O	I-Method
(	380,381	O	I-Method
ICP	381,384	O	I-Method
-	384,385	O	I-Method
MS	385,387	O	I-Method
)	387,388	O	I-Method
analysis	389,397	O	I-Method
of	398,400	O	O
Longcliffe	401,411	O	B-Material
SP52	412,416	O	I-Material
limestone	417,426	O	I-Material
was	427,430	O	O
undertaken	431,441	O	O
to	442,444	O	O
identify	445,453	O	O
other	454,459	O	B-Material
impurities	460,470	O	I-Material
present	471,478	O	O
,	478,479	O	O
and	480,483	O	O
the	484,487	O	B-Process
effect	488,494	O	I-Process
of	495,497	O	O
sorbent	498,505	O	B-Data
mass	506,510	O	I-Data
and	511,514	O	O
SO2	515,518	O	B-Data
concentration	519,532	O	I-Data
on	533,535	O	O
elemental	536,545	O	B-Process
partitioning	546,558	O	I-Process
in	559,561	O	O
the	562,565	O	B-Material
carbonator	566,576	O	I-Material
between	577,584	O	O
solid	585,590	O	B-Material
sorbent	591,598	O	I-Material
and	599,602	O	O
gaseous	603,610	O	B-Material
phase	611,616	O	I-Material
was	617,620	O	O
investigated	621,633	O	O
,	633,634	O	O
using	635,640	O	O
a	641,642	O	B-Material
bubbler	643,650	O	I-Material
sampling	651,659	O	I-Material
system	660,666	O	I-Material
.	666,667	O	O

Samples	668,675	O	B-Material
were	676,680	O	O
analysed	681,689	O	B-Process
using	690,695	O	O
ICP	696,699	O	B-Method
-	699,700	O	I-Method
MS	700,702	O	I-Method
,	702,703	O	O
which	704,709	O	O
showed	710,716	O	O
that	717,721	O	O
sorbent	722,729	O	B-Data
mass	730,734	O	I-Data
and	735,738	O	O
SO2	739,742	O	B-Data
concentration	743,756	O	I-Data
in	757,759	O	O
the	760,763	O	B-Material
carbonator	764,774	O	I-Material
effected	775,783	O	O
the	784,787	O	B-Data
concentrations	788,802	O	I-Data
of	803,805	O	O
gaseous	806,813	O	B-Material
trace	814,819	O	I-Material
elements	820,828	O	I-Material
sampled	829,836	O	I-Material
.	836,837	O	O

Thermodynamic	838,851	O	B-Method
modelling	852,861	O	I-Method
of	862,864	O	O
the	865,868	O	B-Process
carbonation	869,880	O	I-Process
and	881,884	O	I-Process
calcination	885,896	O	I-Process
process	897,904	O	I-Process
was	905,908	O	O
also	909,913	O	O
undertaken	914,924	O	O
,	924,925	O	O
based	926,931	O	O
on	932,934	O	O
molar	935,940	O	B-Data
quantities	941,951	O	I-Data
of	952,954	O	O
trace	955,960	O	B-Material
elements	961,969	O	I-Material
identified	970,980	O	O
from	981,985	O	O
ICP	986,989	O	B-Method
-	989,990	O	I-Method
MS	990,992	O	I-Method
analysis	993,1001	O	I-Method
of	1002,1004	O	O
limestone	1005,1014	O	B-Material
,	1014,1015	O	O
which	1016,1021	O	O
provided	1022,1030	O	O
useful	1031,1037	O	O
information	1038,1049	O	O
with	1050,1054	O	O
regards	1055,1062	O	O
to	1063,1065	O	O
element	1066,1073	O	B-Data
stability	1074,1083	O	I-Data
and	1084,1087	O	O
partitioning	1088,1100	O	B-Process
under	1101,1106	O	O
realistic	1107,1116	O	B-Data
CO2	1117,1120	O	I-Data
capture	1121,1128	O	I-Data
conditions	1129,1139	O	I-Data
.	1139,1140	O	O

-DOCSTART- (S0021979713004438)

A	0,1	O	O
range	2,7	O	O
of	8,10	O	O
in	11,13	O	B-Method
situ	14,18	O	I-Method
analytical	19,29	O	B-Process
techniques	30,40	O	I-Process
and	41,44	O	O
theoretical	45,56	O	B-Process
calculations	57,69	O	I-Process
were	70,74	O	O
applied	75,82	O	O
to	83,85	O	O
gain	86,90	O	O
insights	91,99	O	O
into	100,104	O	O
the	105,108	O	B-Process
formation	109,118	O	I-Process
and	119,122	O	O
properties	123,133	O	B-Data
of	134,136	O	O
the	137,140	O	B-Material
Mefp-1	141,147	O	I-Material
film	148,152	O	I-Material
on	153,155	O	O
iron	156,160	O	B-Material
substrate	161,170	O	I-Material
,	170,171	O	O
as	172,174	O	O
well	175,179	O	O
as	180,182	O	O
the	183,186	O	B-Process
protein	187,194	O	I-Process
complexation	195,207	O	I-Process
with	208,212	O	O
Fe3	213,216	O	B-Material
+	216,217	O	I-Material
ions	218,222	O	I-Material
.	222,223	O	O

Adsorption	224,234	O	B-Data
kinetics	235,243	O	I-Data
of	244,246	O	O
Mefp-1	247,253	O	B-Material
and	254,257	O	O
the	258,261	O	B-Process
complexation	262,274	O	I-Process
were	275,279	O	O
investigated	280,292	O	O
using	293,298	O	O
QCM	299,302	O	B-Method
-	302,303	O	I-Method
D.	303,305	O	I-Method

The	306,309	O	O
results	310,317	O	O
suggest	318,325	O	O
an	326,328	O	B-Process
initially	329,338	O	I-Process
fast	339,343	O	I-Process
adsorption	344,354	O	I-Process
,	354,355	O	O
with	356,360	O	O
the	361,364	O	B-Material
molecules	365,374	O	I-Material
oriented	375,383	O	B-Process
preferentially	384,398	O	I-Process
parallel	399,407	O	I-Process
to	408,410	O	O
the	411,414	O	B-Material
surface	415,422	O	I-Material
,	422,423	O	O
followed	424,432	O	O
by	433,435	O	O
a	436,437	O	B-Process
structural	438,448	O	I-Process
change	449,455	O	I-Process
within	456,462	O	O
the	463,466	O	B-Material
film	467,471	O	I-Material
leading	472,479	O	O
to	480,482	O	O
molecules	483,492	O	B-Material
extending	493,502	O	O
toward	503,509	O	O
solution	510,518	O	B-Material
.	518,519	O	O

Exposure	520,528	O	B-Process
to	529,531	O	O
a	532,533	O	B-Material
diluted	534,541	O	I-Material
FeCl3	542,547	O	I-Material
solution	548,556	O	I-Material
results	557,564	O	O
in	565,567	O	O
enhanced	568,576	O	B-Process
complexation	577,589	O	I-Process
within	590,596	O	O
the	597,600	O	B-Material
adsorbed	601,609	O	I-Material
protein	610,617	O	I-Material
film	618,622	O	I-Material
,	622,623	O	O
leading	624,631	O	O
to	632,634	O	O
water	635,640	O	B-Process
removal	641,648	O	I-Process
and	649,652	O	O
film	653,657	O	B-Process
compaction	658,668	O	I-Process
.	668,669	O	O

In	670,672	O	B-Method
situ	673,677	O	I-Method
Peak	678,682	O	I-Method
Force	683,688	O	I-Method
Tapping	689,696	O	I-Method
AFM	697,700	O	I-Method
was	701,704	O	O
employed	705,713	O	O
for	714,717	O	O
determining	718,729	O	B-Process
morphology	730,740	O	B-Data
and	741,744	O	I-Data
nano	745,749	O	I-Data
-	749,750	O	I-Data
mechanical	750,760	O	I-Data
properties	761,771	O	I-Data
of	772,774	O	O
the	775,778	O	B-Material
surface	779,786	O	I-Material
layer	787,792	O	I-Material
.	792,793	O	O

The	794,797	O	O
results	798,805	O	O
,	805,806	O	O
in	807,809	O	O
agreement	810,819	O	O
with	820,824	O	O
the	825,828	O	B-Method
QCM	829,832	O	I-Method
-	832,833	O	I-Method
D	833,834	O	I-Method
observations	835,847	O	O
,	847,848	O	O
demonstrate	849,860	O	O
that	861,865	O	O
addition	866,874	O	B-Process
of	875,877	O	O
Fe3	878,881	O	B-Material
+	881,882	O	I-Material
induces	883,890	O	B-Process
a	891,892	O	B-Process
transition	893,903	O	I-Process
from	904,908	O	O
an	909,911	O	B-Material
extended	912,920	O	I-Material
and	921,924	O	I-Material
soft	925,929	O	I-Material
protein	930,937	O	I-Material
layer	938,943	O	I-Material
to	944,946	O	O
a	947,948	O	B-Material
denser	949,955	O	I-Material
and	956,959	O	I-Material
stiffer	960,967	O	I-Material
one	968,971	O	I-Material
.	971,972	O	O

Further	973,980	O	O
,	980,981	O	O
in	982,984	O	B-Method
situ	985,989	O	I-Method
ATR	990,993	O	I-Method
-	993,994	O	I-Method
FTIR	994,998	O	I-Method
and	999,1002	O	O
Confocal	1003,1011	O	B-Method
Raman	1012,1017	O	I-Method
Micro	1018,1023	O	I-Method
-	1023,1024	O	I-Method
spectroscopy	1024,1036	O	I-Method
(	1037,1038	O	I-Method
CRM	1038,1041	O	I-Method
)	1041,1042	O	I-Method
techniques	1043,1053	O	O
were	1054,1058	O	O
utilized	1059,1067	O	O
to	1068,1070	O	O
monitor	1071,1078	O	B-Process
compositional	1079,1092	O	B-Process
/	1092,1093	O	I-Process
structural	1093,1103	O	I-Process
changes	1104,1111	O	I-Process
in	1112,1114	O	O
the	1115,1118	O	B-Material
surface	1119,1126	O	I-Material
layer	1127,1132	O	I-Material
due	1133,1136	O	O
to	1137,1139	O	O
addition	1140,1148	O	B-Process
of	1149,1151	O	O
Fe3	1152,1155	O	B-Material
+	1155,1156	O	I-Material
ions	1157,1161	O	I-Material
.	1161,1162	O	O

The	1163,1166	O	B-Process
spectroscopic	1167,1180	O	I-Process
analyses	1181,1189	O	I-Process
assisted	1190,1198	O	O
by	1199,1201	O	O
DFT	1202,1205	O	B-Process
calculations	1206,1218	O	I-Process
provide	1219,1226	O	O
evidence	1227,1235	O	O
for	1236,1239	O	O
formation	1240,1249	O	B-Process
of	1250,1252	O	O
tri	1253,1256	O	B-Material
-	1256,1257	O	I-Material
Fe3+/catechol	1257,1270	O	I-Material
complexes	1271,1280	O	I-Material
in	1281,1283	O	O
the	1284,1287	O	B-Material
surface	1288,1295	O	I-Material
film	1296,1300	O	I-Material
,	1300,1301	O	O
which	1302,1307	O	O
is	1308,1310	O	O
enhanced	1311,1319	O	B-Process
by	1320,1322	O	O
Fe3	1323,1326	O	B-Process
+	1326,1327	O	I-Process
addition	1328,1336	O	I-Process
.	1336,1337	O	O

-DOCSTART- (S0022459611006116)

Samples	0,7	O	O
of	8,10	O	O
ternary	11,18	O	B-Material
nitride	19,26	O	I-Material
fluorides	27,36	O	I-Material
,	36,37	O	I-Material
Mg3NF3	38,44	O	I-Material
and	45,48	O	I-Material
Mg2NF	49,54	O	I-Material
have	55,59	O	O
been	60,64	O	O
prepared	65,73	O	O
by	74,76	O	O
solid	77,82	O	B-Process
state	83,88	O	I-Process
reaction	89,97	O	I-Process
of	98,100	O	O
Mg3N2	101,106	O	B-Material
and	107,110	O	O
MgF2	111,115	O	B-Material
at	116,118	O	O
1323	119,123	O	B-Data
-	123,124	O	I-Data
1423	124,128	O	I-Data
K	128,129	O	I-Data
and	130,133	O	O
investigated	134,146	O	O
by	147,149	O	O
powder	150,156	O	B-Method
X	157,158	O	I-Method
-	158,159	O	I-Method
ray	159,162	O	I-Method
and	163,166	O	O
powder	167,173	O	B-Method
neutron	174,181	O	I-Method
diffraction	182,193	O	I-Method
techniques	194,204	O	O
.	204,205	O	O

Mg3NF3	206,212	O	B-Material
is	213,215	O	O
cubic	216,221	O	B-Data
(	222,223	O	I-Data
space	223,228	O	I-Data
group	229,234	O	I-Data
:	234,235	O	I-Data

Pm3	236,239	O	I-Data
m	239,240	O	I-Data
)	240,241	O	I-Data
and	242,245	O	O
has	246,249	O	O
a	250,251	O	B-Data
structure	252,261	O	I-Data
related	262,269	O	O
to	270,272	O	O
rock	273,277	O	B-Material
-	277,278	O	I-Material
salt	278,282	O	I-Material
MgO	283,286	O	I-Material
,	286,287	O	O
but	288,291	O	O
with	292,296	O	O
one	297,300	O	B-Material
cation	301,307	O	I-Material
site	308,312	O	I-Material
vacant	313,319	O	B-Data
.	319,320	O	O

Mg2NF	321,326	O	B-Material
is	327,329	O	O
tetragonal	330,340	O	B-Data
(	341,342	O	I-Data
space	342,347	O	I-Data
group	348,353	O	I-Data
:	353,354	O	I-Data
I41/amd	355,362	O	I-Data
)	362,363	O	I-Data
and	364,367	O	O
has	368,371	O	O
an	372,374	O	B-Material
anti	375,379	O	I-Material
-	379,380	O	I-Material
LiFeO2	380,386	O	I-Material
related	387,394	O	I-Material
structure	395,404	O	I-Material
.	404,405	O	O

Both	406,410	O	B-Material
compounds	411,420	O	I-Material
are	421,424	O	O
essentially	425,436	O	O
ionic	437,442	O	B-Process
and	443,446	O	O
form	447,451	O	O
structures	452,462	O	B-Data
in	463,465	O	O
which	466,471	O	O
nitride	472,479	O	B-Material
and	480,483	O	I-Material
fluoride	484,492	O	I-Material
anions	493,499	O	I-Material
are	500,503	O	O
crystallographically	504,524	O	B-Process
ordered	525,532	O	I-Process
.	532,533	O	O

The	534,537	O	B-Material
nitride	538,545	O	I-Material
fluorides	546,555	O	I-Material
show	556,560	O	O
temperature	561,572	O	B-Process
independent	573,584	O	I-Process
paramagnetic	585,597	O	I-Process
behaviour	598,607	O	I-Process
between	608,615	O	B-Data
5	616,617	O	I-Data
and	618,621	O	I-Data
300K.	622,627	O	I-Data
Graphical	628,637	O	O

abstract	638,646	O	O
Definitive	647,657	O	B-Data
structures	658,668	O	I-Data
of	669,671	O	O
the	672,675	O	B-Material
ternary	676,683	O	I-Material
magnesium	684,693	O	I-Material
nitride	694,701	O	I-Material
fluorides	702,711	O	I-Material
Mg3NF3	712,718	O	I-Material
and	719,722	O	O
the	723,726	O	B-Data
lower	727,732	O	I-Data
temperature	733,744	O	I-Data
polymorph	745,754	O	I-Data
of	755,757	O	O
Mg2NF	758,763	O	B-Material
have	764,768	O	O
been	769,773	O	O
determined	774,784	O	O
from	785,789	O	O
powder	790,796	O	B-Data
neutron	797,804	O	I-Data
diffraction	805,816	O	I-Data
data	817,821	O	I-Data
.	821,822	O	O

The	823,826	O	B-Material
nitride	827,834	O	I-Material
halides	835,842	O	I-Material
are	843,846	O	O
essentially	847,858	O	O
ionic	859,864	O	B-Process
and	865,868	O	O
exhibit	869,876	O	B-Process
weak	877,881	O	B-Process
temperature	882,893	O	I-Process
independent	894,905	O	I-Process
paramagnetic	906,918	O	I-Process
behaviour	919,928	O	I-Process
.	928,929	O	O

Highlights	930,940	O	O
►	941,942	O	O

Definitive	943,953	O	B-Data
structures	954,964	O	I-Data
of	965,967	O	O
Mg3NF3	968,974	O	B-Material
and	975,978	O	O
Mg2NF	979,984	O	B-Material
were	985,989	O	O
determined	990,1000	O	O
by	1001,1003	O	O
neutron	1004,1011	O	B-Method
diffraction	1012,1023	O	I-Method
.	1023,1024	O	O

►	1025,1026	O	O

Nitride	1027,1034	O	B-Material
and	1035,1038	O	I-Material
fluoride	1039,1047	O	I-Material
anions	1048,1054	O	I-Material
are	1055,1058	O	O
crystallographically	1059,1079	O	B-Process
ordered	1080,1087	O	I-Process
in	1088,1090	O	O
both	1091,1095	O	B-Data
structures	1096,1106	O	I-Data
.	1106,1107	O	O

►	1108,1109	O	O

Both	1110,1114	O	B-Material
compounds	1115,1124	O	I-Material
exhibit	1125,1132	O	O
weak	1133,1137	O	B-Process
,	1137,1138	O	I-Process
temperature	1139,1150	O	I-Process
independent	1151,1162	O	I-Process
paramagnetic	1163,1175	O	I-Process
behaviour	1176,1185	O	I-Process
.	1185,1186	O	O

►	1187,1188	O	O

The	1189,1192	O	B-Material
compounds	1193,1202	O	I-Material
are	1203,1206	O	O
essentially	1207,1218	O	O
ionic	1219,1224	O	B-Process
with	1225,1229	O	O
ionicity	1230,1238	O	B-Data
increasing	1239,1249	O	O
with	1250,1254	O	O
F-	1255,1257	O	B-Material
content	1258,1265	O	I-Material
.	1265,1266	O	O

-DOCSTART- (S0169433213008933)

Surface	0,7	O	B-Data
roughness	8,17	O	I-Data
or	18,20	O	I-Data
texture	21,28	O	I-Data
is	29,31	O	O
the	32,35	O	O
most	36,40	O	O
visible	41,48	O	O
property	49,57	O	O
of	58,60	O	O
any	61,64	O	B-Material
object	65,71	O	I-Material
,	71,72	O	O
including	73,82	O	O
injection	83,92	O	B-Material
molded	93,99	O	I-Material
plastic	100,107	O	I-Material
parts	108,113	O	I-Material
.	113,114	O	O

Roughness	115,124	O	B-Data
of	125,127	O	O
the	128,131	O	B-Material
injection	132,141	O	I-Material
molding	142,149	O	I-Material
(	150,151	O	I-Material
IM	151,153	O	I-Material
)	153,154	O	I-Material
tool	155,159	O	I-Material
cavity	160,166	O	I-Material
directly	167,175	O	O
affects	176,183	O	B-Process
not	184,187	O	O
only	188,192	O	O
appearance	193,203	O	B-Data
and	204,207	O	I-Data
perception	208,218	O	I-Data
of	219,221	O	I-Data
quality	222,229	O	I-Data
,	229,230	O	O
but	231,234	O	O
often	235,240	O	O
also	241,245	O	O
the	246,249	O	O
function	250,258	O	O
of	259,261	O	O
all	262,265	O	B-Material
manufactured	266,278	O	I-Material
plastic	279,286	O	I-Material
parts	287,292	O	I-Material
.	292,293	O	O

So	294,296	O	O
called	297,303	O	O
"	304,305	O	B-Material
optically	305,314	O	I-Material
smooth	315,321	O	I-Material
"	321,322	O	I-Material
plastic	323,330	O	I-Material
surfaces	331,339	O	I-Material
is	340,342	O	O
one	343,346	O	O
example	347,354	O	O
,	354,355	O	O
where	356,361	O	O
low	362,365	O	B-Data
roughness	366,375	O	I-Data
of	376,378	O	O
a	379,380	O	B-Material
tool	381,385	O	I-Material
cavity	386,392	O	I-Material
is	393,395	O	O
desirable	396,405	O	O
.	405,406	O	O

Such	407,411	O	B-Material
tool	412,416	O	I-Material
surfaces	417,425	O	I-Material
can	426,429	O	O
be	430,432	O	O
very	433,437	O	O
expensive	438,447	O	O
to	448,450	O	O
fabricate	451,460	O	B-Process
using	461,466	O	O
conventional	467,479	O	O
means	480,485	O	O
,	485,486	O	O
such	487,491	O	O
as	492,494	O	O
abrasive	495,503	O	B-Process
diamond	504,511	O	I-Process
polishing	512,521	O	I-Process
or	522,524	O	I-Process
diamond	525,532	O	I-Process
turning	533,540	O	I-Process
.	540,541	O	O

We	542,544	O	O
present	545,552	O	O
a	553,554	O	O
novel	555,560	O	O
process	561,568	O	O
to	569,571	O	O
coat	572,576	O	B-Process
machined	577,585	O	B-Material
metal	586,591	O	I-Material
parts	592,597	O	I-Material
with	598,602	O	O
hydrogen	603,611	O	B-Material
silsesquioxane	612,626	O	I-Material
(	627,628	O	I-Material
HSQ	628,631	O	I-Material
)	631,632	O	I-Material
to	633,635	O	O
reduce	636,642	O	B-Process
their	643,648	O	B-Data
surface	649,656	O	I-Data
roughness	657,666	O	I-Data
.	666,667	O	O

Results	668,675	O	O
from	676,680	O	O
the	681,684	O	B-Process
testing	685,692	O	I-Process
of	693,695	O	O
surfaces	696,704	O	B-Material
made	705,709	O	O
from	710,714	O	O
two	715,718	O	B-Data
starting	719,727	O	I-Data
roughnesses	728,739	O	I-Data
are	740,743	O	O
presented	744,753	O	O
;	753,754	O	O
one	755,758	O	O
polished	759,767	O	B-Process
with	768,772	O	O
grit	773,777	O	B-Data
2500	778,782	O	I-Data
sandpaper	783,792	O	B-Material
,	792,793	O	O
another	794,801	O	O
with	802,806	O	O
grit	807,811	O	B-Data
11.000	812,818	O	I-Data
diamond	819,826	O	B-Material
polishing	827,836	O	I-Material
paste	837,842	O	I-Material
.	842,843	O	O

We	844,846	O	O
characterize	847,859	O	O
the	860,863	O	B-Material
two	864,867	O	I-Material
surfaces	868,876	O	I-Material
with	877,881	O	O
AFM	882,885	O	B-Method
,	885,886	O	O
SEM	887,890	O	B-Method
and	891,894	O	O
optical	895,902	O	B-Method
profilometry	903,915	O	I-Method
before	916,922	O	O
and	923,926	O	O
after	927,932	O	O
coating	933,940	O	B-Process
.	940,941	O	O

We	942,944	O	O
show	945,949	O	O
that	950,954	O	O
the	955,958	O	B-Material
HSQ	959,962	O	I-Material
coating	963,970	O	I-Material
is	971,973	O	O
able	974,978	O	O
to	979,981	O	O
reduce	982,988	O	B-Process
peak	989,993	O	B-Data
-	993,994	O	I-Data
to	994,996	O	I-Data
-	996,997	O	I-Data
valley	997,1003	O	I-Data
roughness	1004,1013	O	I-Data
more	1014,1018	O	B-Data
than	1019,1023	O	I-Data
20	1024,1026	O	I-Data
times	1027,1032	O	I-Data
on	1033,1035	O	O
the	1036,1039	O	B-Material
sandpaper	1040,1049	O	I-Material
polished	1050,1058	O	I-Material
sample	1059,1065	O	I-Material
,	1065,1066	O	O
from	1067,1071	O	B-Data
2.44(±0.99)μm	1072,1085	O	I-Data
to	1086,1088	O	I-Data
104(±22)nm	1089,1099	O	I-Data
and	1100,1103	O	O
more	1104,1108	O	B-Data
than	1109,1113	O	I-Data
10	1114,1116	O	I-Data
times	1117,1122	O	I-Data
for	1123,1126	O	O
the	1127,1130	O	B-Material
paste	1131,1136	O	I-Material
polished	1137,1145	O	I-Material
sample	1146,1152	O	I-Material
from	1153,1157	O	B-Data
1.85(±0.63)μm	1158,1171	O	I-Data
to	1172,1174	O	I-Data
162(±28)nm	1175,1185	O	I-Data
while	1186,1191	O	O
roughness	1192,1201	O	B-Data
averages	1202,1210	O	I-Data
are	1211,1214	O	O
reduced	1215,1222	O	B-Process
10	1223,1225	O	B-Data
and	1226,1229	O	I-Data
3	1230,1231	O	I-Data
times	1232,1237	O	I-Data
respectively	1238,1250	O	O
.	1250,1251	O	O

We	1252,1254	O	O
completed	1255,1264	O	O
more	1265,1269	O	B-Data
than	1270,1274	O	I-Data
10,000	1275,1281	O	I-Data
injection	1282,1291	O	B-Process
molding	1292,1299	O	I-Process
cycles	1300,1306	O	I-Process
without	1307,1314	O	O
detectable	1315,1325	O	B-Process
degradation	1326,1337	O	I-Process
of	1338,1340	O	O
the	1341,1344	O	B-Material
HSQ	1345,1348	O	I-Material
coating	1349,1356	O	I-Material
.	1356,1357	O	O

This	1358,1362	O	O
result	1363,1369	O	O
opens	1370,1375	O	O
new	1376,1379	O	O
possibilities	1380,1393	O	O
for	1394,1397	O	O
molding	1398,1405	O	B-Process
of	1406,1408	O	O
affordable	1409,1419	O	B-Material
plastic	1420,1427	O	I-Material
parts	1428,1433	O	I-Material
with	1434,1438	O	O
perfect	1439,1446	O	O
surface	1447,1454	O	B-Material
finish	1455,1461	O	I-Material
.	1461,1462	O	O

-DOCSTART- (S0301010413004096)

Metal	0,5	O	B-Material
-	5,6	O	I-Material
organic	6,13	O	I-Material
framework	14,23	O	I-Material
(	24,25	O	I-Material
MOF	25,28	O	I-Material
)	28,29	O	I-Material
materials	30,39	O	I-Material
show	40,44	O	O
promise	45,52	O	O
for	53,56	O	O
H2	57,59	O	B-Process
storage	60,67	O	I-Process

and	68,71	O	O
it	72,74	O	O
is	75,77	O	O
widely	78,84	O	O
predicted	85,94	O	B-Process
by	95,97	O	O
computational	98,111	O	B-Process
modelling	112,121	O	I-Process
that	122,126	O	O
MOFs	127,131	O	B-Material
incorporating	132,145	O	O
ultra	146,151	O	B-Material
-	151,152	O	I-Material
micropores	152,162	O	I-Material
are	163,166	O	O
optimal	167,174	O	B-Data
for	175,178	O	O
H2	179,181	O	B-Process
binding	182,189	O	I-Process
due	190,193	O	O
to	194,196	O	O
enhanced	197,205	O	B-Data
overlapping	206,217	O	I-Data
potentials	218,228	O	I-Data
.	228,229	O	O

We	230,232	O	O
report	233,239	O	O
the	240,243	O	O
investigation	244,257	O	O
using	258,263	O	O
inelastic	264,273	O	B-Process
neutron	274,281	O	I-Process
scattering	282,292	O	I-Process
of	293,295	O	O
the	296,299	O	B-Process
interaction	300,311	O	I-Process
of	312,314	O	O
H2	315,317	O	B-Material
in	318,320	O	O
an	321,323	O	B-Material
ultra	324,329	O	I-Material
-	329,330	O	I-Material
microporous	330,341	O	I-Material
MOF	342,345	O	I-Material
material	346,354	O	I-Material
showing	355,362	O	O
low	363,366	O	B-Data
H2	367,369	O	B-Data
uptake	370,376	O	I-Data
capacity	377,385	O	I-Data
.	385,386	O	O

The	387,390	O	O
study	391,396	O	O
has	397,400	O	O
revealed	401,409	O	O
that	410,414	O	O
adsorbed	415,423	O	B-Material
H2	424,426	O	I-Material
at	427,429	O	O
5	430,431	O	B-Data
K	431,432	O	I-Data
has	433,436	O	O
a	437,438	O	B-Process
liquid	439,445	O	I-Process
recoil	446,452	O	I-Process
motion	453,459	O	I-Process
along	460,465	O	O
the	466,469	O	B-Material
channel	470,477	O	I-Material
with	478,482	O	O
very	483,487	O	B-Process
little	488,494	O	I-Process
interaction	495,506	O	I-Process
with	507,511	O	O
the	512,515	O	B-Material
MOF	516,519	O	I-Material
host	520,524	O	I-Material
,	524,525	O	O
consistent	526,536	O	O
with	537,541	O	O
the	542,545	O	O
observed	546,554	O	O
low	555,558	O	B-Data
uptake	559,565	O	B-Process
.	565,566	O	O

The	567,570	O	B-Data
low	571,574	O	I-Data
H2	575,577	O	B-Process
uptake	578,584	O	I-Process
is	585,587	O	O
not	588,591	O	O
due	592,595	O	O
to	596,598	O	O
incomplete	599,609	O	B-Process
activation	610,620	O	I-Process
or	621,623	O	I-Process
decomposition	624,637	O	I-Process
as	638,640	O	O
the	641,644	O	B-Material
desolvated	645,655	O	I-Material
MOF	656,659	O	I-Material
shows	660,665	O	O
CO2	666,669	O	B-Process
uptake	670,676	O	I-Process
with	677,681	O	O
a	682,683	O	B-Data
measured	684,692	O	I-Data
pore	693,697	O	I-Data
volume	698,704	O	I-Data
close	705,710	O	O
to	711,713	O	O
that	714,718	O	O
of	719,721	O	O
the	722,725	O	B-Data
single	726,732	O	I-Data
crystal	733,740	O	I-Data
pore	741,745	O	I-Data
volume	746,752	O	I-Data
.	752,753	O	O

This	754,758	O	O
study	759,764	O	O
represents	765,775	O	O
a	776,777	O	O
unique	778,784	O	O
example	785,792	O	O
of	793,795	O	O
surprisingly	796,808	O	O
low	809,812	O	B-Data
H2	813,815	O	B-Process
uptake	816,822	O	I-Process
within	823,829	O	O
a	830,831	O	B-Material
MOF	832,835	O	I-Material
material	836,844	O	I-Material
,	844,845	O	O
and	846,849	O	O
complements	850,861	O	O
the	862,865	O	O
wide	866,870	O	O
range	871,876	O	O
of	877,879	O	O
studies	880,887	O	O
on	888,890	O	O
systems	891,898	O	O
showing	899,906	O	O
higher	907,913	O	B-Data
uptake	914,920	O	B-Data
capacities	921,931	O	I-Data
and	932,935	O	O
binding	936,943	O	B-Process
interactions	944,956	O	I-Process
.	956,957	O	O

-DOCSTART- (S0927024813002420)

Bulk	0,4	O	B-Data
heterojunction	5,19	O	B-Material
solar	20,25	O	I-Material
cells	26,31	O	I-Material
made	32,36	O	O
by	37,39	O	O
vacuum	40,46	O	B-Process
co	47,49	O	I-Process
-	49,50	O	I-Process
evaporation	50,61	O	I-Process
of	62,64	O	O
polythiophene	65,78	O	B-Material
(	79,80	O	I-Material
PTh	80,83	O	I-Material
)	83,84	O	I-Material
and	85,88	O	O
fullerene	89,98	O	B-Material
(	99,100	O	I-Material
C60	100,103	O	I-Material
)	103,104	O	I-Material
are	105,108	O	O
reported	109,117	O	O
and	118,121	O	O
the	122,125	O	B-Process
blend	126,131	O	I-Process
morphology	132,142	O	I-Process
control	143,150	O	I-Process
through	151,158	O	O
donor	159,164	O	B-Material
-	164,165	O	I-Material
acceptor	165,173	O	I-Material
composition	174,185	O	I-Material
and	186,189	O	O
post	190,194	O	B-Method
-	194,195	O	I-Method
situ	195,199	O	I-Method
annealing	200,209	O	B-Process
demonstrated	210,222	O	O
.	222,223	O	O

Co	224,226	O	B-Process
-	226,227	O	I-Process
deposited	227,236	O	I-Process
heterojunctions	237,252	O	I-Process
are	253,256	O	O
shown	257,262	O	O
to	263,265	O	O
generate	266,274	O	B-Process
about	275,280	O	O
60	281,283	O	B-Data
%	283,284	O	I-Data
higher	285,291	O	I-Data
photocurrents	292,305	O	B-Process
than	306,310	O	O
their	311,316	O	B-Material
thickness	317,326	O	I-Material
-	326,327	O	I-Material
optimized	327,336	O	I-Material
PTh	337,340	O	I-Material
/	340,341	O	I-Material
C60	341,344	O	I-Material
planar	345,351	O	I-Material
heterojunction	352,366	O	I-Material
counterparts	367,379	O	I-Material
.	379,380	O	O

Furthermore	381,392	O	O
,	392,393	O	O
by	394,396	O	O
annealing	397,406	O	B-Process
the	407,410	O	B-Material
devices	411,418	O	I-Material
post	419,423	O	B-Method
-	423,424	O	I-Method
situ	424,428	O	I-Method
the	429,432	O	B-Data
power	433,438	O	I-Data
conversion	439,449	O	I-Data
efficiency	450,460	O	I-Data
is	461,463	O	O
improved	464,472	O	B-Process
by	473,475	O	O
as	476,478	O	B-Data
much	479,483	O	I-Data
as	484,486	O	I-Data
80	487,489	O	I-Data
%	489,490	O	I-Data
.	490,491	O	O

UV	492,494	O	B-Method
-	494,495	O	I-Method
vis	495,498	O	I-Method
,	498,499	O	I-Method
XRD	500,503	O	I-Method
and	504,507	O	I-Method
AFM	508,511	O	I-Method
analysis	512,520	O	I-Method
shows	521,526	O	O
that	527,531	O	O
the	532,535	O	B-Process
enhanced	536,544	O	I-Process
photoresponse	545,558	O	I-Process
is	559,561	O	O
a	562,563	O	O
result	564,570	O	O
of	571,573	O	O
favorable	574,583	O	O
morphological	584,597	O	B-Process
development	598,609	O	I-Process
of	610,612	O	O
PTh	613,616	O	B-Material
upon	617,621	O	O
annealing	622,631	O	B-Process
.	631,632	O	O

Annealing	633,642	O	B-Process
-	642,643	O	I-Process
induced	643,650	O	I-Process
improvement	651,662	O	I-Process
of	663,665	O	O
the	666,669	O	B-Material
donor	670,675	O	I-Material
-	675,676	O	I-Material
acceptor	676,684	O	I-Material
network	685,692	O	I-Material
is	693,695	O	O
demonstrated	696,708	O	O
across	709,715	O	O
a	716,717	O	B-Data
wide	718,722	O	I-Data
range	723,728	O	I-Data
of	729,731	O	I-Data
compositions	732,744	O	I-Data
(	745,746	O	O
20	746,748	O	B-Data
-	748,749	O	I-Data
80	749,751	O	I-Data
%	751,752	O	I-Data
PTh	753,756	O	B-Material
)	756,757	O	O
.	757,758	O	O

This	759,763	O	O
illustrates	764,775	O	O
that	776,780	O	O
good	781,785	O	B-Data
morphology	786,796	O	B-Process
control	797,804	O	I-Process
is	805,807	O	O
possible	808,816	O	O
in	817,819	O	O
co	820,822	O	B-Material
-	822,823	O	I-Material
evaporated	823,833	O	I-Material
polymer	834,841	O	I-Material
-	841,842	O	I-Material
fullerene	842,851	O	I-Material
blends	852,858	O	I-Material
through	859,866	O	O
multiple	867,875	O	B-Data
parameters	876,886	O	I-Data
and	887,890	O	O
differentiates	891,905	O	B-Process
this	906,910	O	B-Material
donor	911,916	O	I-Material
-	916,917	O	I-Material
acceptor	917,925	O	I-Material
combination	926,937	O	I-Material
from	938,942	O	O
the	943,946	O	B-Process
standard	947,955	O	I-Process
small	956,961	O	I-Process
-	961,962	O	I-Process
molecule	962,970	O	I-Process
systems	971,978	O	I-Process
.	978,979	O	O

Graphical	980,989	O	O
abstract	990,998	O	O
Highlights	999,1009	O	O
•	1010,1011	O	O
Vacuum	1012,1018	O	B-Process
deposition	1019,1029	O	I-Process
of	1030,1032	O	O
polymer	1033,1040	O	B-Material
/	1040,1041	O	I-Material
fullerene	1041,1050	O	I-Material
bulk	1051,1055	O	I-Material
heterojunction	1056,1070	O	I-Material
solar	1071,1076	O	I-Material
cells	1077,1082	O	I-Material
is	1083,1085	O	O
reported	1086,1094	O	O
.	1094,1095	O	O

•	1096,1097	O	O

Their	1098,1103	O	B-Data
performance	1104,1115	O	I-Data
is	1116,1118	O	O
optimized	1119,1128	O	B-Process
through	1129,1136	O	O
composition	1137,1148	O	B-Process
as	1149,1151	O	O
well	1152,1156	O	O
as	1157,1159	O	O
post	1160,1164	O	B-Method
-	1164,1165	O	I-Method
situ	1165,1169	O	I-Method
thermal	1170,1177	O	B-Process
annealing	1178,1187	O	I-Process
.	1187,1188	O	O

•	1189,1190	O	O

Annealing	1191,1200	O	B-Process
enhances	1201,1209	O	B-Process
efficiency	1210,1220	O	B-Data
over	1221,1225	O	O
a	1226,1227	O	B-Data
wide	1228,1232	O	I-Data
range	1233,1238	O	I-Data
of	1239,1241	O	O
D	1242,1243	O	B-Material
:	1243,1244	O	I-Material
A	1244,1245	O	I-Material
blend	1246,1251	O	I-Material
compositions	1252,1264	O	I-Material
(	1265,1266	O	O
1:4	1266,1269	O	B-Data
-	1269,1270	O	I-Data
4:1	1270,1273	O	I-Data
)	1273,1274	O	O
.	1274,1275	O	O

•	1276,1277	O	O

Improved	1278,1286	O	B-Data
blend	1287,1292	O	I-Data
morphology	1293,1303	O	I-Data
results	1304,1311	O	O
from	1312,1316	O	O
favorable	1317,1326	O	B-Process
phase	1327,1332	O	I-Process
separation	1333,1343	O	I-Process
of	1344,1346	O	O
the	1347,1350	O	B-Material
polymer	1351,1358	O	I-Material
.	1358,1359	O	O

•	1360,1361	O	O

Morphology	1362,1372	O	B-Process
control	1373,1380	O	I-Process
in	1381,1383	O	O
the	1384,1387	O	B-Material
polymer	1388,1395	O	I-Material
blend	1396,1401	O	I-Material
is	1402,1404	O	O
superior	1405,1413	O	B-Data
to	1414,1416	O	O
the	1417,1420	O	B-Material
equivalent	1421,1431	O	I-Material
oligomer	1432,1440	O	I-Material
blends	1441,1447	O	I-Material
.	1447,1448	O	O

-DOCSTART- (S1387700313001822)

The	0,3	O	B-Process
path	4,8	O	I-Process
of	9,11	O	I-Process
the	12,15	O	I-Process
chirality	16,25	O	I-Process
delivery	26,34	O	I-Process
in	35,37	O	O
the	38,41	O	B-Material
crystalline	42,53	O	I-Material
and	54,57	O	I-Material
chiral	58,64	O	I-Material
nucleotide	65,75	O	I-Material
-	75,76	O	I-Material
Co(II	76,81	O	I-Material
)	81,82	O	I-Material
complex	83,90	O	I-Material
,	90,91	O	I-Material
[	92,93	O	I-Material
Co(GMP)(H2O)5]·3H2O	93,112	O	I-Material
(	113,114	O	I-Material
GMP	114,117	O	I-Material
=	117,118	O	I-Material
guanosine-5′-monophosphate	118,144	O	I-Material
)	144,145	O	I-Material
,	145,146	O	O
has	147,150	O	O
been	151,155	O	O
studied	156,163	O	O
based	164,169	O	O
on	170,172	O	O
X	173,174	O	B-Method
-	174,175	O	I-Method
ray	175,178	O	I-Method
single	179,185	O	I-Method
crystal	186,193	O	I-Method
diffraction	194,205	O	I-Method
analysis	206,214	O	I-Method
,	214,215	O	O
liquid-	216,223	O	B-Method
and	224,227	O	I-Method
solid	228,233	O	I-Method
-	233,234	O	I-Method
state	234,239	O	I-Method
circular	240,248	O	I-Method
dichroism	249,258	O	I-Method
(	259,260	O	I-Method
CD	260,262	O	I-Method
)	262,263	O	I-Method
spectroscopy	264,276	O	I-Method
.	276,277	O	O

The	278,281	O	B-Process
multiple	282,290	O	I-Process
and	291,294	O	I-Process
helical	295,302	O	I-Process
H	303,304	O	I-Process
-	304,305	O	I-Process
bonding	305,312	O	I-Process
is	313,315	O	O
a	316,317	O	O
distinctive	318,329	O	O
way	330,333	O	O
of	334,336	O	O
chirality	337,346	O	B-Process
delivery	347,355	O	I-Process
from	356,360	O	O
the	361,364	O	B-Material
discrete	365,373	O	I-Material
molecules	374,383	O	I-Material
to	384,386	O	O
three	387,392	O	B-Material
-	392,393	O	I-Material
dimensional	393,404	O	I-Material
supramolecular	405,419	O	I-Material
architecture	420,432	O	I-Material
.	432,433	O	O

Graphical	434,443	O	O
abstract	444,452	O	O

The	453,456	O	B-Process
molecular	457,466	O	I-Process
chirality	467,476	O	I-Process
of	477,479	O	O
crystallized	480,492	O	B-Material
nucleotide	493,503	O	I-Material
-	503,504	O	I-Material
transition	504,514	O	I-Material
metal	515,520	O	I-Material
coordination	521,533	O	I-Material
complex	534,541	O	I-Material
is	542,544	O	O
delivered	545,554	O	O
to	555,557	O	O
three	558,563	O	B-Material
-	563,564	O	I-Material
dimensional	564,575	O	I-Material
supramolecular	576,590	O	I-Material
architecture	591,603	O	I-Material
through	604,611	O	O
multiple	612,620	O	B-Process
and	621,624	O	I-Process
helical	625,632	O	I-Process
H	633,634	O	I-Process
-	634,635	O	I-Process
bonding	635,642	O	I-Process
in	643,645	O	O
its	646,649	O	B-Material
crystal	650,657	O	I-Material
lattice	658,665	O	I-Material
.	665,666	O	O

Liquid-	667,674	O	B-Method
and	675,678	O	I-Method

solid	679,684	O	I-Method
-	684,685	O	I-Method
state	685,690	O	I-Method
CD	691,693	O	I-Method
spectroscopy	694,706	O	I-Method
confirm	707,714	O	O
the	715,718	O	B-Process
novel	719,724	O	I-Process
path	725,729	O	I-Process
of	730,732	O	I-Process
chirality	733,742	O	I-Process
delivery	743,751	O	I-Process
.	751,752	O	O

Highlights	753,763	O	O
•	764,765	O	O

The	766,769	O	B-Process
chirality	770,779	O	I-Process
delivery	780,788	O	I-Process
in	789,791	O	O
the	792,795	O	B-Material
crystallized	796,808	O	I-Material
coordination	809,821	O	I-Material
complex	822,829	O	I-Material
has	830,833	O	O
been	834,838	O	O
studied	839,846	O	O
.	846,847	O	O

•	848,849	O	O

The	850,853	O	B-Process
path	854,858	O	I-Process
of	859,861	O	I-Process
chirality	862,871	O	I-Process
delivery	872,880	O	I-Process
in	881,883	O	O
this	884,888	O	B-Material
complex	889,896	O	I-Material
is	897,899	O	O
multiple	900,908	O	B-Process
and	909,912	O	I-Process
helical	913,920	O	I-Process
H	921,922	O	I-Process
-	922,923	O	I-Process
bonding	923,930	O	I-Process
.	930,931	O	O

•	932,933	O	O

Liquid-	934,941	O	B-Method

and	942,945	O	I-Method
solid	946,951	O	I-Method
-	951,952	O	I-Method
state	952,957	O	I-Method
CD	958,960	O	I-Method
spectroscopy	961,973	O	I-Method
confirm	974,981	O	O
the	982,985	O	B-Process
mechanism	986,995	O	I-Process
of	996,998	O	I-Process
chirality	999,1008	O	I-Process
delivery	1009,1017	O	I-Process
.	1017,1018	O	O

-DOCSTART- (S1388248113001951)

O3-type	0,7	O	B-Material
NaFeO2	8,14	O	I-Material
is	15,17	O	O
a	18,19	O	O
promising	20,29	O	O
candidate	30,39	O	O
as	40,42	O	O
positive	43,51	O	B-Data
electrode	52,61	O	B-Material
materials	62,71	O	I-Material
for	72,75	O	O
rechargeable	76,88	O	B-Material
Na	89,91	O	I-Material
batteries	92,101	O	I-Material
.	101,102	O	O

However	103,110	O	O
,	110,111	O	O
its	112,115	O	O
reversible	116,126	O	O
range	127,132	O	O
of	133,135	O	O
sodium	136,142	O	B-Process
extraction	143,153	O	I-Process
is	154,156	O	O
relatively	157,167	O	O
narrow	168,174	O	O
(	175,176	O	O
x	176,177	O	B-Material
=	177,178	O	I-Material
ca	178,180	O	I-Material
.	180,181	O	I-Material

0.4	182,185	O	I-Material
in	186,188	O	I-Material
Na1-xFeO2	189,198	O	I-Material
)	198,199	O	O

because	200,207	O	O
of	208,210	O	O
the	211,214	O	B-Process
irreversible	215,227	O	I-Process
structural	228,238	O	I-Process
change	239,245	O	I-Process
,	245,246	O	O
presumably	247,257	O	O
associated	258,268	O	O
with	269,273	O	O
the	274,277	O	B-Process
iron	278,282	O	I-Process
migration	283,292	O	I-Process
into	293,297	O	O
the	298,301	O	B-Material
adjacent	302,310	O	I-Material
tetrahedral	311,322	O	I-Material
sites	323,328	O	I-Material
in	329,331	O	O
Na	332,334	O	B-Material
layers	335,341	O	I-Material
as	342,344	O	O
we	345,347	O	O
recently	348,356	O	O
reported	357,365	O	O
.	365,366	O	O

Herein	367,373	O	O
,	373,374	O	O
we	375,377	O	O
report	378,384	O	O
that	385,389	O	O
cobalt	390,396	O	B-Material
-	396,397	O	I-Material
substituted	397,408	O	I-Material
NaFeO2	409,415	O	I-Material
demonstrates	416,428	O	O
excellent	429,438	O	O
electrode	439,448	O	B-Data
performance	449,460	O	I-Data
in	461,463	O	O
a	464,465	O	B-Material
non	466,469	O	I-Material
-	469,470	O	I-Material
aqueous	470,477	O	I-Material
Na	478,480	O	I-Material
cell	481,485	O	I-Material
at	486,488	O	O
room	489,493	O	B-Data
temperature	494,505	O	I-Data
.	505,506	O	O

NaFe0.5Co0.5O2	507,521	O	B-Material
delivers	522,530	O	B-Process
approximately	531,544	O	B-Data
160mAhg-1	545,554	O	I-Data
of	555,557	O	I-Data
reversible	558,568	O	I-Data
capacity	569,577	O	I-Data
with	578,582	O	O
relatively	583,593	O	O
good	594,598	O	B-Data
capacity	599,607	O	B-Process
retention	608,617	O	I-Process
and	618,621	O	O
excellent	622,631	O	B-Data
rate	632,636	O	B-Process
-	636,637	O	I-Process
capability	637,647	O	I-Process
in	648,650	O	O
a	651,652	O	B-Data
voltage	653,660	O	I-Data
range	661,666	O	I-Data
of	667,669	O	I-Data
2.5	670,673	O	I-Data
-	673,674	O	I-Data
4.0V	674,678	O	I-Data
,	678,679	O	O
resulting	680,689	O	O
in	690,692	O	O
reversible	693,703	O	B-Process
formation	704,713	O	I-Process
of	714,716	O	O
Na0.3Fe0.5Co0.5O2	717,734	O	B-Material
.	734,735	O	O

The	736,739	O	B-Process
partial	740,747	O	I-Process
substitution	748,760	O	I-Process
of	761,763	O	I-Process
metal	764,769	O	I-Process
element	770,777	O	I-Process
for	778,781	O	O
Fe	782,784	O	B-Material
in	785,787	O	I-Material
O3-type	788,795	O	I-Material
NaFeO2-based	796,808	O	I-Material
materials	809,818	O	I-Material
is	819,821	O	O
proved	822,828	O	O
to	829,831	O	O
be	832,834	O	O
the	835,838	O	O
important	839,848	O	O
strategy	849,857	O	O
to	858,860	O	O
suppress	861,869	O	B-Process
the	870,873	O	B-Process
irreversible	874,886	O	I-Process
phase	887,892	O	I-Process
transition	893,903	O	I-Process
,	903,904	O	O
and	905,908	O	O
thus	909,913	O	O
improving	914,923	O	O
the	924,927	O	B-Process
reversibility	928,941	O	I-Process
of	942,944	O	I-Process
sodium	945,951	O	I-Process
removal	952,959	O	I-Process
/	959,960	O	I-Process
insertion	960,969	O	I-Process
as	970,972	O	O
the	973,976	O	B-Material
electrode	977,986	O	I-Material
materials	987,996	O	I-Material
.	996,997	O	O

Highlights	998,1008	O	O
•	1009,1010	O	O
Synthesis	1011,1020	O	B-Process
and	1021,1024	O	O
characterizations	1025,1042	O	B-Process
of	1043,1045	O	O
layered	1046,1053	O	B-Material
NaFe0.5Co0.5O2	1054,1068	O	I-Material
.	1068,1069	O	O

•	1070,1071	O	O

Its	1072,1075	O	O
electrode	1076,1085	O	B-Data
performance	1086,1097	O	I-Data
in	1098,1100	O	O
Na	1101,1103	O	B-Material
cell	1104,1108	O	I-Material
was	1109,1112	O	O
compared	1113,1121	O	O
with	1122,1126	O	O
those	1127,1132	O	O
of	1133,1135	O	O
NaFeO2	1136,1142	O	B-Material
and	1143,1146	O	O
NaCoO2	1147,1153	O	B-Material
.	1153,1154	O	O

•	1155,1156	O	O

NaxFe0.5Co0.5O2	1157,1172	O	B-Material
is	1173,1175	O	O
one	1176,1179	O	B-Material
of	1180,1182	O	I-Material
the	1183,1186	O	I-Material
highest	1187,1194	O	I-Material
power	1195,1200	O	I-Material
positive	1201,1209	O	I-Material
electrodes	1210,1220	O	I-Material
among	1221,1226	O	O
layered	1227,1234	O	B-Material
oxides	1235,1241	O	I-Material
.	1241,1242	O	O

