-DOCSTART- (S0001870812002101)

We	0,2	O	O
prove	3,8	O	O
an	9,11	O	B-Data
integrality	12,23	O	I-Data
property	24,32	O	I-Data
of	33,35	O	O
the	36,39	O	B-Data
Chern	40,45	O	I-Data
character	46,55	O	I-Data
with	56,60	O	O
values	61,67	O	B-Data
in	68,70	O	I-Data
Chow	71,75	O	I-Data
groups	76,82	O	I-Data
.	82,83	O	O

As	84,86	O	O
a	87,88	O	O
consequence	89,100	O	O
,	100,101	O	O
we	102,104	O	O
obtain	105,111	O	O
a	112,113	O	B-Process
construction	114,126	O	I-Process
of	127,129	O	O
the	130,133	O	B-Method
p-1	134,137	O	I-Method
first	138,143	O	I-Method
homological	144,155	O	I-Method
Steenrod	156,164	O	I-Method
operations	165,175	O	I-Method
on	176,178	O	O
Chow	179,183	O	B-Data
groups	184,190	O	I-Data
modulo	191,197	O	B-Process
p	198,199	O	I-Process
and	200,203	O	I-Process
p	204,205	O	I-Process
-	205,206	O	I-Process
primary	206,213	O	I-Process
torsion	214,221	O	I-Process
,	221,222	O	O
over	223,227	O	O
an	228,230	O	B-Data
arbitrary	231,240	O	I-Data
field	241,246	O	I-Data
.	246,247	O	O

We	248,250	O	O
provide	251,258	O	O
applications	259,271	O	O
to	272,274	O	O
the	275,278	O	O
study	279,284	O	O
of	285,287	O	O
correspondences	288,303	O	B-Process
between	304,311	O	O
algebraic	312,321	O	B-Data
varieties	322,331	O	I-Data
.	331,332	O	O

-DOCSTART- (S0001870813002715)

Let	0,3	O	O
G	4,5	O	B-Data
be	6,8	O	O
a	9,10	O	B-Data
unimodular	11,21	O	I-Data
Lie	22,25	O	I-Data
group	26,31	O	I-Data
,	31,32	O	O
X	33,34	O	B-Data
a	35,36	O	B-Data
compact	37,44	O	I-Data
manifold	45,53	O	I-Data
with	54,58	O	I-Data
boundary	59,67	O	I-Data
,	67,68	O	O
and	69,72	O	O
M	73,74	O	B-Data
the	75,78	O	B-Data
total	79,84	O	I-Data
space	85,90	O	I-Data
of	91,93	O	I-Data
a	94,95	O	I-Data
principal	96,105	O	I-Data
bundle	106,112	O	I-Data
G→M→X	113,118	O	I-Data

so	119,121	O	O
that	122,126	O	O
M	127,128	O	B-Data
is	129,131	O	O
also	132,136	O	O
a	137,138	O	B-Data
strongly	139,147	O	I-Data
pseudoconvex	148,160	O	I-Data
complex	161,168	O	I-Data
manifold	169,177	O	I-Data
.	177,178	O	O

In	179,181	O	O
this	182,186	O	O
work	187,191	O	O
,	191,192	O	O
we	193,195	O	O
show	196,200	O	O
that	201,205	O	O
if	206,208	O	O
there	209,214	O	O
exists	215,221	O	O
a	222,223	O	B-Data
point	224,229	O	I-Data
p∈bM	230,234	O	I-Data
such	235,239	O	O
that	240,244	O	O
TpG	245,248	O	B-Data
is	249,251	O	O
contained	252,261	O	O
in	262,264	O	O
the	265,268	O	B-Data
complex	269,276	O	I-Data
tangent	277,284	O	I-Data
space	285,290	O	I-Data
TpcbM	291,296	O	I-Data
of	297,299	O	O
bM	300,302	O	B-Data
at	303,305	O	O
p	306,307	O	B-Data
,	307,308	O	O
then	309,313	O	O
the	314,317	O	B-Data
Bergman	318,325	O	I-Data
space	326,331	O	I-Data
of	332,334	O	O
M	335,336	O	B-Data
is	337,339	O	O
large	340,345	O	B-Data
.	345,346	O	O

Natural	347,354	O	B-Material
examples	355,363	O	I-Material
include	364,371	O	O
the	372,375	O	B-Process
gauged	376,382	O	I-Process
G	383,384	O	I-Process
-	384,385	O	I-Process
complexifications	385,402	O	I-Process
of	403,405	O	O
Heinzner	406,414	O	O
,	414,415	O	O
Huckleberry	416,427	O	O
,	427,428	O	O
and	429,432	O	O
Kutzschebauch	433,446	O	O
.	446,447	O	O

-DOCSTART- (S0001870813003265)

We	0,2	O	O
consider	3,11	O	O
the	12,15	O	B-Data
polynomial	16,26	O	I-Data
representation	27,41	O	I-Data
of	42,44	O	O
Double	45,51	O	B-Data
Affine	52,58	O	I-Data
Hecke	59,64	O	I-Data
Algebras	65,73	O	I-Data
(	74,75	O	I-Data
DAHAs	75,80	O	I-Data
)	80,81	O	I-Data
and	82,85	O	O
construct	86,95	O	B-Process
its	96,99	O	O
submodules	100,110	O	B-Data
as	111,113	O	O
ideals	114,120	O	B-Data
of	121,123	O	I-Data
functions	124,133	O	I-Data
vanishing	134,143	O	B-Process
on	144,146	O	O
the	147,150	O	B-Material
special	151,158	O	I-Material
collections	159,170	O	I-Material
of	171,173	O	O
affine	174,180	O	B-Data
planes	181,187	O	I-Data
.	187,188	O	O

This	189,193	O	O
generalizes	194,205	O	O
certain	206,213	O	B-Data
results	214,221	O	I-Data
of	222,224	O	I-Data
Kasatani	225,233	O	I-Data
in	234,236	O	O
types	237,242	O	B-Data

An	243,245	O	I-Data
,	245,246	O	I-Data
(	247,248	O	I-Data
Cn∨,Cn	248,254	O	I-Data
)	254,255	O	I-Data
.	255,256	O	O

We	257,259	O	O
obtain	260,266	O	O
commutative	267,278	O	B-Data
algebras	279,287	O	I-Data
of	288,290	O	O
difference	291,301	O	B-Data
operators	302,311	O	I-Data
given	312,317	O	O
by	318,320	O	O
the	321,324	O	O
action	325,331	O	O
of	332,334	O	O
invariant	335,344	O	B-Process
combinations	345,357	O	I-Process
of	358,360	O	O
Cherednik	361,370	O	B-Data
-	370,371	O	I-Data
Dunkl	371,376	O	I-Data
operators	377,386	O	I-Data
in	387,389	O	O
the	390,393	O	B-Data
corresponding	394,407	O	I-Data
quotient	408,416	O	I-Data
modules	417,424	O	I-Data
of	425,427	O	O
the	428,431	O	B-Data
polynomial	432,442	O	I-Data
representation	443,457	O	I-Data
.	457,458	O	O

This	459,463	O	O
gives	464,469	O	O
known	470,475	O	O
and	476,479	O	O
new	480,483	O	O
generalized	484,495	O	B-Material
Macdonald	496,505	O	I-Material
-	505,506	O	I-Material
Ruijsenaars	506,517	O	I-Material
systems	518,525	O	I-Material
.	525,526	O	O

Thus	527,531	O	O
in	532,534	O	O
the	535,538	O	O
cases	539,544	O	O
of	545,547	O	O
DAHAs	548,553	O	B-Data
of	554,556	O	O
types	557,562	O	B-Data

An	563,565	O	I-Data
and	566,569	O	I-Data
(	570,571	O	I-Data
Cn∨,Cn	571,577	O	I-Data
)	577,578	O	I-Data

we	579,581	O	O
derive	582,588	O	O
Chalykh	589,596	O	B-Data
-	596,597	O	I-Data
Sergeev	597,604	O	I-Data
-	604,605	O	I-Data
Veselov	605,612	O	I-Data
operators	613,622	O	I-Data
and	623,626	O	O
a	627,628	O	B-Process
generalization	629,643	O	I-Process
of	644,646	O	O
the	647,650	O	B-Data
Koornwinder	651,662	O	I-Data
operator	663,671	O	I-Data
respectively	672,684	O	O
,	684,685	O	O
together	686,694	O	O
with	695,699	O	O
complete	700,708	O	B-Material
sets	709,713	O	I-Material
of	714,716	O	O
quantum	717,724	O	B-Data
integrals	725,734	O	I-Data
in	735,737	O	O
the	738,741	O	B-Data
explicit	742,750	O	I-Data
form	751,755	O	I-Data
.	755,756	O	O

-DOCSTART- (S0021869313002846)

Let	0,3	O	O
O	4,5	O	B-Data
be	6,8	O	O
a	9,10	O	B-Data
holomorphy	11,21	O	I-Data
ring	22,26	O	B-Material
in	27,29	O	O
a	30,31	O	B-Material
global	32,38	O	I-Material
field	39,44	O	I-Material
K	45,46	O	B-Data
,	46,47	O	O
and	48,51	O	O
R	52,53	O	B-Data
a	54,55	O	B-Data
classical	56,65	O	I-Data
maximal	66,73	O	I-Data
O	74,75	O	I-Data
-	75,76	O	I-Data
order	76,81	O	I-Data
in	82,84	O	O
a	85,86	O	B-Data
central	87,94	O	I-Data
simple	95,101	O	I-Data
algebra	102,109	O	I-Data
over	110,114	O	O
K.	115,117	O	B-Data

We	118,120	O	O
study	121,126	O	O
sets	127,131	O	B-Material
of	132,134	O	O
lengths	135,142	O	B-Data
of	143,145	O	O
factorizations	146,160	O	B-Process
of	161,163	O	O
cancellative	164,176	O	B-Data
elements	177,185	O	I-Data
of	186,188	O	O
R	189,190	O	B-Data
into	191,195	O	O
atoms	196,201	O	B-Data
(	202,203	O	I-Data
irreducibles	203,215	O	I-Data
)	215,216	O	I-Data
.	216,217	O	O

In	218,220	O	O
a	221,222	O	O
large	223,228	O	O
majority	229,237	O	O
of	238,240	O	O
cases	241,246	O	O
there	247,252	O	O
exists	253,259	O	O
a	260,261	O	B-Process
transfer	262,270	O	I-Process
homomorphism	271,283	O	I-Process
to	284,286	O	O
a	287,288	O	B-Data
monoid	289,295	O	I-Data
of	296,298	O	O
zero	299,303	O	B-Data
-	303,304	O	I-Data
sum	304,307	O	I-Data
sequences	308,317	O	B-Material
over	318,322	O	O
a	323,324	O	B-Material
ray	325,328	O	I-Material
class	329,334	O	I-Material
group	335,340	O	I-Material
of	341,343	O	O
O	344,345	O	B-Data
,	345,346	O	O
which	347,352	O	O
implies	353,360	O	O
that	361,365	O	O
all	366,369	O	B-Data
the	370,373	O	I-Data
structural	374,384	O	I-Data
finiteness	385,395	O	I-Data
results	396,403	O	I-Data
for	404,407	O	O
sets	408,412	O	B-Material
of	413,415	O	O
lengths	416,423	O	B-Data
-	423,424	O	O
valid	424,429	O	O
for	430,433	O	O
commutative	434,445	O	B-Data
Krull	446,451	O	I-Data
monoids	452,459	O	I-Data
with	460,464	O	O
finite	465,471	O	B-Material
class	472,477	O	I-Material
group	478,483	O	I-Material
-	483,484	O	O
hold	484,488	O	O
also	489,493	O	O
true	494,498	O	O
for	499,502	O	O
R.	503,505	O	B-Data

If	506,508	O	O
O	509,510	O	B-Data
is	511,513	O	O
the	514,517	O	B-Material
ring	518,522	O	I-Material
of	523,525	O	O
algebraic	526,535	O	B-Data
integers	536,544	O	I-Data
of	545,547	O	O
a	548,549	O	B-Material
number	550,556	O	I-Material
field	557,562	O	I-Material
K	563,564	O	B-Data
,	564,565	O	O
we	566,568	O	O
prove	569,574	O	O
that	575,579	O	O
in	580,582	O	O
the	583,586	O	B-Material
remaining	587,596	O	I-Material
cases	597,602	O	I-Material
no	603,605	O	O
such	606,610	O	O
transfer	611,619	O	B-Process
homomorphism	620,632	O	I-Process
can	633,636	O	O
exist	637,642	O	O
and	643,646	O	O
that	647,651	O	O
several	652,659	O	B-Material
invariants	660,670	O	I-Material
dealing	671,678	O	O
with	679,683	O	O
sets	684,688	O	B-Material
of	689,691	O	O
lengths	692,699	O	B-Data
are	700,703	O	O
infinite	704,712	O	B-Data
.	712,713	O	O

-DOCSTART- (S0022247X13005374)

We	0,2	O	O
systematically	3,17	O	O
investigate	18,29	O	O
lower	30,35	O	B-Data
and	36,39	O	I-Data
upper	40,45	O	I-Data
bounds	46,52	O	I-Data
for	53,56	O	O
the	57,60	O	B-Method
modified	61,69	O	I-Method
Bessel	70,76	O	I-Method
function	77,85	O	I-Method
ratio	86,91	O	I-Method
Rν	92,94	O	I-Method
=	94,95	O	I-Method

Iν+1/Iν	95,102	O	I-Method
by	103,105	O	O
functions	106,115	O	O
of	116,118	O	O
the	119,122	O	O
form	123,127	O	O
Gα	128,130	O	B-Data
,	130,131	O	I-Data
β(t)=t/(α+t2+β2	131,146	O	I-Data
)	146,147	O	I-Data
in	148,150	O	O
case	151,155	O	O

Rν	156,158	O	B-Data
is	159,161	O	I-Data
positive	162,170	O	I-Data
for	171,174	O	I-Data
all	175,178	O	I-Data
t>0	179,182	O	I-Data
,	182,183	O	O
or	184,186	O	O
equivalently	187,199	O	O
,	199,200	O	O
where	201,206	O	O
ν≥-1	207,211	O	B-Data
or	212,214	O	O
ν	215,216	O	B-Data
is	217,219	O	I-Data
a	220,221	O	I-Data
negative	222,230	O	I-Data
integer	231,238	O	I-Data
.	238,239	O	O

For	240,243	O	O
ν≥-1	244,248	O	B-Data
,	248,249	O	O
we	250,252	O	O
give	253,257	O	O
an	258,260	O	O
explicit	261,269	O	O
description	270,281	O	O
of	282,284	O	O
the	285,288	O	B-Data
set	289,292	O	I-Data
of	293,295	O	I-Data
lower	296,301	O	I-Data
bounds	302,308	O	I-Data
and	309,312	O	O
show	313,317	O	O
that	318,322	O	O
it	323,325	O	O
has	326,329	O	O
a	330,331	O	B-Data
greatest	332,340	O	I-Data
element	341,348	O	I-Data
.	348,349	O	O

We	350,352	O	O
also	353,357	O	O
characterize	358,370	O	O
the	371,374	O	B-Data
set	375,378	O	I-Data
of	379,381	O	I-Data
upper	382,387	O	I-Data
bounds	388,394	O	I-Data
and	395,398	O	I-Data
its	399,402	O	I-Data
minimal	403,410	O	I-Data
elements	411,419	O	I-Data
.	419,420	O	O

If	421,423	O	O
ν≥-1/2	424,430	O	B-Data
,	430,431	O	O
the	432,435	O	B-Data
minimal	436,443	O	I-Data
elements	444,452	O	I-Data
are	453,456	O	O
tangent	457,464	O	B-Process
to	465,467	O	O
Rν	468,470	O	B-Data
in	471,473	O	O
exactly	474,481	O	B-Data
one	482,485	O	I-Data
point	486,491	O	I-Data
0≤t≤∞	492,497	O	I-Data
,	497,498	O	O
and	499,502	O	O
have	503,507	O	O
Rν	508,510	O	B-Data
as	511,513	O	O
their	514,519	O	B-Data
lower	520,525	O	I-Data
envelope	526,534	O	I-Data
.	534,535	O	O

We	536,538	O	O
also	539,543	O	O
provide	544,551	O	O
a	552,553	O	O
new	554,557	O	O
family	558,564	O	O
of	565,567	O	O
explicitly	568,578	O	B-Data
computable	579,589	O	I-Data
upper	590,595	O	I-Data
bounds	596,602	O	I-Data
.	602,603	O	O

Finally	604,611	O	O
,	611,612	O	O
if	613,615	O	O
ν	616,617	O	B-Data
is	618,620	O	I-Data
a	621,622	O	I-Data
negative	623,631	O	I-Data
integer	632,639	O	I-Data
,	639,640	O	O
we	641,643	O	O
explicitly	644,654	O	O
describe	655,663	O	O
the	664,667	O	B-Data
sets	668,672	O	I-Data
of	673,675	O	I-Data
lower	676,681	O	I-Data
and	682,685	O	I-Data
upper	686,691	O	I-Data
bounds	692,698	O	I-Data
,	698,699	O	O
and	700,703	O	O
give	704,708	O	O
their	709,714	O	B-Data
greatest	715,723	O	I-Data
and	724,727	O	I-Data
least	728,733	O	I-Data
elements	734,742	O	I-Data
,	742,743	O	O
respectively	744,756	O	O
.	756,757	O	O

-DOCSTART- (S0022247X13008238)

In	0,2	O	O
this	3,7	O	O
note	8,12	O	O
we	13,15	O	O
show	16,20	O	O
how	21,24	O	O
to	25,27	O	O
include	28,35	O	O
low	36,39	O	B-Data
order	40,45	O	I-Data
terms	46,51	O	I-Data
in	52,54	O	O
the	55,58	O	B-Data
C∞	59,61	O	I-Data
well	62,66	O	I-Data
-	66,67	O	I-Data
posedness	67,76	O	I-Data
results	77,84	O	I-Data
for	85,88	O	O
weakly	89,95	O	B-Process
hyperbolic	96,106	O	I-Process
equations	107,116	O	I-Process
with	117,121	O	O
analytic	122,130	O	B-Data
time	131,135	O	I-Data
-	135,136	O	I-Data
dependent	136,145	O	I-Data
coefficients	146,158	O	I-Data
.	158,159	O	O

This	160,164	O	O
is	165,167	O	O
achieved	168,176	O	O
by	177,179	O	O
doing	180,185	O	O
a	186,187	O	O
different	188,197	O	O
reduction	198,207	O	B-Process
to	208,210	O	O
a	211,212	O	O
system	213,219	O	O
from	220,224	O	O
the	225,228	O	O
previously	229,239	O	O
used	240,244	O	O
one	245,248	O	O
.	248,249	O	O

We	250,252	O	O
find	253,257	O	O
the	258,261	O	B-Data
Levi	262,266	O	I-Data
conditions	267,277	O	I-Data
such	278,282	O	O
that	283,287	O	O
the	288,291	O	B-Data
C∞	292,294	O	I-Data
well	295,299	O	I-Data
-	299,300	O	I-Data
posedness	300,309	O	I-Data
continues	310,319	O	O
to	320,322	O	O
hold	323,327	O	O
.	327,328	O	O

-DOCSTART- (S0022314X13001777)

We	0,2	O	O
enumerate	3,12	O	O
and	13,16	O	O
describe	17,25	O	O
the	26,29	O	B-Data
Sylow	30,35	O	I-Data
p	36,37	O	I-Data
-	37,38	O	I-Data
groups	38,44	O	I-Data
of	45,47	O	O
the	48,51	O	B-Data
groups	52,58	O	I-Data
of	59,61	O	O
polynomial	62,72	O	B-Process
permutations	73,85	O	I-Process
of	86,88	O	O
the	89,92	O	B-Data
integers	93,101	O	I-Data
mod	102,105	O	B-Process
pn	106,108	O	I-Process
for	109,112	O	O
n⩾1	113,116	O	B-Data
and	117,120	O	O
of	121,123	O	O
the	124,127	O	B-Data
pro	128,131	O	I-Data
-	131,132	O	I-Data
finite	132,138	O	I-Data
group	139,144	O	I-Data
which	145,150	O	O
is	151,153	O	O
the	154,157	O	B-Data
projective	158,168	O	I-Data
limit	169,174	O	I-Data
of	175,177	O	O
these	178,183	O	B-Data
groups	184,190	O	I-Data
.	190,191	O	O

-DOCSTART- (S0304406813000335)

We	0,2	O	O
introduce	3,12	O	O
efficient	13,22	O	B-Material
sets	23,27	O	I-Material
,	27,28	O	O
a	29,30	O	B-Material
class	31,36	O	I-Material
of	37,39	O	I-Material
sets	40,44	O	I-Material
in	45,47	O	O
Rp	48,50	O	B-Data
in	51,53	O	O
which	54,59	O	O
,	59,60	O	O
in	61,63	O	O
each	64,68	O	B-Material
set	69,72	O	I-Material
,	72,73	O	O
no	74,76	O	O
element	77,84	O	B-Data
is	85,87	O	O
greater	88,95	O	B-Process
in	96,98	O	O
all	99,102	O	B-Data
dimensions	103,113	O	I-Data
than	114,118	O	O
any	119,122	O	O
other	123,128	O	O
.	128,129	O	O

Neither	130,137	O	O
differentiability	138,155	O	B-Process
nor	156,159	O	O
continuity	160,170	O	B-Process
is	171,173	O	O
required	174,182	O	O
of	183,185	O	O
such	186,190	O	B-Material
sets	191,195	O	I-Material
,	195,196	O	O
which	197,202	O	O
include	203,210	O	O
:	210,211	O	O
level	212,217	O	B-Material
sets	218,222	O	I-Material
of	223,225	O	O
utility	226,233	O	B-Data
functions	234,243	O	I-Data
,	243,244	O	O
quasi	245,250	O	B-Data
-	250,251	O	I-Data
indifference	251,263	O	I-Data
classes	264,271	O	I-Data
associated	272,282	O	O
with	283,287	O	O
a	288,289	O	B-Data
preference	290,300	O	I-Data
relation	301,309	O	I-Data
not	310,313	O	O
given	314,319	O	O
by	320,322	O	O
a	323,324	O	B-Data
utility	325,332	O	I-Data
function	333,341	O	I-Data
,	341,342	O	O
mean	343,347	O	B-Data
-	347,348	O	I-Data
variance	348,356	O	I-Data
frontiers	357,366	O	I-Data
,	366,367	O	O
production	368,378	O	B-Data
possibility	379,390	O	I-Data
frontiers	391,400	O	I-Data
,	400,401	O	O
and	402,405	O	O
Pareto	406,412	O	B-Data
efficient	413,422	O	I-Data
sets	423,427	O	I-Data
.	427,428	O	O

By	429,431	O	O
Lebesgue	432,440	O	B-Method
's	440,442	O	I-Method
density	443,450	O	I-Method
theorem	451,458	O	I-Method
,	458,459	O	O
efficient	460,469	O	B-Material
sets	470,474	O	I-Material
have	475,479	O	O
p	480,481	O	B-Data
-	481,482	O	I-Data
dimensional	482,493	O	I-Data
measure	494,501	O	I-Data
zero	502,506	O	I-Data
.	506,507	O	O

As	508,510	O	O
Lebesgue	511,519	O	B-Data
measure	520,527	O	I-Data
provides	528,536	O	O
an	537,539	O	O
imprecise	540,549	O	O
description	550,561	O	O
of	562,564	O	O
small	565,570	O	B-Material
sets	571,575	O	I-Material
,	575,576	O	O
we	577,579	O	O
then	580,584	O	O
prove	585,590	O	O
the	591,594	O	B-Data
stronger	595,603	O	I-Data
result	604,610	O	I-Data
that	611,615	O	O
each	616,620	O	B-Material
efficient	621,630	O	I-Material
set	631,634	O	I-Material
in	635,637	O	O
Rp	638,640	O	B-Data
has	641,644	O	O
Hausdorff	645,654	O	B-Data
dimension	655,664	O	I-Data
at	665,667	O	I-Data
most	668,672	O	I-Data
p-1	673,676	O	I-Data
.	676,677	O	O

This	678,682	O	O
may	683,686	O	O
exceed	687,693	O	O
its	694,697	O	O
topological	698,709	O	B-Data
dimension	710,719	O	I-Data
,	719,720	O	O
with	721,725	O	O
the	726,729	O	O
two	730,733	O	O
notions	734,741	O	O
becoming	742,750	O	O
equivalent	751,761	O	O
for	762,765	O	O
smooth	766,772	O	B-Material
sets	773,777	O	I-Material
.	777,778	O	O

We	779,781	O	O
apply	782,787	O	O
these	788,793	O	O
results	794,801	O	O
to	802,804	O	O
stable	805,811	O	B-Material
sets	812,816	O	I-Material
in	817,819	O	O
multi	820,825	O	B-Process
-	825,826	O	I-Process
good	826,830	O	I-Process
pillage	831,838	O	I-Process
games	839,844	O	I-Process
:	844,845	O	O
for	846,849	O	O
n	850,851	O	B-Data
agents	852,858	O	I-Data
and	859,862	O	O
m	863,864	O	B-Data
goods	865,870	O	I-Data
,	870,871	O	O
stable	872,878	O	B-Material
sets	879,883	O	I-Material
have	884,888	O	O
dimension	889,898	O	B-Data
at	899,901	O	I-Data
most	902,906	O	I-Data
m(n-1)-1	907,915	O	I-Data
.	915,916	O	O

This	917,921	O	O
implies	922,929	O	O
,	929,930	O	O
and	931,934	O	O
is	935,937	O	O
much	938,942	O	O
stronger	943,951	O	O
than	952,956	O	O
,	956,957	O	O
the	958,961	O	O
result	962,968	O	O
that	969,973	O	O
stable	974,980	O	B-Material
sets	981,985	O	I-Material
have	986,990	O	O
m(n-1)-dimensional	991,1009	O	B-Data
measure	1010,1017	O	I-Data
zero	1018,1022	O	I-Data
,	1022,1023	O	O
as	1024,1026	O	O
conjectured	1027,1038	O	O
by	1039,1041	O	O
Jordan	1042,1048	O	O
.	1048,1049	O	O

