-DOCSTART- (S0167610513001001)

Currently	0,9	O	O
there	10,15	O	O
are	16,19	O	O
few	20,23	O	B-Data
observations	24,36	O	I-Data
of	37,39	O	O
the	40,43	O	B-Material
urban	44,49	O	I-Material
wind	50,54	O	I-Material
field	55,60	O	I-Material
at	61,63	O	O
heights	64,71	O	B-Data
other	72,77	O	O
than	78,82	O	O
rooftop	83,90	O	B-Data
level	91,96	O	I-Data
.	96,97	O	O

Remote	98,104	O	B-Material
sensing	105,112	O	I-Material
instruments	113,124	O	I-Material
such	125,129	O	O
as	130,132	O	O
Doppler	133,140	O	B-Material
lidars	141,147	O	I-Material
provide	148,155	O	O
wind	156,160	O	B-Data
speed	161,166	O	I-Data
data	167,171	O	I-Data
at	172,174	O	O
many	175,179	O	B-Data
heights	180,187	O	I-Data
,	187,188	O	O
which	189,194	O	O
would	195,200	O	O
be	201,203	O	O
useful	204,210	O	O
in	211,213	O	O
determining	214,225	O	B-Process
wind	226,230	O	B-Data
loadings	231,239	O	I-Data
of	240,242	O	O
tall	243,247	O	B-Material
buildings	248,257	O	I-Material
,	257,258	O	O
and	259,262	O	O
predicting	263,273	O	B-Process
local	274,279	O	B-Data
air	280,283	O	I-Data
quality	284,291	O	I-Data
.	291,292	O	O

Studies	293,300	O	O
comparing	301,310	O	O
remote	311,317	O	B-Process
sensing	318,325	O	I-Process
with	326,330	O	O
traditional	331,342	O	B-Material
anemometers	343,354	O	I-Material
carried	355,362	O	O
out	363,366	O	O
in	367,369	O	O
flat	370,374	O	B-Material
,	374,375	O	I-Material
homogeneous	376,387	O	I-Material
terrain	388,395	O	I-Material
often	396,401	O	O
use	402,405	O	O
scan	406,410	O	B-Data
patterns	411,419	O	I-Data
which	420,425	O	O
take	426,430	O	O
several	431,438	O	B-Data
minutes	439,446	O	I-Data
.	446,447	O	O

In	448,450	O	O
an	451,453	O	B-Material
urban	454,459	O	I-Material
context	460,467	O	I-Material
the	468,471	O	B-Process
flow	472,476	O	I-Process
changes	477,484	O	O
quickly	485,492	O	O
in	493,495	O	O
space	496,501	O	B-Data
and	502,505	O	I-Data
time	506,510	O	I-Data
,	510,511	O	O
so	512,514	O	O
faster	515,521	O	B-Process
scans	522,527	O	I-Process
are	528,531	O	O
required	532,540	O	O
to	541,543	O	O
ensure	544,550	O	O
little	551,557	O	O
change	558,564	O	O
in	565,567	O	O
the	568,571	O	B-Process
flow	572,576	O	I-Process
over	577,581	O	O
the	582,585	O	B-Data
scan	586,590	O	I-Data
period	591,597	O	I-Data
.	597,598	O	O

We	599,601	O	O
compare	602,609	O	O
3993h	610,615	O	B-Data
of	616,618	O	I-Data
wind	619,623	O	I-Data
speed	624,629	O	I-Data
data	630,634	O	I-Data
collected	635,644	O	B-Process
using	645,650	O	O
a	651,652	O	B-Method
three	653,658	O	I-Method
-	658,659	O	I-Method
beam	659,663	O	I-Method
Doppler	664,671	O	I-Method
lidar	672,677	O	I-Method
wind	678,682	O	I-Method
profiling	683,692	O	I-Method
method	693,699	O	I-Method
with	700,704	O	O
data	705,709	O	O
from	710,714	O	O
a	715,716	O	B-Material
sonic	717,722	O	I-Material
anemometer	723,733	O	I-Material
(	734,735	O	O
190	735,738	O	B-Data
m	738,739	O	I-Data
)	739,740	O	O
.	740,741	O	O

Both	742,746	O	B-Material
instruments	747,758	O	I-Material
are	759,762	O	O
located	763,770	O	O
in	771,773	O	O
central	774,781	O	O
London	782,788	O	O
,	788,789	O	O
UK	790,792	O	O
;	792,793	O	O
a	794,795	O	O
highly	796,802	O	O
built	803,808	O	O
-	808,809	O	O
up	809,811	O	O
area	812,816	O	O
.	816,817	O	O

Based	818,823	O	O
on	824,826	O	O
wind	827,831	O	B-Data
profile	832,839	O	I-Data
measurements	840,852	O	I-Data
every	853,858	O	B-Data
2min	859,863	O	I-Data
,	863,864	O	O
the	865,868	O	B-Data
uncertainty	869,880	O	I-Data
in	881,883	O	O
the	884,887	O	B-Data
hourly	888,894	O	I-Data
mean	895,899	O	I-Data
wind	900,904	O	I-Data
speed	905,910	O	I-Data
due	911,914	O	O
to	915,917	O	O
the	918,921	O	B-Data
sampling	922,930	O	I-Data
frequency	931,940	O	I-Data
is	941,943	O	O
0.05	944,948	O	B-Data
-	948,949	O	I-Data
0.11ms-1	949,957	O	I-Data
.	957,958	O	O

The	959,962	O	B-Material
lidar	963,968	O	I-Material
tended	969,975	O	O
to	976,978	O	O
overestimate	979,991	O	B-Process
the	992,995	O	B-Data
wind	996,1000	O	I-Data
speed	1001,1006	O	I-Data
by	1007,1009	O	O
≈0.5ms-1	1010,1018	O	B-Data
for	1019,1022	O	O
wind	1023,1027	O	B-Data
speeds	1028,1034	O	I-Data
below	1035,1040	O	B-Data
20ms-1	1041,1047	O	I-Data
.	1047,1048	O	O

Accuracy	1049,1057	O	B-Data
may	1058,1061	O	O
be	1062,1064	O	O
improved	1065,1073	O	O
by	1074,1076	O	O
increasing	1077,1087	O	B-Process
the	1088,1091	O	B-Data
scanning	1092,1100	O	I-Data
frequency	1101,1110	O	I-Data
of	1111,1113	O	O
the	1114,1117	O	B-Material
lidar	1118,1123	O	I-Material
.	1123,1124	O	O

This	1125,1129	O	B-Method
method	1130,1136	O	I-Method
is	1137,1139	O	O
considered	1140,1150	O	O
suitable	1151,1159	O	O
for	1160,1163	O	O
use	1164,1167	O	O
in	1168,1170	O	O
urban	1171,1176	O	B-Material
areas	1177,1182	O	I-Material
.	1182,1183	O	O

Graphical	1184,1193	O	O
abstract	1194,1202	O	O
Highlights	1203,1213	O	O
•	1214,1215	O	O

There	1216,1221	O	O
is	1222,1224	O	O
a	1225,1226	O	O
need	1227,1231	O	O
for	1232,1235	O	O
more	1236,1240	O	B-Data
wind	1241,1245	O	I-Data
speed	1246,1251	O	I-Data
data	1252,1256	O	I-Data
collected	1257,1266	O	B-Process
above	1267,1272	O	B-Data
rooftop	1273,1280	O	I-Data
level	1281,1286	O	I-Data
in	1287,1289	O	O
cities	1290,1296	O	B-Material
.	1296,1297	O	O

•	1298,1299	O	O

Remote	1300,1306	O	B-Material
sensing	1307,1314	O	I-Material
instruments	1315,1326	O	I-Material
can	1327,1330	O	O
measure	1331,1338	O	B-Process
throughout	1339,1349	O	O
the	1350,1353	O	B-Material
boundary	1354,1362	O	I-Material
layer	1363,1368	O	I-Material
.	1368,1369	O	O

•	1370,1371	O	O

Rapid	1372,1377	O	B-Process
evolution	1378,1387	O	I-Process
of	1388,1390	O	O
the	1391,1394	O	B-Process
flow	1395,1399	O	I-Process
above	1400,1405	O	O
cities	1406,1412	O	B-Material
means	1413,1418	O	O
a	1419,1420	O	B-Data
short	1421,1426	O	I-Data
scan	1427,1431	O	I-Data
time	1432,1436	O	I-Data
is	1437,1439	O	O
needed	1440,1446	O	O
.	1446,1447	O	O

•	1448,1449	O	O

Data	1450,1454	O	O
using	1455,1460	O	O
a	1461,1462	O	B-Method
3-beam	1463,1469	O	I-Method
Doppler	1470,1477	O	I-Method
lidar	1478,1483	O	I-Method
profiling	1484,1493	O	I-Method
method	1494,1500	O	I-Method
was	1501,1504	O	O
compared	1505,1513	O	O
with	1514,1518	O	O
an	1519,1521	O	B-Material
anemometer	1522,1532	O	I-Material
.	1532,1533	O	O

•	1534,1535	O	O

The	1536,1539	O	B-Method
3-beam	1540,1546	O	I-Method
method	1547,1553	O	I-Method
was	1554,1557	O	O
found	1558,1563	O	O
to	1564,1566	O	O
be	1567,1569	O	O
suitable	1570,1578	O	O
for	1579,1582	O	O
use	1583,1586	O	O
in	1587,1589	O	O
urban	1590,1595	O	B-Material
areas	1596,1601	O	I-Material
.	1601,1602	O	O

-DOCSTART- (S0167610513002729)

Dispersion	0,10	O	B-Process
in	11,13	O	O
the	14,17	O	B-Material
near	18,22	O	I-Material
-	22,23	O	I-Material
field	23,28	O	I-Material
region	29,35	O	I-Material
of	36,38	O	O
localised	39,48	O	B-Material
releases	49,57	O	I-Material
in	58,60	O	O
urban	61,66	O	B-Material
areas	67,72	O	I-Material
is	73,75	O	O
difficult	76,85	O	O
to	86,88	O	O
predict	89,96	O	B-Process
because	97,104	O	O
of	105,107	O	O
the	108,111	O	B-Process
strong	112,118	O	I-Process
influence	119,128	O	I-Process
of	129,131	O	O
individual	132,142	O	B-Material
buildings	143,152	O	I-Material
.	152,153	O	O

Effects	154,161	O	B-Process
include	162,169	O	O
upstream	170,178	O	B-Process
dispersion	179,189	O	I-Process
,	189,190	O	O
trapping	191,199	O	B-Process
of	200,202	O	O
material	203,211	O	B-Material
into	212,216	O	O
building	217,225	O	B-Material
wakes	226,231	O	I-Material
and	232,235	O	O
enhanced	236,244	O	B-Process
concentration	245,258	O	I-Process
fluctuations	259,271	O	I-Process
.	271,272	O	O

As	273,275	O	O
a	276,277	O	O
result	278,284	O	O
,	284,285	O	O
concentration	286,299	O	B-Data
patterns	300,308	O	I-Data
are	309,312	O	O
highly	313,319	O	B-Process
variable	320,328	O	I-Process
in	329,331	O	O
time	332,336	O	B-Data
and	337,340	O	I-Data
mean	341,345	O	I-Data
profiles	346,354	O	I-Data
in	355,357	O	O
the	358,361	O	B-Material
near	362,366	O	I-Material
field	367,372	O	I-Material
are	373,376	O	O
strongly	377,385	O	B-Data
non	386,389	O	I-Data
-	389,390	O	I-Data
Gaussian	390,398	O	I-Data
.	398,399	O	O

These	400,405	O	B-Data
aspects	406,413	O	I-Data
of	414,416	O	O
near	417,421	O	B-Process
-	421,422	O	I-Process
field	422,427	O	I-Process
dispersion	428,438	O	I-Process
are	439,442	O	O
documented	443,453	O	B-Process
by	454,456	O	O
analysing	457,466	O	B-Process
data	467,471	O	O
from	472,476	O	O
direct	477,483	O	B-Material
numerical	484,493	O	I-Material
simulations	494,505	O	I-Material
in	506,508	O	O
arrays	509,515	O	B-Material
of	516,518	O	I-Material
building	519,527	O	I-Material
-	527,528	O	I-Material
like	528,532	O	I-Material
obstacles	533,542	O	I-Material
and	543,546	O	O
are	547,550	O	O
related	551,558	O	O
to	559,561	O	O
the	562,565	O	B-Data
underlying	566,576	O	I-Data
flow	577,581	O	I-Data
structure	582,591	O	I-Data
.	591,592	O	O

The	593,596	O	B-Data
mean	597,601	O	I-Data
flow	602,606	O	I-Data
structure	607,616	O	I-Data
around	617,623	O	O
the	624,627	O	B-Material
buildings	628,637	O	I-Material
is	638,640	O	O
found	641,646	O	O
to	647,649	O	O
exert	650,655	O	O
a	656,657	O	B-Process
strong	658,664	O	I-Process
influence	665,674	O	I-Process
over	675,679	O	O
the	680,683	O	B-Process
dispersion	684,694	O	I-Process
of	695,697	O	O
material	698,706	O	B-Material
in	707,709	O	I-Material
the	710,713	O	I-Material
near	714,718	O	I-Material
field	719,724	O	I-Material
.	724,725	O	O

Diverging	726,735	O	B-Process
streamlines	736,747	O	I-Process
around	748,754	O	O
buildings	755,764	O	B-Material
enhance	765,772	O	B-Process
lateral	773,780	O	B-Process
dispersion	781,791	O	I-Process
.	791,792	O	O

Entrainment	793,804	O	B-Process
of	805,807	O	O
material	808,816	O	O
into	817,821	O	O
building	822,830	O	B-Material
wakes	831,836	O	I-Material
in	837,839	O	O
the	840,843	O	B-Material
very	844,848	O	I-Material
near	849,853	O	I-Material
field	854,859	O	I-Material
gives	860,865	O	O
rise	866,870	O	O
to	871,873	O	O
secondary	874,883	O	B-Material
sources	884,891	O	I-Material
,	891,892	O	O
which	893,898	O	O
then	899,903	O	O
affect	904,910	O	O
the	911,914	O	B-Data
subsequent	915,925	O	I-Data
dispersion	926,936	O	I-Data
pattern	937,944	O	I-Data
.	944,945	O	O

High	946,950	O	B-Data
levels	951,957	O	I-Data
of	958,960	O	O
concentration	961,974	O	B-Process
fluctuations	975,987	O	I-Process
are	988,991	O	O
also	992,996	O	O
found	997,1002	O	O
in	1003,1005	O	O
this	1006,1010	O	B-Material
very	1011,1015	O	I-Material
near	1016,1020	O	I-Material
field	1021,1026	O	I-Material
;	1026,1027	O	O
the	1028,1031	O	B-Data
fluctuation	1032,1043	O	I-Data
intensity	1044,1053	O	I-Data
is	1054,1056	O	O
of	1057,1059	O	O
order	1060,1065	O	B-Data
2	1066,1067	O	I-Data
to	1068,1070	O	I-Data
5	1071,1072	O	I-Data
.	1072,1073	O	O

Highlights	1074,1084	O	O
•	1085,1086	O	O

We	1087,1089	O	O
document	1090,1098	O	B-Process
key	1099,1102	O	B-Data
aspects	1103,1110	O	I-Data
of	1111,1113	O	O
near	1114,1118	O	B-Process
-	1118,1119	O	I-Process
field	1119,1124	O	I-Process
dispersion	1125,1135	O	I-Process
in	1136,1138	O	O
urban	1139,1144	O	B-Material
areas	1145,1150	O	I-Material
using	1151,1156	O	O
DNS	1157,1160	O	B-Method
data	1161,1165	O	O
.	1165,1166	O	O

•	1167,1168	O	O

We	1169,1171	O	O
relate	1172,1178	O	O
these	1179,1184	O	B-Data
dispersion	1185,1195	O	I-Data
features	1196,1204	O	I-Data
to	1205,1207	O	O
the	1208,1211	O	B-Data
underlying	1212,1222	O	I-Data
flow	1223,1227	O	I-Data
structure	1228,1237	O	I-Data
.	1237,1238	O	O

•	1239,1240	O	O

The	1241,1244	O	B-Process
effects	1245,1252	O	I-Process
of	1253,1255	O	O
wind	1256,1260	O	B-Process
direction	1261,1270	O	I-Process
,	1270,1271	O	O
building	1272,1280	O	B-Material
layout	1281,1287	O	I-Material
and	1288,1291	O	O
source	1292,1298	O	B-Material
location	1299,1307	O	I-Material
are	1308,1311	O	O
examined	1312,1320	O	B-Process
.	1320,1321	O	O

•	1322,1323	O	O

Secondary	1324,1333	O	B-Material
sources	1334,1341	O	I-Material
in	1342,1344	O	O
the	1345,1348	O	B-Material
near	1349,1353	O	I-Material
field	1354,1359	O	I-Material
have	1360,1364	O	O
a	1365,1366	O	O
strong	1367,1373	O	O
effect	1374,1380	O	O
on	1381,1383	O	O
the	1384,1387	O	B-Material
plume	1388,1393	O	I-Material
spread	1394,1400	O	I-Material
.	1400,1401	O	O

•	1402,1403	O	O

Concentration	1404,1417	O	B-Data
means	1418,1423	O	I-Data
and	1424,1427	O	O
fluctuations	1428,1440	O	B-Process
are	1441,1444	O	O
mapped	1445,1451	O	B-Process
and	1452,1455	O	O
their	1456,1461	O	B-Data
magnitudes	1462,1472	O	I-Data
quantified	1473,1483	O	B-Process
.	1483,1484	O	O

-DOCSTART- (S0378383911001669)

A	0,1	O	O
detailed	2,10	O	O
experimental	11,23	O	O
investigation	24,37	O	O
of	38,40	O	O
the	41,44	O	B-Process
hydrodynamics	45,58	O	I-Process
of	59,61	O	O
large	62,67	O	B-Material
-	67,68	O	I-Material
scale	68,73	O	I-Material
,	73,74	O	I-Material
bore	75,79	O	I-Material
-	79,80	O	I-Material
driven	80,86	O	I-Material
swash	87,92	O	I-Material
on	93,95	O	O
impermeable	96,107	O	B-Material
,	107,108	O	I-Material
rough	109,114	O	I-Material
beach	115,120	O	I-Material
slopes	121,127	O	I-Material
is	128,130	O	O
described	131,140	O	O
.	140,141	O	O

The	142,145	O	B-Method
experiments	146,157	O	I-Method
were	158,162	O	O
carried	163,170	O	O
out	171,174	O	O
on	175,177	O	O
1:10	178,182	O	B-Data
impermeable	183,194	O	B-Material
,	194,195	O	I-Material
rough	196,201	O	I-Material
slopes	202,208	O	I-Material
with	209,213	O	O
three	214,219	O	B-Data
different	220,229	O	I-Data
surface	230,237	O	I-Data
roughnesses	238,249	O	I-Data
based	250,255	O	O
on	256,258	O	O
1.3	259,262	O	B-Data
mm	262,264	O	I-Data
sand	265,269	O	B-Material
,	269,270	O	O
5.4	271,274	O	B-Data
mm	274,276	O	I-Data
gravel	277,283	O	B-Material
and	284,287	O	O
8.4	288,291	O	B-Data
mm	291,293	O	I-Data
gravel	294,300	O	B-Material
.	300,301	O	O

The	302,305	O	B-Process
large	306,311	O	I-Process
-	311,312	O	I-Process
scale	312,317	O	I-Process
discrete	318,326	O	I-Process
swash	327,332	O	I-Process
event	333,338	O	I-Process
was	339,342	O	O
produced	343,351	O	O
by	352,354	O	O
the	355,358	O	B-Process
collapse	359,367	O	I-Process
of	368,370	O	O
a	371,372	O	B-Material
dambreak	373,381	O	I-Material
-	381,382	O	I-Material
generated	382,391	O	I-Material
bore	392,396	O	I-Material
on	397,399	O	O
the	400,403	O	B-Material
beach	404,409	O	I-Material
.	409,410	O	O

Simultaneous	411,423	O	B-Data
depths	424,430	O	I-Data
and	431,434	O	I-Data
velocities	435,445	O	I-Data
were	446,450	O	O
measured	451,459	O	B-Process
using	460,465	O	O
LIF	466,469	O	B-Method
,	469,470	O	O
Laser	471,476	O	B-Method
-	476,477	O	I-Method
induced	477,484	O	I-Method
fluorescence	485,497	O	I-Method
,	497,498	O	O
and	499,502	O	O
PIV	503,506	O	B-Method
,	506,507	O	O
particle	508,516	O	B-Method
image	517,522	O	I-Method
velocimetry	523,534	O	I-Method
,	534,535	O	O
respectively	536,548	O	O
,	548,549	O	O
yielding	550,558	O	O
better	559,565	O	B-Data
resolution	566,576	O	I-Data
of	577,579	O	O
the	580,583	O	B-Process
hydrodynamics	584,597	O	I-Process
than	598,602	O	O
previous	603,611	O	O
studies	612,619	O	O
.	619,620	O	O

Depth	621,626	O	B-Data
time	627,631	O	I-Data
-	631,632	O	I-Data
series	632,638	O	I-Data
,	638,639	O	O
instantaneous	640,653	O	B-Data
velocity	654,662	O	I-Data
profiles	663,671	O	I-Data
,	671,672	O	O
depth	673,678	O	B-Data
-	678,679	O	I-Data
averaged	679,687	O	I-Data
velocities	688,698	O	I-Data
,	698,699	O	O
instantaneous	700,713	O	B-Data
turbulent	714,723	O	I-Data
kinetic	724,731	O	I-Data
energy	732,738	O	I-Data
profiles	739,747	O	I-Data
,	747,748	O	O
depth	749,754	O	B-Data
-	754,755	O	I-Data
averaged	755,763	O	I-Data
turbulent	764,773	O	I-Data
kinetic	774,781	O	I-Data
energy	782,788	O	I-Data
,	788,789	O	O
Reynolds	790,798	O	B-Data
stress	799,805	O	I-Data
profiles	806,814	O	I-Data
and	815,818	O	O
bed	819,822	O	B-Data
shear	823,828	O	I-Data
stresses	829,837	O	I-Data
are	838,841	O	O
presented	842,851	O	O
for	852,855	O	O
five	856,860	O	B-Data
cross	861,866	O	B-Material
-	866,867	O	I-Material
shore	867,872	O	I-Material
measurement	873,884	O	I-Material
locations	885,894	O	I-Material
in	895,897	O	O
the	898,901	O	B-Material
swash	902,907	O	I-Material
.	907,908	O	O

The	909,912	O	B-Data
measurements	913,925	O	I-Data
resolve	926,933	O	O
the	934,937	O	B-Data
backwash	938,946	O	I-Data
shoreline	947,956	O	I-Data
position	957,965	O	I-Data
,	965,966	O	O
and	967,970	O	O
the	971,974	O	B-Data
late	975,979	O	I-Data
backwash	980,988	O	I-Data
period	989,995	O	I-Data
when	996,1000	O	O
depths	1001,1007	O	B-Data
are	1008,1011	O	O
shallow	1012,1019	O	B-Data
and	1020,1023	O	O
velocities	1024,1034	O	B-Data
are	1035,1038	O	O
high	1039,1043	O	B-Data
.	1043,1044	O	O

The	1045,1048	O	O
detailed	1049,1057	O	O
data	1058,1062	O	O
can	1063,1066	O	O
be	1067,1069	O	O
used	1070,1074	O	O
to	1075,1077	O	O
test	1078,1082	O	O
and	1083,1086	O	O
develop	1087,1094	O	O
advanced	1095,1103	O	B-Material
numerical	1104,1113	O	I-Material
models	1114,1120	O	I-Material
for	1121,1124	O	O
bore	1125,1129	O	B-Material
-	1129,1130	O	I-Material
driven	1130,1136	O	I-Material
waves	1137,1142	O	I-Material
on	1143,1145	O	I-Material
rough	1146,1151	O	I-Material
slopes	1152,1158	O	I-Material
.	1158,1159	O	O

Highlights	1160,1170	O	O
►	1171,1172	O	O

Detailed	1172,1180	O	B-Process
hydrodynamics	1181,1194	O	I-Process
of	1195,1197	O	O
bore	1198,1202	O	B-Material
-	1202,1203	O	I-Material
driven	1203,1209	O	I-Material
swash	1210,1215	O	I-Material
on	1216,1218	O	O
impermeable	1219,1230	O	B-Material
,	1230,1231	O	I-Material
rough	1232,1237	O	I-Material
slopes	1238,1244	O	I-Material
.	1244,1245	O	O

►	1246,1247	O	O

Large	1247,1252	O	B-Process
-	1252,1253	O	I-Process
scale	1253,1258	O	I-Process
laboratory	1259,1269	O	I-Process
experiments	1270,1281	O	I-Process
measuring	1282,1291	O	B-Process
simultaneous	1292,1304	O	B-Data
depths	1305,1311	O	I-Data
and	1312,1315	O	I-Data
velocities	1316,1326	O	I-Data
.	1326,1327	O	O

►	1328,1329	O	O

Shows	1329,1334	O	O
effects	1335,1342	O	B-Process
of	1343,1345	O	O
slope	1346,1351	O	B-Data
roughness	1352,1361	O	I-Data
on	1362,1364	O	O
bulk	1365,1369	O	B-Data
flow	1370,1374	O	I-Data
and	1375,1378	O	I-Data
turbulence	1379,1389	O	I-Data
properties	1390,1400	O	I-Data
.	1400,1401	O	O

►	1402,1403	O	O

Yields	1403,1409	O	O
measures	1410,1418	O	B-Data
of	1419,1421	O	O
time	1422,1426	O	B-Process
-	1426,1427	O	I-Process
varying	1427,1434	O	I-Process
bed	1435,1438	O	I-Process
shear	1439,1444	O	I-Process
stress	1445,1451	O	I-Process
across	1452,1458	O	O
the	1459,1462	O	B-Material
swash	1463,1468	O	I-Material
zone	1469,1473	O	I-Material
.	1473,1474	O	O

-DOCSTART- (S0378383912000130)

The	0,3	O	O
paper	4,9	O	O
presents	10,18	O	O
a	19,20	O	B-Material
numerical	21,30	O	I-Material
model	31,36	O	I-Material
for	37,40	O	O
bore	41,45	O	B-Material
-	45,46	O	I-Material
driven	46,52	O	I-Material
swash	53,58	O	I-Material
on	59,61	O	O
permeable	62,71	O	B-Material
coarse	72,78	O	I-Material
-	78,79	O	I-Material
grained	79,86	O	I-Material
beaches	87,94	O	I-Material
.	94,95	O	O

The	96,99	O	B-Material
surface	100,107	O	I-Material
flow	108,112	O	I-Material
module	113,119	O	I-Material
is	120,122	O	O
modelled	123,131	O	B-Process
using	132,137	O	O
the	138,141	O	B-Process
non	142,145	O	I-Process
-	145,146	O	I-Process
linear	146,152	O	I-Process
shallow	153,160	O	I-Process
water	161,166	O	I-Process
equations	167,176	O	I-Process
(	177,178	O	I-Process
NLSWEs	178,184	O	I-Process
)	184,185	O	I-Process
,	185,186	O	O
solved	187,193	O	B-Process
using	194,199	O	O
the	200,203	O	B-Method
Godunov	204,211	O	I-Method
-	211,212	O	I-Method
based	212,217	O	I-Method
finite	218,224	O	I-Method
volume	225,231	O	I-Method
ADER	232,236	O	I-Method
scheme	237,243	O	I-Method
,	243,244	O	O
which	245,250	O	O
is	251,253	O	O
suitable	254,262	O	O
for	263,266	O	O
handling	267,275	O	O
steep	276,281	O	B-Data
bores	282,287	O	B-Material
as	288,290	O	O
well	291,295	O	O
as	296,298	O	O
large	299,304	O	B-Data
source	305,311	O	B-Data
terms	312,317	O	I-Data
in	318,320	O	O
the	321,324	O	B-Process
NLSWEs	325,331	O	I-Process
.	331,332	O	O

The	333,336	O	B-Process
subsurface	337,347	O	I-Process
flow	348,352	O	I-Process
comprises	353,362	O	O
:	362,363	O	O

(	364,365	O	O
i	365,366	O	O
)	366,367	O	O
infiltration	368,380	O	B-Process
and	381,384	O	O
exfiltration	385,397	O	B-Process
modelled	398,406	O	B-Process
as	407,409	O	O
vertical	410,418	O	B-Process
piston	419,425	O	I-Process
-	425,426	O	I-Process
like	426,430	O	I-Process
flow	431,435	O	I-Process
,	435,436	O	O
(	437,438	O	O
ii	438,440	O	O
)	440,441	O	O
horizontal	442,452	O	B-Process
pore	453,457	O	I-Process
-	457,458	O	I-Process
air	458,461	O	I-Process
movement	462,470	O	I-Process
within	471,477	O	O
the	478,481	O	B-Material
unsaturated	482,493	O	I-Material
region	494,500	O	I-Material
of	501,503	O	I-Material
the	504,507	O	I-Material
beach	508,513	O	I-Material
,	513,514	O	O
(	515,516	O	O
iii	516,519	O	O
)	519,520	O	O
the	521,524	O	B-Process
horizontal	525,535	O	I-Process
groundwater	536,547	O	I-Process
flow	548,552	O	I-Process
.	552,553	O	O

Model	554,559	O	O
predictions	560,571	O	B-Data
of	572,574	O	O
the	575,578	O	B-Process
surface	579,586	O	I-Process
and	587,590	O	I-Process
subsurface	591,601	O	I-Process
flow	602,606	O	I-Process
are	607,610	O	O
in	611,613	O	O
good	614,618	O	O
agreement	619,628	O	O
with	629,633	O	O
measurements	634,646	O	B-Data
from	647,651	O	O
large	652,657	O	B-Process
-	657,658	O	I-Process
scale	658,663	O	I-Process
laboratory	664,674	O	I-Process
experiments	675,686	O	I-Process
for	687,690	O	O
swash	691,696	O	B-Material
on	697,699	O	O
permeable	700,709	O	B-Material
,	709,710	O	I-Material
immobile	711,719	O	I-Material
beaches	720,727	O	I-Material
.	727,728	O	O

In	729,731	O	O
these	732,737	O	B-Material
simulations	738,749	O	I-Material
air	750,753	O	B-Data
velocity	754,762	O	I-Data
was	763,766	O	O
sufficiently	767,779	O	O
small	780,785	O	O
to	786,788	O	O
justify	789,796	O	O
using	797,802	O	O
Darcy	803,808	O	B-Process
's	808,810	O	I-Process
resistance	811,821	O	I-Process
law	822,825	O	I-Process
for	826,829	O	O
the	830,833	O	B-Process
air	834,837	O	I-Process
flow	838,842	O	I-Process
,	842,843	O	O
whereas	844,851	O	O
the	852,855	O	B-Process
quadratic	856,865	O	I-Process
Forchheimer	866,877	O	I-Process
law	878,881	O	I-Process
had	882,885	O	O
to	886,888	O	O
be	889,891	O	O
used	892,896	O	O
for	897,900	O	O
the	901,904	O	B-Process
infiltration	905,917	O	I-Process
and	918,921	O	I-Process
groundwater	922,933	O	I-Process
flow	934,938	O	I-Process
.	938,939	O	O

The	940,943	O	B-Material
validated	944,953	O	I-Material
numerical	954,963	O	I-Material
model	964,969	O	I-Material
provides	970,978	O	O
insight	979,986	O	O
into	987,991	O	O
the	992,995	O	B-Process
surface	996,1003	O	I-Process
-	1003,1004	O	I-Process
subsurface	1004,1014	O	I-Process
water	1015,1020	O	I-Process
exchange	1021,1029	O	I-Process
for	1030,1033	O	O
bore	1034,1038	O	B-Material
-	1038,1039	O	I-Material
driven	1039,1045	O	I-Material
swash	1046,1051	O	I-Material
on	1052,1054	O	O
coarse	1055,1061	O	B-Material
-	1061,1062	O	I-Material
grained	1062,1069	O	I-Material
beaches	1070,1077	O	I-Material
.	1077,1078	O	O

The	1079,1082	O	O
impact	1083,1089	O	O
of	1090,1092	O	O
air	1093,1096	O	B-Material
entrapped	1097,1106	O	B-Process
between	1107,1114	O	O
the	1115,1118	O	B-Material
wetting	1119,1126	O	I-Material
front	1127,1132	O	I-Material
and	1133,1136	O	O
the	1137,1140	O	B-Data
groundwater	1141,1152	O	I-Data
level	1153,1158	O	I-Data
on	1159,1161	O	O
the	1162,1165	O	B-Process
water	1166,1171	O	I-Process
exchange	1172,1180	O	I-Process
is	1181,1183	O	O
examined	1184,1192	O	O
in	1193,1195	O	O
particular	1196,1206	O	O
.	1206,1207	O	O

Highlights	1208,1218	O	O
►	1219,1220	O	O

We	1221,1223	O	O
model	1224,1229	O	O
key	1230,1233	O	O
mechanisms	1234,1244	O	O
of	1245,1247	O	O
the	1248,1251	O	B-Process
water	1252,1257	O	I-Process
exchange	1258,1266	O	I-Process
between	1267,1274	O	O
swash	1275,1280	O	B-Material
and	1281,1284	O	O
subsurface	1285,1295	O	B-Material
.	1295,1296	O	O

►	1297,1298	O	O

Focus	1299,1304	O	O
is	1305,1307	O	O
on	1308,1310	O	O
filtration	1311,1321	O	B-Process
and	1322,1325	O	O
pore	1326,1330	O	B-Process
-	1330,1331	O	I-Process
air	1331,1334	O	I-Process
pressure	1335,1343	O	I-Process
build	1344,1349	O	I-Process
-	1349,1350	O	I-Process
up	1350,1352	O	I-Process
within	1353,1359	O	O
the	1360,1363	O	B-Material
unsaturated	1364,1375	O	I-Material
beach	1376,1381	O	I-Material
.	1381,1382	O	O

►	1383,1384	O	O

Validation	1385,1395	O	B-Process
is	1396,1398	O	O
carried	1399,1406	O	O
out	1407,1410	O	O
with	1411,1415	O	O
measurements	1416,1428	O	B-Data
from	1429,1433	O	O
large	1434,1439	O	B-Process
-	1439,1440	O	I-Process
scale	1440,1445	O	I-Process
laboratory	1446,1456	O	I-Process
experiments	1457,1468	O	I-Process
.	1468,1469	O	O

►	1470,1471	O	O

Swash	1472,1477	O	B-Material
model	1478,1483	O	I-Material
is	1484,1486	O	O
consistent	1487,1497	O	O
with	1498,1502	O	O
experimental	1503,1515	O	B-Data
results	1516,1523	O	I-Data
on	1524,1526	O	O
two	1527,1530	O	B-Data
coarse	1531,1537	O	B-Material
-	1537,1538	O	I-Material
grained	1538,1545	O	I-Material
beaches	1546,1553	O	I-Material
.	1553,1554	O	O

►	1555,1556	O	O

The	1557,1560	O	O
insights	1561,1569	O	O
contribute	1570,1580	O	O
to	1581,1583	O	O
better	1584,1590	O	O
understanding	1591,1604	O	O
and	1605,1608	O	O
modelling	1609,1618	O	B-Process
of	1619,1621	O	O
key	1622,1625	O	O
swash	1626,1631	O	B-Process
processes	1632,1641	O	I-Process
.	1641,1642	O	O

-DOCSTART- (S0378383913001567)

In	0,2	O	O
this	3,7	O	O
paper	8,13	O	O
we	14,16	O	O
propose	17,24	O	O
an	25,27	O	B-Process
integral	28,36	O	I-Process
form	37,41	O	I-Process
of	42,44	O	O
the	45,48	O	B-Process
fully	49,54	O	I-Process
non	55,58	O	I-Process
-	58,59	O	I-Process
linear	59,65	O	I-Process
Boussinesq	66,76	O	I-Process
equations	77,86	O	I-Process
in	87,89	O	O
contravariant	90,103	O	B-Data
formulation	104,115	O	I-Data
,	115,116	O	O
in	117,119	O	O
which	120,125	O	O
Christoffel	126,137	O	B-Data
symbols	138,145	O	I-Data
are	146,149	O	O
avoided	150,157	O	O
,	157,158	O	O
in	159,161	O	O
order	162,167	O	O
to	168,170	O	O
simulate	171,179	O	B-Process
wave	180,184	O	B-Process
transformation	185,199	O	I-Process
phenomena	200,209	O	O
,	209,210	O	O
wave	211,215	O	B-Process
breaking	216,224	O	I-Process
and	225,228	O	O
nearshore	229,238	O	B-Process
currents	239,247	O	I-Process
in	248,250	O	O
computational	251,264	O	B-Material
domains	265,272	O	I-Material
representing	273,285	O	O
the	286,289	O	B-Data
complex	290,297	O	I-Data
morphology	298,308	O	I-Data
of	309,311	O	O
real	312,316	O	B-Material
coastal	317,324	O	I-Material
regions	325,332	O	I-Material
.	332,333	O	O

Following	334,343	O	O
the	344,347	O	O
approach	348,356	O	O
proposed	357,365	O	O
by	366,368	O	O
Chen	369,373	O	O
(	374,375	O	O
2006	375,379	O	O
)	379,380	O	O
,	380,381	O	O
the	382,385	O	B-Process
motion	386,392	O	I-Process
equations	393,402	O	I-Process
retain	403,409	O	O
the	410,413	O	O
term	414,418	O	O
related	419,426	O	O
to	427,429	O	O
the	430,433	O	O
approximation	434,447	O	O
to	448,450	O	O
the	451,454	O	B-Data
second	455,461	O	I-Data
order	462,467	O	I-Data
of	468,470	O	O
the	471,474	O	B-Process
vertical	475,483	O	I-Process
vorticity	484,493	O	I-Process
.	493,494	O	O

A	495,496	O	B-Method
new	497,500	O	I-Method
Upwind	501,507	O	I-Method
Weighted	508,516	O	I-Method
Essentially	517,528	O	I-Method
Non	529,532	O	I-Method
-	532,533	O	I-Method
Oscillatory	533,544	O	I-Method
scheme	545,551	O	I-Method
for	552,555	O	O
the	556,559	O	O
solution	560,568	O	O
of	569,571	O	O
the	572,575	O	B-Process
fully	576,581	O	I-Process
non	582,585	O	I-Process
-	585,586	O	I-Process
linear	586,592	O	I-Process
Boussinesq	593,603	O	I-Process
equations	604,613	O	I-Process
on	614,616	O	O
generalised	617,628	O	B-Material
curvilinear	629,640	O	I-Material
coordinate	641,651	O	I-Material
systems	652,659	O	I-Material
is	660,662	O	O
proposed	663,671	O	O
.	671,672	O	O

The	673,676	O	B-Method
equations	677,686	O	I-Method
are	687,690	O	O
rearranged	691,701	O	O
in	702,704	O	O
order	705,710	O	O
to	711,713	O	O
solve	714,719	O	O
them	720,724	O	O
by	725,727	O	O
a	728,729	O	B-Method
high	730,734	O	I-Method
resolution	735,745	O	I-Method
hybrid	746,752	O	I-Method
finite	753,759	O	I-Method
volume	760,766	O	I-Method
-	766,767	O	I-Method
finite	767,773	O	I-Method
difference	774,784	O	I-Method
scheme	785,791	O	I-Method
.	791,792	O	O

The	793,796	O	B-Data
conservative	797,809	O	I-Data
part	810,814	O	I-Data
of	815,817	O	O
the	818,821	O	B-Process
above	822,827	O	I-Process
-	827,828	O	I-Process
mentioned	828,837	O	I-Process
equations	838,847	O	I-Process
,	847,848	O	O
consisting	849,859	O	O
of	860,862	O	O
the	863,866	O	B-Data
convective	867,877	O	I-Data
terms	878,883	O	I-Data
and	884,887	O	O
the	888,891	O	B-Data
terms	892,897	O	I-Data
related	898,905	O	O
to	906,908	O	O
the	909,912	O	B-Process
free	913,917	O	I-Process
surface	918,925	O	I-Process
elevation	926,935	O	I-Process
,	935,936	O	O
is	937,939	O	O
discretised	940,951	O	B-Process
by	952,954	O	O
a	955,956	O	B-Method
high	957,961	O	I-Method
-	961,962	O	I-Method
order	962,967	O	I-Method
shock	968,973	O	I-Method
-	973,974	O	I-Method
capturing	974,983	O	I-Method
finite	984,990	O	I-Method
volume	991,997	O	I-Method
scheme	998,1004	O	I-Method
in	1005,1007	O	O
which	1008,1013	O	O
an	1014,1016	O	B-Material
exact	1017,1022	O	I-Material
Riemann	1023,1030	O	I-Material
solver	1031,1037	O	I-Material
is	1038,1040	O	O
involved	1041,1049	O	O
;	1049,1050	O	O
dispersive	1051,1061	O	B-Data
terms	1062,1067	O	I-Data
and	1068,1071	O	O
the	1072,1075	O	O
term	1076,1080	O	O
related	1081,1088	O	O
to	1089,1091	O	O
the	1092,1095	O	B-Process
approximation	1096,1109	O	I-Process
to	1110,1112	O	O
the	1113,1116	O	B-Data
second	1117,1123	O	I-Data
order	1124,1129	O	I-Data
of	1130,1132	O	O
the	1133,1136	O	B-Process
vertical	1137,1145	O	I-Process
vorticity	1146,1155	O	I-Process
are	1156,1159	O	O
discretised	1160,1171	O	B-Process
by	1172,1174	O	O
a	1175,1176	O	B-Method
cell	1177,1181	O	I-Method
-	1181,1182	O	I-Method
centred	1182,1189	O	I-Method
finite	1190,1196	O	I-Method
difference	1197,1207	O	I-Method
scheme	1208,1214	O	I-Method
.	1214,1215	O	O

The	1216,1219	O	B-Method
shock	1220,1225	O	I-Method
-	1225,1226	O	I-Method
capturing	1226,1235	O	I-Method
method	1236,1242	O	I-Method
makes	1243,1248	O	O
it	1249,1251	O	O
possible	1252,1260	O	O
to	1261,1263	O	O
intrinsically	1264,1277	O	O
model	1278,1283	O	O
the	1284,1287	O	B-Process
wave	1288,1292	O	I-Process
breaking	1293,1301	O	I-Process
,	1301,1302	O	O
therefore	1303,1312	O	O
no	1313,1315	O	O
additional	1316,1326	O	O
terms	1327,1332	O	O
are	1333,1336	O	O
needed	1337,1343	O	O
to	1344,1346	O	O
take	1347,1351	O	O
into	1352,1356	O	O
account	1357,1364	O	O
the	1365,1368	O	B-Process
breaking	1369,1377	O	I-Process
related	1378,1385	O	I-Process
energy	1386,1392	O	I-Process
dissipation	1393,1404	O	I-Process
in	1405,1407	O	O
the	1408,1411	O	B-Material
surf	1412,1416	O	I-Material
zone	1417,1421	O	I-Material
.	1421,1422	O	O

The	1423,1426	O	B-Material
model	1427,1432	O	I-Material
is	1433,1435	O	O
verified	1436,1444	O	B-Process
against	1445,1452	O	O
several	1453,1460	O	O
benchmark	1461,1470	O	B-Data
tests	1471,1476	O	I-Data
,	1476,1477	O	O
and	1478,1481	O	O
the	1482,1485	O	O
results	1486,1493	O	O
are	1494,1497	O	O
compared	1498,1506	O	O
with	1507,1511	O	O
experimental	1512,1524	O	B-Data
,	1524,1525	O	I-Data
theoretical	1526,1537	O	I-Data
and	1538,1541	O	I-Data
alternative	1542,1553	O	I-Data
numerical	1554,1563	O	I-Data
solutions	1564,1573	O	I-Data
.	1573,1574	O	O

Highlights	1575,1585	O	O
•	1586,1587	O	O

We	1588,1590	O	O
propose	1591,1598	O	O
a	1599,1600	O	B-Data
contravariant	1601,1614	O	I-Data
formulation	1615,1626	O	I-Data
of	1627,1629	O	O
the	1630,1633	O	B-Process
fully	1634,1639	O	I-Process
non	1640,1643	O	I-Process
-	1643,1644	O	I-Process
linear	1644,1650	O	I-Process
Boussinesq	1651,1661	O	I-Process
equations	1662,1671	O	I-Process
.	1671,1672	O	O

•	1673,1674	O	O

The	1675,1678	O	O
presented	1679,1688	O	O
contravariant	1689,1702	O	B-Data
formulation	1703,1714	O	I-Data
is	1715,1717	O	O
free	1718,1722	O	O
of	1723,1725	O	O
Christoffel	1726,1737	O	B-Data
symbols	1738,1745	O	I-Data
.	1745,1746	O	O

•	1747,1748	O	O

The	1749,1752	O	B-Method
equations	1753,1762	O	I-Method
retain	1763,1769	O	O
the	1770,1773	O	B-Data
approximation	1774,1787	O	I-Data
to	1788,1790	O	O
the	1791,1794	O	B-Data
second	1795,1801	O	I-Data
order	1802,1807	O	I-Data
of	1808,1810	O	O
the	1811,1814	O	B-Process
vertical	1815,1823	O	I-Process
vorticity	1824,1833	O	I-Process
.	1833,1834	O	O

•	1835,1836	O	O

We	1837,1839	O	O
present	1840,1847	O	O
a	1848,1849	O	B-Method
new	1850,1853	O	I-Method
Upwind	1854,1860	O	I-Method
Weighted	1861,1869	O	I-Method
Essentially	1870,1881	O	I-Method
Non	1882,1885	O	I-Method
-	1885,1886	O	I-Method
Oscillatory	1886,1897	O	I-Method
scheme	1898,1904	O	I-Method
.	1904,1905	O	O

•	1906,1907	O	O

The	1908,1911	O	B-Method
shock	1912,1917	O	I-Method
-	1917,1918	O	I-Method
capturing	1918,1927	O	I-Method
scheme	1928,1934	O	I-Method
allows	1935,1941	O	O
an	1942,1944	O	B-Material
explicit	1945,1953	O	I-Material
simulation	1954,1964	O	I-Material
of	1965,1967	O	O
the	1968,1971	O	B-Process
wave	1972,1976	O	I-Process
breaking	1977,1985	O	I-Process
.	1985,1986	O	O

-DOCSTART- (S0960148113002048)

A	0,1	O	B-Material
control	2,9	O	I-Material
system	10,16	O	I-Material
for	17,20	O	O
a	21,22	O	B-Material
vertical	23,31	O	I-Material
axis	32,36	O	I-Material
wind	37,41	O	I-Material
turbine	42,49	O	I-Material
is	50,52	O	O
presented	53,62	O	O
.	62,63	O	O

The	64,67	O	B-Data
electric	68,76	O	I-Data
load	77,81	O	I-Data
is	82,84	O	O
determined	85,95	O	O
solely	96,102	O	O
from	103,107	O	O
the	108,111	O	B-Data
rotational	112,122	O	I-Data
velocity	123,131	O	I-Data
and	132,135	O	O
the	136,139	O	B-Data
characteristics	140,155	O	I-Data
of	156,158	O	O
the	159,162	O	B-Material
turbine	163,170	O	I-Material
,	170,171	O	O
thus	172,176	O	O
measurements	177,189	O	B-Data
of	190,192	O	O
the	193,196	O	B-Data
incoming	197,205	O	I-Data
wind	206,210	O	I-Data
speed	211,216	O	I-Data
are	217,220	O	O
not	221,224	O	O
required	225,233	O	O
.	233,234	O	O

The	235,238	O	B-Material
control	239,246	O	I-Material
system	247,253	O	I-Material
is	254,256	O	O
evaluated	257,266	O	B-Process
with	267,271	O	O
an	272,274	O	B-Material
aerodynamic	275,286	O	I-Material
vortex	287,293	O	I-Material
model	294,299	O	I-Material
coupled	300,307	O	B-Process
with	308,312	O	O
an	313,315	O	B-Material
electrical	316,326	O	I-Material
model	327,332	O	I-Material
.	332,333	O	O

Three	334,339	O	B-Data
different	340,349	O	I-Data
sets	350,354	O	I-Data
of	355,357	O	I-Data
control	358,365	O	I-Data
system	366,372	O	I-Data
parameters	373,383	O	I-Data
are	384,387	O	O
tested	388,394	O	B-Process
,	394,395	O	O
representing	396,408	O	O
different	409,418	O	B-Data
tradeoffs	419,428	O	I-Data
between	429,436	O	O
a	437,438	O	B-Data
high	439,443	O	I-Data
power	444,449	O	B-Process
absorption	450,460	O	I-Process
and	461,464	O	O
achieving	465,474	O	O
a	475,476	O	B-Data
fast	477,481	O	I-Data
control	482,489	O	B-Process
strategy	490,498	O	I-Process
with	499,503	O	O
high	504,508	O	B-Data
stability	509,518	O	I-Data
.	518,519	O	O

The	520,523	O	B-Material
simulations	524,535	O	I-Material
show	536,540	O	O
that	541,545	O	O
the	546,549	O	B-Data
three	550,555	O	I-Data
control	556,563	O	B-Process
strategies	564,574	O	I-Process
provide	575,582	O	O
a	583,584	O	B-Process
similar	585,592	O	I-Process
power	593,598	O	I-Process
absorption	599,609	O	I-Process
as	610,612	O	O
a	613,614	O	O
reference	615,624	O	O
strategy	625,633	O	O
based	634,639	O	O
on	640,642	O	O
known	643,648	O	B-Data
wind	649,653	O	I-Data
speed	654,659	O	I-Data
.	659,660	O	O

For	661,664	O	O
dynamic	665,672	O	B-Material
simulations	673,684	O	I-Material
with	685,689	O	O
fast	690,694	O	B-Data
changes	695,702	O	I-Data
in	703,705	O	O
wind	706,710	O	B-Data
speed	711,716	O	I-Data
,	716,717	O	O
the	718,721	O	B-Data
fast	722,726	O	I-Data
control	727,734	O	B-Process
strategies	735,745	O	I-Process
are	746,749	O	O
beneficial	750,760	O	O
.	760,761	O	O

All	762,765	O	B-Process
control	766,773	O	I-Process
strategies	774,784	O	I-Process
are	785,788	O	O
stable	789,795	O	B-Data
throughout	796,806	O	O
the	807,810	O	B-Material
simulations	811,822	O	I-Material
when	823,827	O	O
proper	828,834	O	B-Data
power	835,840	O	I-Data
absorption	841,851	O	I-Data
characteristics	852,867	O	I-Data
of	868,870	O	O
the	871,874	O	B-Material
turbine	875,882	O	I-Material
are	883,886	O	O
used	887,891	O	O
.	891,892	O	O

It	893,895	O	O
is	896,898	O	O
also	899,903	O	O
shown	904,909	O	O
that	910,914	O	O
if	915,917	O	O
peak	918,922	O	B-Process
power	923,928	O	I-Process
absorption	929,939	O	I-Process
is	940,942	O	O
estimated	943,952	O	B-Process
at	953,955	O	O
a	956,957	O	B-Data
too	958,961	O	I-Data
low	962,965	O	I-Data
tip	966,969	O	B-Data
speed	970,975	O	I-Data
ratio	976,981	O	I-Data
,	981,982	O	O
the	983,986	O	B-Process
control	987,994	O	I-Process
strategies	995,1005	O	I-Process
may	1006,1009	O	O
inadvertently	1010,1023	O	O
stop	1024,1028	O	O
the	1029,1032	O	B-Material
turbine	1033,1040	O	I-Material
.	1040,1041	O	O

Highlights	1042,1052	O	O
•	1053,1054	O	O

A	1055,1056	O	B-Material
coupled	1057,1064	O	I-Material
aerodynamic	1065,1076	O	I-Material
-	1077,1078	O	I-Material
electric	1079,1087	O	I-Material
simulation	1088,1098	O	I-Material
model	1099,1104	O	I-Material
is	1105,1107	O	O
presented	1108,1117	O	O
.	1117,1118	O	O

•	1119,1120	O	O

A	1121,1122	O	B-Method
control	1123,1130	O	I-Method
strategy	1131,1139	O	I-Method
for	1140,1143	O	O
VAWT	1144,1148	O	B-Material
that	1149,1153	O	O
does	1154,1158	O	O
not	1159,1162	O	O
require	1163,1170	O	O
wind	1171,1175	O	B-Data
measurements	1176,1188	O	I-Data
is	1189,1191	O	O
evaluated	1192,1201	O	B-Process
.	1201,1202	O	O

•	1203,1204	O	O

Accuracy	1205,1213	O	B-Data
of	1214,1216	O	O
control	1217,1224	O	B-Process
strategy	1225,1233	O	I-Process
versus	1234,1240	O	O
convergence	1241,1252	O	B-Data
speed	1253,1258	O	I-Data
is	1259,1261	O	O
analysed	1262,1270	O	B-Process
.	1270,1271	O	O

•	1272,1273	O	O

The	1274,1277	O	B-Data
sensitivity	1278,1289	O	I-Data
of	1290,1292	O	O
the	1293,1296	O	B-Data
control	1297,1304	O	I-Data
parameters	1305,1315	O	I-Data
is	1316,1318	O	O
investigated	1319,1331	O	B-Process
.	1331,1332	O	O

-DOCSTART- (S0960148113002735)

A	0,1	O	B-Material
wind	2,6	O	I-Material
farm	7,11	O	I-Material
with	12,16	O	O
a	17,18	O	B-Data
simple	19,25	O	I-Data
electrical	26,36	O	I-Data
topology	37,45	O	I-Data
based	46,51	O	O
on	52,54	O	O
passive	55,62	O	B-Material
rectifiers	63,73	O	I-Material
and	74,77	O	O
a	78,79	O	B-Material
single	80,86	O	I-Material
inverter	87,95	O	I-Material
(	96,97	O	O
mutual	97,103	O	B-Data
topology	104,112	O	I-Data
)	112,113	O	O
is	114,116	O	O
compared	117,125	O	O
to	126,128	O	O
a	129,130	O	B-Data
more	131,135	O	I-Data
complex	136,143	O	I-Data
topology	144,152	O	I-Data
where	153,158	O	O
each	159,163	O	B-Material
turbine	164,171	O	I-Material
has	172,175	O	O
a	176,177	O	B-Material
separate	178,186	O	I-Material
inverter	187,195	O	I-Material
(	196,197	O	O
separate	197,205	O	B-Data
topology	206,214	O	I-Data
)	214,215	O	O
.	215,216	O	O

In	217,219	O	O
both	220,224	O	O
cases	225,230	O	O
,	230,231	O	O
the	232,235	O	B-Material
turbines	236,244	O	I-Material
are	245,248	O	O
controlled	249,259	O	B-Process
electrically	260,272	O	B-Process
by	273,275	O	O
varying	276,283	O	O
the	284,287	O	B-Material
extracted	288,297	O	I-Material
power	298,303	O	I-Material
with	304,308	O	O
the	309,312	O	B-Data
rotational	313,323	O	I-Data
velocity	324,332	O	I-Data
as	333,335	O	O
control	336,343	O	B-Data
signal	344,350	O	I-Data
.	350,351	O	O

These	352,357	O	O
two	358,361	O	B-Data
electrical	362,372	O	B-Data
topologies	373,383	O	I-Data
are	384,387	O	O
evaluated	388,397	O	B-Process
with	398,402	O	O
respect	403,410	O	O
to	411,413	O	O
the	414,417	O	B-Data
absorbed	418,426	O	I-Data
power	427,432	O	I-Data
for	433,436	O	O
a	437,438	O	B-Material
farm	439,443	O	I-Material
of	444,446	O	I-Material
four	447,451	O	I-Material
turbines	452,460	O	I-Material
placed	461,467	O	O
either	468,474	O	O
on	475,477	O	O
a	478,479	O	B-Data
line	480,484	O	I-Data
or	485,487	O	I-Data
in	488,490	O	I-Data
a	491,492	O	I-Data
square	493,499	O	I-Data
configuration	500,513	O	I-Data
.	513,514	O	O

The	515,518	O	B-Process
evaluation	519,529	O	I-Process
is	530,532	O	O
done	533,537	O	O
with	538,542	O	O
a	543,544	O	B-Material
vortex	545,551	O	I-Material
model	552,557	O	I-Material
for	558,561	O	O
the	562,565	O	B-Process
aerodynamics	566,578	O	I-Process
,	578,579	O	O
coupled	580,587	O	B-Process
with	588,592	O	O
a	593,594	O	O
model	595,600	O	O
of	601,603	O	O
the	604,607	O	B-Material
electromechanical	608,625	O	I-Material
system	626,632	O	I-Material
.	632,633	O	O

Simulations	634,645	O	B-Method
predict	646,653	O	B-Process
that	654,658	O	O
individual	659,669	O	O
control	670,677	O	O
is	678,680	O	O
beneficial	681,691	O	O
for	692,695	O	O
aerodynamically	696,711	O	B-Material
independent	712,723	O	I-Material
turbines	724,732	O	I-Material
if	733,735	O	O
the	736,739	O	B-Data
wind	740,744	O	I-Data
speeds	745,751	O	I-Data
differ	752,758	O	O
significantly	759,772	O	O
between	773,780	O	O
the	781,784	O	B-Material
turbines	785,793	O	I-Material
.	793,794	O	O

If	795,797	O	O
the	798,801	O	B-Data
differences	802,813	O	I-Data
in	814,816	O	O
wind	817,821	O	B-Data
speed	822,827	O	I-Data
are	828,831	O	O
caused	832,838	O	O
by	839,841	O	O
one	842,845	O	B-Material
turbine	846,853	O	I-Material
operating	854,863	O	B-Process
in	864,866	O	O
the	867,870	O	B-Material
wake	871,875	O	I-Material
of	876,878	O	O
another	879,886	O	O
,	886,887	O	O
the	888,891	O	B-Data
deviations	892,902	O	I-Data
in	903,905	O	O
power	906,911	O	B-Data
output	912,918	O	I-Data
between	919,926	O	O
the	927,930	O	B-Material
topologies	931,941	O	I-Material
are	942,945	O	O
less	946,950	O	O
prominent	951,960	O	O
.	960,961	O	O

The	962,965	O	B-Data
mutual	966,972	O	I-Data
topology	973,981	O	I-Data
can	982,985	O	O
even	986,990	O	O
deliver	991,998	O	B-Process
more	999,1003	O	O
power	1004,1009	O	B-Data
than	1010,1014	O	O
the	1015,1018	O	B-Data
separate	1019,1027	O	I-Data
topology	1028,1036	O	I-Data
when	1037,1041	O	O
one	1042,1045	O	B-Data
turbine	1046,1053	O	B-Material
is	1054,1056	O	O
in	1057,1059	O	O
the	1060,1063	O	B-Material
wake	1064,1068	O	I-Material
of	1069,1071	O	O
another	1072,1079	O	B-Material
turbine	1080,1087	O	I-Material
if	1088,1090	O	O
the	1091,1094	O	B-Data
wind	1095,1099	O	I-Data
speed	1100,1105	O	I-Data
changes	1106,1113	O	O
rapidly	1114,1121	O	B-Process
.	1121,1122	O	O

Highlights	1123,1133	O	O
•	1134,1135	O	O

A	1136,1137	O	B-Material
VAWT	1138,1142	O	I-Material
farm	1143,1147	O	I-Material
is	1148,1150	O	O
simulated	1151,1160	O	B-Process
with	1161,1165	O	O
vortex	1166,1172	O	B-Material
model	1173,1178	O	I-Material
coupled	1179,1186	O	B-Process
with	1187,1191	O	O
electric	1192,1200	O	B-Material
model	1201,1206	O	I-Material
.	1206,1207	O	O
•	1208,1209	O	O

An	1210,1212	O	B-Material
electric	1213,1221	O	I-Material
system	1222,1228	O	I-Material
with	1229,1233	O	O
passive	1234,1241	O	B-Material
rectifiers	1242,1252	O	I-Material
and	1253,1256	O	O
a	1257,1258	O	B-Material
mutual	1259,1265	O	I-Material
DC	1266,1268	O	I-Material
-	1268,1269	O	I-Material
bus	1269,1272	O	I-Material
has	1273,1276	O	O
been	1277,1281	O	O
evaluated	1282,1291	O	B-Process
.	1291,1292	O	O

•	1293,1294	O	O

The	1295,1298	O	B-Material
proposed	1299,1307	O	I-Material
electric	1308,1316	O	I-Material
system	1317,1323	O	I-Material
is	1324,1326	O	O
viable	1327,1333	O	O
for	1334,1337	O	O
a	1338,1339	O	B-Data
vertical	1340,1348	O	I-Data
axis	1349,1353	O	I-Data
wind	1354,1358	O	B-Material
turbine	1359,1366	O	I-Material
farm	1367,1371	O	I-Material
.	1371,1372	O	O

•	1373,1374	O	O

The	1375,1378	O	B-Process
aerodynamic	1379,1390	O	I-Process
interactions	1391,1403	O	O
between	1404,1411	O	O
the	1412,1415	O	B-Material
turbines	1416,1424	O	I-Material
is	1425,1427	O	O
important	1428,1437	O	O
for	1438,1441	O	O
the	1442,1445	O	B-Process
evaluation	1446,1456	O	I-Process
.	1456,1457	O	O

•	1458,1459	O	O

The	1460,1463	O	B-Data
inter	1464,1469	O	I-Data
turbine	1470,1477	O	I-Data
distance	1478,1486	O	I-Data
is	1487,1489	O	O
far	1490,1493	O	O
more	1494,1498	O	O
important	1499,1508	O	O
than	1509,1513	O	O
the	1514,1517	O	B-Data
electrical	1518,1528	O	I-Data
topology	1529,1537	O	I-Data
.	1537,1538	O	O

-DOCSTART- (S0960148113005727)

Ageing	0,6	O	B-Process
is	7,9	O	O
a	10,11	O	B-Data
fact	12,16	O	I-Data
of	17,19	O	O
life	20,24	O	B-Process
.	24,25	O	O

Just	26,30	O	O
as	31,33	O	O
with	34,38	O	O
conventional	39,51	O	O
forms	52,57	O	O
of	58,60	O	O
power	61,66	O	B-Process
generation	67,77	O	I-Process
,	77,78	O	O
the	79,82	O	B-Material
energy	83,89	O	I-Material
produced	90,98	O	O
by	99,101	O	O
a	102,103	O	B-Material
wind	104,108	O	I-Material
farm	109,113	O	I-Material
gradually	114,123	O	O
decreases	124,133	O	B-Process
over	134,138	O	O
its	139,142	O	B-Data
lifetime	143,151	O	I-Data
,	151,152	O	O
perhaps	153,160	O	O
due	161,164	O	O
to	165,167	O	O
falling	168,175	O	B-Process
availability	176,188	O	O
,	188,189	O	O
aerodynamic	190,201	O	B-Data
performance	202,213	O	I-Data
or	214,216	O	O
conversion	217,227	O	B-Data
efficiency	228,238	O	I-Data
.	238,239	O	O

Understanding	240,253	O	O
these	254,259	O	B-Data
factors	260,267	O	I-Data
is	268,270	O	O
however	271,278	O	O
complicated	279,290	O	O
by	291,293	O	O
the	294,297	O	B-Process
highly	298,304	O	I-Process
variable	305,313	O	I-Process
availability	314,326	O	I-Process
of	327,329	O	I-Process
the	330,333	O	I-Process
wind	334,338	O	I-Process
.	338,339	O	O

This	340,344	O	O
paper	345,350	O	O
reveals	351,358	O	O
the	359,362	O	B-Data
rate	363,367	O	I-Data
of	368,370	O	O
ageing	371,377	O	B-Process
of	378,380	O	O
a	381,382	O	B-Material
national	383,391	O	I-Material
fleet	392,397	O	I-Material
of	398,400	O	I-Material
wind	401,405	O	I-Material
turbines	406,414	O	I-Material
using	415,420	O	O
free	421,425	O	B-Data
public	426,432	O	I-Data
data	433,437	O	I-Data
for	438,441	O	O
the	442,445	O	B-Data
actual	446,452	O	I-Data
and	453,456	O	I-Data
theoretical	457,468	O	I-Data
ideal	469,474	O	I-Data
load	475,479	O	I-Data
factors	480,487	O	I-Data
from	488,492	O	O
the	493,496	O	O
UK	497,499	O	O
's	499,501	O	O
282	502,505	O	B-Data
wind	506,510	O	B-Material
farms	511,516	O	I-Material
.	516,517	O	O

Actual	518,524	O	B-Data
load	525,529	O	I-Data
factors	530,537	O	I-Data
are	538,541	O	O
recorded	542,550	O	B-Process
monthly	551,558	O	B-Data
for	559,562	O	I-Data
the	563,566	O	I-Data
period	567,573	O	I-Data
of	574,576	O	I-Data
2002	577,581	O	I-Data
-	581,582	O	I-Data
2012	582,586	O	I-Data
,	586,587	O	O
covering	588,596	O	O
1686	597,601	O	B-Data
farm	602,606	O	I-Data
-	606,607	O	I-Data
years	607,612	O	I-Data
of	613,615	O	O
operation	616,625	O	B-Process
.	625,626	O	O

Ideal	627,632	O	B-Data
load	633,637	O	I-Data
factors	638,645	O	I-Data
are	646,649	O	O
derived	650,657	O	B-Process
from	658,662	O	O
a	663,664	O	B-Process
high	665,669	O	I-Process
resolution	670,680	O	I-Process
wind	681,685	O	I-Process
resource	686,694	O	I-Process
assessment	695,705	O	I-Process
made	706,710	O	O
using	711,716	O	O
NASA	717,721	O	B-Data
data	722,726	O	I-Data
to	727,729	O	O
estimate	730,738	O	O
the	739,742	O	B-Data
hourly	743,749	O	I-Data
wind	750,754	O	I-Data
speed	755,760	O	I-Data
at	761,763	O	O
the	764,767	O	O
location	768,776	O	O
and	777,780	O	O
hub	781,784	O	B-Data
height	785,791	O	I-Data
of	792,794	O	O
each	795,799	O	B-Material
wind	800,804	O	I-Material
farm	805,809	O	I-Material
,	809,810	O	O
accounting	811,821	O	O
for	822,825	O	O
the	826,829	O	B-Material
particular	830,840	O	I-Material
models	841,847	O	I-Material
of	848,850	O	I-Material
turbine	851,858	O	I-Material
installed	859,868	O	B-Process
.	868,869	O	O

By	870,872	O	O
accounting	873,883	O	O
for	884,887	O	O
individual	888,898	O	B-Data
site	899,903	O	I-Data
conditions	904,914	O	I-Data
we	915,917	O	O
confirm	918,925	O	O
that	926,930	O	O
load	931,935	O	B-Data
factors	936,943	O	I-Data
do	944,946	O	O
decline	947,954	O	B-Process
with	955,959	O	O
age	960,963	O	B-Data
,	963,964	O	O
at	965,967	O	O
a	968,969	O	B-Data
similar	970,977	O	I-Data
rate	978,982	O	I-Data
to	983,985	O	O
other	986,991	O	B-Material
rotating	992,1000	O	I-Material
machinery	1001,1010	O	I-Material
.	1010,1011	O	O

Wind	1012,1016	O	B-Material
turbines	1017,1025	O	I-Material
are	1026,1029	O	O
found	1030,1035	O	O
to	1036,1038	O	O
lose	1039,1043	O	O
1.6	1044,1047	O	B-Data
±	1048,1049	O	I-Data
0.2	1050,1053	O	I-Data
%	1053,1054	O	I-Data
of	1055,1057	O	I-Data
their	1058,1063	O	I-Data
output	1064,1070	O	I-Data
per	1071,1074	O	I-Data
year	1075,1079	O	I-Data
,	1079,1080	O	O
with	1081,1085	O	O
average	1086,1093	O	B-Data
load	1094,1098	O	I-Data
factors	1099,1106	O	I-Data
declining	1107,1116	O	B-Process
from	1117,1121	O	O
28.5	1122,1126	O	B-Data
%	1126,1127	O	I-Data
when	1128,1132	O	O
new	1133,1136	O	O
to	1137,1139	O	O
21	1140,1142	O	B-Data
%	1142,1143	O	I-Data
at	1144,1146	O	O
age	1147,1150	O	O
19	1151,1153	O	O
.	1153,1154	O	O

This	1155,1159	O	B-Process
trend	1160,1165	O	I-Process
is	1166,1168	O	O
consistent	1169,1179	O	O
for	1180,1183	O	O
different	1184,1193	O	O
generations	1194,1205	O	B-Data
of	1206,1208	O	O
turbine	1209,1216	O	B-Process
design	1217,1223	O	I-Process
and	1224,1227	O	O
individual	1228,1238	O	B-Material
wind	1239,1243	O	I-Material
farms	1244,1249	O	I-Material
.	1249,1250	O	O

This	1251,1255	O	B-Data
level	1256,1261	O	I-Data
of	1262,1264	O	O
degradation	1265,1276	O	B-Process
reduces	1277,1284	O	B-Process
a	1285,1286	O	B-Material
wind	1287,1291	O	I-Material
farm	1292,1296	O	I-Material
's	1296,1298	O	I-Material
output	1299,1305	O	I-Material
by	1306,1308	O	O
12	1309,1311	O	B-Data
%	1311,1312	O	I-Data
over	1313,1317	O	I-Data
a	1318,1319	O	I-Data
twenty	1320,1326	O	I-Data
year	1327,1331	O	I-Data
lifetime	1332,1340	O	I-Data
,	1340,1341	O	O
increasing	1342,1352	O	B-Process
the	1353,1356	O	B-Data
levelised	1357,1366	O	I-Data
cost	1367,1371	O	I-Data
of	1372,1374	O	O
electricity	1375,1386	O	B-Material
by	1387,1389	O	O
9	1390,1391	O	B-Data
%	1391,1392	O	I-Data
.	1392,1393	O	O

Graphical	1394,1403	O	O
abstract	1404,1412	O	O
Highlights	1413,1423	O	O
:	1423,1424	O	O
•	1425,1426	O	O
The	1427,1430	O	O
output	1431,1437	O	O
of	1438,1440	O	O
282	1441,1444	O	B-Data
wind	1445,1449	O	B-Material
farms	1450,1455	O	I-Material
is	1456,1458	O	O
accurately	1459,1469	O	B-Process
estimated	1470,1479	O	I-Process
using	1480,1485	O	O
public	1486,1492	O	B-Data
wind	1493,1497	O	I-Data
speed	1498,1503	O	I-Data
data	1504,1508	O	I-Data
.	1508,1509	O	O

•	1510,1511	O	O

Correcting	1512,1522	O	B-Process
for	1523,1526	O	O
variability	1527,1538	O	B-Process
in	1539,1541	O	O
the	1542,1545	O	B-Material
weather	1546,1553	O	I-Material
allows	1554,1560	O	O
wind	1561,1565	O	B-Process
turbine	1566,1573	O	I-Process
ageing	1574,1580	O	I-Process
to	1581,1583	O	O
be	1584,1586	O	O
studied	1587,1594	O	O
.	1594,1595	O	O

•	1596,1597	O	O

Onshore	1598,1605	O	B-Material
wind	1606,1610	O	I-Material
farm	1611,1615	O	I-Material
output	1616,1622	O	I-Material
falls	1623,1628	O	B-Process
16	1629,1631	O	B-Data
%	1631,1632	O	I-Data
a	1633,1634	O	I-Data
decade	1635,1641	O	I-Data
,	1641,1642	O	O
possibly	1643,1651	O	O
due	1652,1655	O	O
to	1656,1658	O	O
availability	1659,1671	O	B-Process
and	1672,1675	O	O
wear	1676,1680	O	B-Process
.	1680,1681	O	O

•	1682,1683	O	O

Performance	1684,1695	O	B-Process
decline	1696,1703	O	I-Process
with	1704,1708	O	O
age	1709,1712	O	B-Data
is	1713,1715	O	O
seen	1716,1720	O	O
in	1721,1723	O	O
all	1724,1727	O	B-Material
farms	1728,1733	O	I-Material
and	1734,1737	O	I-Material
all	1738,1741	O	I-Material
generations	1742,1753	O	I-Material
of	1754,1756	O	I-Material
turbines	1757,1765	O	I-Material
.	1765,1766	O	O

•	1767,1768	O	O

Decreasing	1769,1779	O	B-Process
output	1780,1786	O	I-Process
over	1787,1791	O	O
a	1792,1793	O	B-Data
farm	1794,1798	O	I-Data
's	1798,1800	O	I-Data
life	1801,1805	O	I-Data
increases	1806,1815	O	B-Process
the	1816,1819	O	B-Data
levelised	1820,1829	O	I-Data
cost	1830,1834	O	I-Data
of	1835,1837	O	I-Data
electricity	1838,1849	O	I-Data
.	1849,1850	O	O

