-DOCSTART- (S0031405612000728)

This	0,4	O	O
investigation	5,18	O	O
examines	19,27	O	O
the	28,31	O	B-Process
effect	32,38	O	I-Process
of	39,41	O	O
manipulating	42,54	O	B-Process
soil	55,59	O	B-Data
microbial	60,69	O	I-Data
community	70,79	O	I-Data
composition	80,91	O	I-Data
and	92,95	O	O
species	96,103	O	B-Data
richness	104,112	O	I-Data
on	113,115	O	O
the	116,119	O	B-Process
development	120,131	O	I-Process
of	132,134	O	O
soil	135,139	O	B-Data
structure	140,149	O	I-Data
over	150,154	O	O
a	155,156	O	O
seven	157,162	O	O
month	163,168	O	O
period	169,175	O	O
in	176,178	O	O
planted	179,186	O	B-Material
(	187,188	O	I-Material
with	188,192	O	I-Material
or	193,195	O	I-Material
without	196,203	O	I-Material
mycorrhizal	204,215	O	I-Material
fungi	216,221	O	I-Material
)	221,222	O	I-Material
and	223,226	O	I-Material
in	227,229	O	I-Material
unplanted	230,239	O	I-Material
macrocosms	240,250	O	I-Material
.	250,251	O	O

The	252,255	O	B-Method
dilution	256,264	O	I-Method
method	265,271	O	I-Method
effectively	272,283	O	O
resulted	284,292	O	O
in	293,295	O	O
soil	296,300	O	B-Material
communities	301,312	O	I-Material
with	313,317	O	O
consistently	318,330	O	O
contrasting	331,342	O	B-Data
levels	343,349	O	I-Data
of	350,352	O	I-Data
species	353,360	O	I-Data
(	361,362	O	I-Data
TRF	362,365	O	I-Data
)	365,366	O	I-Data
richness	367,375	O	I-Data
.	375,376	O	O

In	377,379	O	O
particular	380,390	O	O
,	390,391	O	O
the	392,395	O	B-Method
10	396,398	O	I-Method
-	398,399	O	I-Method
6	399,400	O	I-Method
dilution	401,409	O	I-Method
of	410,412	O	O
field	413,418	O	B-Material
soil	419,423	O	I-Material
resulted	424,432	O	O
in	433,435	O	O
less	436,440	O	B-Material
rich	441,445	O	I-Material
communities	446,457	O	I-Material
in	458,460	O	I-Material
bare	461,465	O	I-Material
unplanted	466,475	O	I-Material
soil	476,480	O	I-Material
than	481,485	O	O
did	486,489	O	O
the	490,493	O	B-Method
10	494,496	O	I-Method
-	496,497	O	I-Method
1	497,498	O	I-Method
soil	499,503	O	I-Method
dilution	504,512	O	I-Method
.	512,513	O	O

However	514,521	O	O
,	521,522	O	O
this	523,527	O	O
was	528,531	O	O
not	532,535	O	O
the	536,539	O	O
case	540,544	O	O
in	545,547	O	O
planted	548,555	O	B-Material
soils	556,561	O	I-Material
where	562,567	O	O
root	568,572	O	B-Process
activity	573,581	O	I-Process
was	582,585	O	O
a	586,587	O	O
powerful	588,596	O	O
influence	597,606	O	O
on	607,609	O	O
species	610,617	O	B-Data
richness	618,626	O	I-Data
.	626,627	O	O

After	628,633	O	O
seven	634,639	O	O
months	640,646	O	O
,	646,647	O	O
principal	648,657	O	B-Method
components	658,668	O	I-Method
analysis	669,677	O	I-Method
(	678,679	O	I-Method
PCA	679,682	O	I-Method
)	682,683	O	I-Method
separated	684,693	O	O
bacterial	694,703	O	B-Data
community	704,713	O	I-Data
composition	714,725	O	I-Data
primarily	726,735	O	O
on	736,738	O	O
planting	739,747	O	B-Process
regime	748,754	O	I-Process
;	754,755	O	O
planted	756,763	O	B-Material
mycorrhizal	764,775	O	I-Material
,	775,776	O	O
planted	777,784	O	B-Material
non	785,788	O	I-Material
-	788,789	O	I-Material
mycorrhizal	789,800	O	I-Material
and	801,804	O	O
bare	805,809	O	B-Material
soil	810,814	O	I-Material
treatments	815,825	O	B-Process
all	826,829	O	O
contained	830,839	O	O
different	840,849	O	O
bacterial	850,859	O	B-Data
community	860,869	O	I-Data
compositions	870,882	O	I-Data
.	882,883	O	O

A	884,885	O	O
consistent	886,896	O	O
finding	897,904	O	O
in	905,907	O	O
planted	908,915	O	B-Material
and	916,919	O	I-Material
unplanted	920,929	O	I-Material
soils	930,935	O	I-Material
was	936,939	O	O
that	940,944	O	O
aggregate	945,954	O	B-Data
stability	955,964	O	I-Data
was	965,968	O	O
positively	969,979	O	B-Data
correlated	980,990	O	I-Data
with	991,995	O	O
small	996,1001	O	B-Data
pore	1002,1006	O	I-Data
sizes	1007,1012	O	I-Data
.	1012,1013	O	O

Mycorrhizal	1014,1025	O	B-Process
colonisation	1026,1038	O	I-Process
decreased	1039,1048	O	B-Process
plant	1049,1054	O	B-Material
biomass	1055,1062	O	I-Material
and	1063,1066	O	O
also	1067,1071	O	O
resulted	1072,1080	O	O
in	1081,1083	O	O
reduced	1084,1091	O	B-Data
soil	1092,1096	O	I-Data
bacterial	1097,1106	O	I-Data
species	1107,1114	O	I-Data
richness	1115,1123	O	I-Data
,	1123,1124	O	O
lower	1125,1130	O	B-Data
percentage	1131,1141	O	I-Data
organic	1142,1149	O	B-Material
matter	1150,1156	O	I-Material
and	1157,1160	O	O
smaller	1161,1168	O	B-Data
pore	1169,1173	O	I-Data
sizes	1174,1179	O	I-Data
relative	1180,1188	O	O
to	1189,1191	O	O
planted	1192,1199	O	B-Material
but	1200,1203	O	I-Material
non	1204,1207	O	I-Material
-	1207,1208	O	I-Material
mycorrhizal	1208,1219	O	I-Material
soils	1220,1225	O	I-Material
.	1225,1226	O	O

However	1227,1234	O	O
,	1234,1235	O	O
soil	1236,1240	O	B-Data
aggregate	1241,1250	O	I-Data
stability	1251,1260	O	I-Data
and	1261,1264	O	O
water	1265,1270	O	B-Process
repellency	1271,1281	O	I-Process
were	1282,1286	O	O
increased	1287,1296	O	O
in	1297,1299	O	O
these	1300,1305	O	B-Material
(	1306,1307	O	I-Material
mycorrhizal	1307,1318	O	I-Material
)	1318,1319	O	I-Material
soils	1320,1325	O	I-Material
probably	1326,1334	O	O
due	1335,1338	O	O
to	1339,1341	O	O
AMF	1342,1345	O	B-Process
hyphal	1346,1352	O	I-Process
activities	1353,1363	O	I-Process
including	1364,1373	O	O
enmeshment	1374,1384	O	B-Process
and/or	1385,1391	O	O
glomalin	1392,1400	O	B-Process
production	1401,1411	O	I-Process
.	1411,1412	O	O

In	1413,1415	O	O
contrast	1416,1424	O	O
,	1424,1425	O	O
bacterial	1426,1435	O	B-Data
TRF	1436,1439	O	I-Data
richness	1440,1448	O	I-Data
was	1449,1452	O	O
positively	1453,1463	O	B-Data
correlated	1464,1474	O	I-Data
with	1475,1479	O	O
aggregate	1480,1489	O	B-Data
stability	1490,1499	O	I-Data
in	1500,1502	O	O
the	1503,1506	O	B-Material
bare	1507,1511	O	I-Material
and	1512,1515	O	I-Material
non	1516,1519	O	I-Material
-	1519,1520	O	I-Material
mycorrhizal	1520,1531	O	I-Material
planted	1532,1539	O	I-Material
soils	1540,1545	O	I-Material
.	1545,1546	O	O

Soil	1547,1551	O	B-Material
organic	1552,1559	O	I-Material
carbon	1560,1566	O	I-Material
was	1567,1570	O	O
an	1571,1573	O	O
important	1574,1583	O	O
factor	1584,1590	O	O
in	1591,1593	O	O
all	1594,1597	O	B-Process
treatments	1598,1608	O	I-Process
,	1608,1609	O	O
but	1610,1613	O	O
in	1614,1616	O	O
the	1617,1620	O	B-Material
bare	1621,1625	O	I-Material
soil	1626,1630	O	I-Material
where	1631,1636	O	O
there	1637,1642	O	O
was	1643,1646	O	O
no	1647,1649	O	O
additional	1650,1660	O	B-Process
input	1661,1666	O	I-Process
of	1667,1669	O	O
labile	1670,1676	O	B-Material
C	1677,1678	O	I-Material
from	1679,1683	O	I-Material
roots	1684,1689	O	I-Material
,	1689,1690	O	O
the	1691,1694	O	B-Data
percentage	1695,1705	O	I-Data
C	1706,1707	O	I-Data
could	1708,1713	O	O
be	1714,1716	O	O
directly	1717,1725	O	B-Data
related	1726,1733	O	I-Data
to	1734,1736	O	O
fungal	1737,1743	O	B-Data
TRF	1744,1747	O	I-Data
richness	1748,1756	O	I-Data
.	1756,1757	O	O

The	1758,1761	O	B-Material
less	1762,1766	O	I-Material
species	1767,1774	O	I-Material
rich	1775,1779	O	I-Material
bare	1780,1784	O	I-Material
soil	1785,1789	O	I-Material
contained	1790,1799	O	O
more	1800,1804	O	B-Data
organic	1805,1812	O	B-Material
C	1813,1814	O	I-Material
than	1815,1819	O	O
the	1820,1823	O	B-Material
more	1824,1828	O	I-Material
species	1829,1836	O	I-Material
rich	1837,1841	O	I-Material
bare	1842,1846	O	I-Material
soil	1847,1851	O	I-Material
.	1851,1852	O	O

This	1853,1857	O	O
suggests	1858,1866	O	O
a	1867,1868	O	B-Data
degree	1869,1875	O	I-Data
of	1876,1878	O	I-Data
redundancy	1879,1889	O	I-Data
with	1890,1894	O	O
regard	1895,1901	O	O
to	1902,1904	O	O
mineralisation	1905,1919	O	B-Process
of	1920,1922	O	O
organic	1923,1930	O	B-Material
matter	1931,1937	O	I-Material
when	1938,1942	O	O
additional	1943,1953	O	B-Material
,	1953,1954	O	I-Material
more	1955,1959	O	I-Material
utilisable	1960,1970	O	I-Material
C	1971,1972	O	I-Material
sources	1973,1980	O	I-Material
are	1981,1984	O	O
unavailable	1985,1996	O	O
.	1996,1997	O	O

Understanding	1998,2011	O	O
the	2012,2015	O	B-Process
effects	2016,2023	O	I-Process
of	2024,2026	O	O
microbial	2027,2036	O	B-Material
diversity	2037,2046	O	I-Material
on	2047,2049	O	O
functional	2050,2060	O	B-Data
parameters	2061,2071	O	I-Data
is	2072,2074	O	O
important	2075,2084	O	O
for	2085,2088	O	O
advancing	2089,2098	O	B-Process
sustainable	2099,2110	O	B-Process
soil	2111,2115	O	I-Process
management	2116,2126	O	I-Process
techniques	2127,2137	O	I-Process
,	2137,2138	O	O
but	2139,2142	O	O
it	2143,2145	O	O
is	2146,2148	O	O
clear	2149,2154	O	O
that	2155,2159	O	O
soil	2160,2164	O	B-Material
is	2165,2167	O	O
a	2168,2169	O	B-Process
dynamic	2170,2177	O	I-Process
ecosystem	2178,2187	O	I-Process
.	2187,2188	O	O

-DOCSTART- (S0038071713001971)

Most	0,4	O	O
previous	5,13	O	O
studies	14,21	O	O
on	22,24	O	O
soil	25,29	O	B-Material
microbial	30,39	O	I-Material
communities	40,51	O	I-Material
have	52,56	O	O
been	57,61	O	O
focused	62,69	O	O
on	70,72	O	O
species	73,80	O	B-Process
abundance	81,90	O	I-Process
and	91,94	O	I-Process
diversity	95,104	O	I-Process
,	104,105	O	O
but	106,109	O	O
not	110,113	O	O
the	114,117	O	B-Process
interactions	118,130	O	I-Process
among	131,136	O	O
species	137,144	O	B-Material
.	144,145	O	O

In	146,148	O	O
present	149,156	O	O
study	157,162	O	O
,	162,163	O	O
the	164,167	O	B-Method
Molecular	168,177	O	I-Method
Ecological	178,188	O	I-Method
Network	189,196	O	I-Method
Analysis	197,205	O	I-Method
tool	206,210	O	I-Method
was	211,214	O	O
used	215,219	O	O
to	220,222	O	O
study	223,228	O	O
the	229,232	O	B-Process
interactions	233,245	O	I-Process
and	246,249	O	I-Process
network	250,257	O	I-Process
organizations	258,271	O	I-Process
of	272,274	O	O
fungal	275,281	O	B-Material
communities	282,293	O	I-Material
in	294,296	O	O
yield	297,302	O	B-Material
-	302,303	O	I-Material
invigorating	303,315	O	I-Material
(	316,317	O	I-Material
healthy	317,324	O	I-Material
)	324,325	O	I-Material
and	326,329	O	I-Material
-debilitating	330,343	O	I-Material
(	344,345	O	I-Material
diseased	345,353	O	I-Material
)	353,354	O	I-Material
soils	355,360	O	I-Material
induced	361,368	O	O
by	369,371	O	O
prolonged	372,381	O	B-Process
potato	382,388	O	I-Process
monoculture	389,400	O	I-Process
,	400,401	O	O
based	402,407	O	O
on	408,410	O	O
the	411,414	O	B-Data
relative	415,423	O	I-Data
abundances	424,434	O	I-Data
of	435,437	O	O
internal	438,446	O	B-Material
transcribed	447,458	O	I-Material
spacer	459,465	O	I-Material
sequences	466,475	O	I-Material
derived	476,483	O	B-Process
using	484,489	O	O
pyrosequencing	490,504	O	B-Method
.	504,505	O	O

An	506,508	O	O
emphasis	509,517	O	O
was	518,521	O	O
placed	522,528	O	O
on	529,531	O	O
the	532,535	O	B-Data
differences	536,547	O	I-Data
between	548,555	O	O
the	556,559	O	B-Material
healthy	560,567	O	I-Material
and	568,571	O	I-Material
diseased	572,580	O	I-Material
networks	581,589	O	I-Material
.	589,590	O	O

The	591,594	O	B-Material
constructed	595,606	O	I-Material
healthy	607,614	O	I-Material
and	615,618	O	I-Material
diseased	619,627	O	I-Material
networks	628,636	O	I-Material
both	637,641	O	O
showed	642,648	O	O
scale	649,654	O	B-Data
-	654,655	O	I-Data
free	655,659	O	I-Data
,	659,660	O	I-Data
small	661,666	O	I-Data
world	667,672	O	I-Data
and	673,676	O	I-Data
modular	677,684	O	I-Data
properties	685,695	O	I-Data
.	695,696	O	O

The	697,700	O	B-Data
key	701,704	O	I-Data
topological	705,716	O	I-Data
properties	717,727	O	I-Data
and	728,731	O	O
phylogenetic	732,744	O	B-Data
composition	745,756	O	I-Data
of	757,759	O	O
the	760,763	O	B-Material
two	764,767	O	I-Material
networks	768,776	O	I-Material
were	777,781	O	O
similar	782,789	O	O
.	789,790	O	O

However	791,798	O	O
,	798,799	O	O
major	800,805	O	O
differences	806,817	O	O
included	818,826	O	O
:	826,827	O	O
a	828,829	O	O
)	829,830	O	O
the	831,834	O	B-Material
healthy	835,842	O	I-Material
network	843,850	O	I-Material
had	851,854	O	O
more	855,859	O	O
number	860,866	O	O
of	867,869	O	O
functionally	870,882	O	B-Material
interrelated	883,895	O	I-Material
operational	896,907	O	I-Material
taxonomic	908,917	O	I-Material
units	918,923	O	I-Material
(	924,925	O	I-Material
OTUs	925,929	O	I-Material
)	929,930	O	I-Material
than	931,935	O	O
the	936,939	O	B-Material
diseased	940,948	O	I-Material
one	949,952	O	I-Material
;	952,953	O	O
b	954,955	O	O
)	955,956	O	O
healthy	957,964	O	B-Material
network	965,972	O	I-Material
contained	973,982	O	O
6	983,984	O	B-Data
(	985,986	O	I-Data
4	986,987	O	I-Data
%	987,988	O	I-Data
)	988,989	O	I-Data
generalist	990,1000	O	B-Material
OTUs	1001,1005	O	I-Material
whereas	1006,1013	O	O
the	1014,1017	O	B-Material
diseased	1018,1026	O	I-Material
contained	1027,1036	O	O
only	1037,1041	O	B-Data
1	1042,1043	O	I-Data
(	1044,1045	O	I-Data
0.6	1045,1048	O	I-Data
%	1048,1049	O	I-Data
)	1049,1050	O	I-Data
marginal	1051,1059	O	B-Material
generalist	1060,1070	O	I-Material
OTU	1071,1074	O	I-Material
;	1074,1075	O	O
and	1076,1079	O	O
c	1080,1081	O	O
)	1081,1082	O	O
majority	1083,1091	O	B-Data
(	1092,1093	O	I-Data
55	1093,1095	O	I-Data
%	1095,1096	O	I-Data
)	1096,1097	O	I-Data
of	1098,1100	O	O
OTUs	1101,1105	O	B-Material
in	1106,1108	O	I-Material
healthy	1109,1116	O	I-Material
soils	1117,1122	O	I-Material
were	1123,1127	O	O
stimulated	1128,1138	O	B-Process
by	1139,1141	O	O
a	1142,1143	O	B-Material
certain	1144,1151	O	I-Material
set	1152,1155	O	I-Material
of	1156,1158	O	O
soil	1159,1163	O	B-Data
variables	1164,1173	O	I-Data
but	1174,1177	O	O
the	1178,1181	O	B-Data
majorities	1182,1192	O	I-Data
(	1193,1194	O	I-Data
63	1194,1196	O	I-Data
%	1196,1197	O	I-Data
)	1197,1198	O	I-Data
in	1199,1201	O	O
diseased	1202,1210	O	B-Material
soils	1211,1216	O	I-Material
were	1217,1221	O	O
inhibited	1222,1231	O	B-Process
.	1231,1232	O	O

Based	1233,1238	O	O
on	1239,1241	O	O
these	1242,1247	O	B-Data
data	1248,1252	O	I-Data
,	1252,1253	O	O
a	1254,1255	O	B-Data
conceptual	1256,1266	O	I-Data
picture	1267,1274	O	I-Data
was	1275,1278	O	O
synthesized	1279,1290	O	B-Process
:	1290,1291	O	O
a	1292,1293	O	B-Material
healthy	1294,1301	O	I-Material
community	1302,1311	O	I-Material
was	1312,1315	O	O
a	1316,1317	O	B-Process
better	1318,1324	O	I-Process
organized	1325,1334	O	I-Process
or	1335,1337	O	I-Process
a	1338,1339	O	I-Process
better	1340,1346	O	I-Process
operated	1347,1355	O	I-Process
community	1356,1365	O	B-Material
than	1366,1370	O	O
the	1371,1374	O	B-Material
diseased	1375,1383	O	I-Material
one	1384,1387	O	I-Material
;	1387,1388	O	O
a	1389,1390	O	B-Material
healthy	1391,1398	O	I-Material
soil	1399,1403	O	I-Material
was	1404,1407	O	O
a	1408,1409	O	B-Material
soil	1410,1414	O	I-Material
with	1415,1419	O	O
variables	1420,1429	O	B-Material
that	1430,1434	O	O
encouraged	1435,1445	O	B-Process
majority	1446,1454	O	B-Material
of	1455,1457	O	I-Material
fungi	1458,1463	O	I-Material
whereas	1464,1471	O	O
a	1472,1473	O	B-Material
diseased	1474,1482	O	I-Material
soil	1483,1487	O	I-Material
discouraged	1488,1499	O	B-Process
.	1499,1500	O	O

By	1501,1503	O	O
comparing	1504,1513	O	O
the	1514,1517	O	B-Process
topological	1518,1529	O	I-Process
roles	1530,1535	O	I-Process
of	1536,1538	O	O
different	1539,1548	O	B-Material
sets	1549,1553	O	I-Material
of	1554,1556	O	I-Material
shared	1557,1563	O	I-Material
OTUs	1564,1568	O	I-Material
between	1569,1576	O	O
healthy	1577,1584	O	B-Material
and	1585,1588	O	I-Material
diseased	1589,1597	O	I-Material
networks	1598,1606	O	I-Material
,	1606,1607	O	O
it	1608,1610	O	O
was	1611,1614	O	O
found	1615,1620	O	O
that	1621,1625	O	O
role	1626,1630	O	B-Process
-	1630,1631	O	I-Process
shifts	1631,1637	O	I-Process
prevailed	1638,1647	O	O
among	1648,1653	O	O
the	1654,1657	O	B-Material
network	1658,1665	O	I-Material
members	1666,1673	O	I-Material
such	1674,1678	O	O
as	1679,1681	O	O
generalists	1682,1693	O	B-Material
/	1693,1694	O	I-Material
specialists	1694,1705	O	I-Material
,	1705,1706	O	O
significant	1707,1718	O	B-Material
module	1719,1725	O	I-Material
memberships	1726,1737	O	I-Material
and	1738,1741	O	O
the	1742,1745	O	B-Material
OTU	1746,1749	O	I-Material
sets	1750,1754	O	I-Material
irresponsive	1755,1767	O	B-Process
to	1768,1770	O	O
soil	1771,1775	O	B-Material
variables	1776,1785	O	I-Material
in	1786,1788	O	O
one	1789,1792	O	B-Material
network	1793,1800	O	I-Material
but	1801,1804	O	O
responsive	1805,1815	O	B-Process
in	1816,1818	O	O
the	1819,1822	O	B-Material
counterpart	1823,1834	O	I-Material
network	1835,1842	O	I-Material
.	1842,1843	O	O

Soil	1844,1848	O	B-Material
organic	1849,1856	O	I-Material
matter	1857,1863	O	I-Material
was	1864,1867	O	O
the	1868,1871	O	B-Data
key	1872,1875	O	I-Data
variable	1876,1884	O	I-Data
associated	1885,1895	O	O
with	1896,1900	O	O
healthy	1901,1908	O	B-Material
community	1909,1918	O	I-Material
,	1918,1919	O	O
whereas	1920,1927	O	O
ammonium	1928,1936	O	B-Material
nitrogen	1937,1945	O	I-Material
(	1946,1947	O	I-Material
NH4	1947,1950	O	I-Material
+	1950,1951	O	I-Material
-N	1951,1953	O	I-Material
)	1953,1954	O	I-Material
and	1955,1958	O	O
Electrical	1959,1969	O	B-Process
conductivity	1970,1982	O	I-Process
(	1983,1984	O	I-Process
EC	1984,1986	O	I-Process
)	1986,1987	O	I-Process
were	1988,1992	O	O
the	1993,1996	O	B-Data
key	1997,2000	O	I-Data
variables	2001,2010	O	I-Data
associated	2011,2021	O	O
with	2022,2026	O	O
diseased	2027,2035	O	B-Material
community	2036,2045	O	I-Material
.	2045,2046	O	O

Major	2047,2052	O	B-Material
affected	2053,2061	O	I-Material
phylogenetic	2062,2074	O	I-Material
groups	2075,2081	O	I-Material
were	2082,2086	O	O
Sordariales	2087,2098	O	B-Material
and	2099,2102	O	O
Hypocreales	2103,2114	O	B-Material
.	2114,2115	O	O

Highlights	2116,2126	O	O
•	2127,2128	O	O

We	2129,2131	O	O
constructed	2132,2143	O	B-Process
and	2144,2147	O	I-Process
compared	2148,2156	O	I-Process
two	2157,2160	O	B-Material
fungal	2161,2167	O	I-Material
networks	2168,2176	O	I-Material
from	2177,2181	O	O
healthy	2182,2189	O	B-Material
and	2190,2193	O	I-Material
diseased	2194,2202	O	I-Material
soils	2203,2208	O	I-Material
.	2208,2209	O	O

•	2210,2211	O	O

We	2212,2214	O	O
conceptually	2215,2227	O	B-Process
depictured	2228,2238	O	I-Process
what	2239,2243	O	O
a	2244,2245	O	B-Material
healthy	2246,2253	O	I-Material
or	2254,2256	O	I-Material
a	2257,2258	O	I-Material
diseased	2259,2267	O	I-Material
community	2268,2277	O	I-Material
/	2277,2278	O	I-Material
soil	2278,2282	O	I-Material
was	2283,2286	O	O
.	2286,2287	O	O

•	2288,2289	O	O

Nodes	2290,2295	O	B-Process
'	2295,2296	O	I-Process
role	2297,2301	O	I-Process
-	2301,2302	O	I-Process
shift	2302,2307	O	I-Process
prevailed	2308,2317	O	O
when	2318,2322	O	O
a	2323,2324	O	B-Material
healthy	2325,2332	O	I-Material
network	2333,2340	O	I-Material
changed	2341,2348	O	O
to	2349,2351	O	O
diseased	2352,2360	O	B-Material
one	2361,2364	O	I-Material
.	2364,2365	O	O

•	2366,2367	O	O

Soil	2368,2372	O	B-Material
organic	2373,2380	O	I-Material
matter	2381,2387	O	I-Material
,	2387,2388	O	O

NH4	2389,2392	O	B-Material

+	2392,2393	O	I-Material

-N	2393,2395	O	I-Material
and	2396,2399	O	O
EC	2400,2402	O	B-Process
were	2403,2407	O	O
the	2408,2411	O	B-Material
key	2412,2415	O	I-Material
responsible	2416,2427	O	I-Material
variables	2428,2437	O	I-Material
.	2437,2438	O	O

•	2439,2440	O	O

Major	2441,2446	O	B-Material
affected	2447,2455	O	I-Material
phylogenetic	2456,2468	O	I-Material
groups	2469,2475	O	I-Material
were	2476,2480	O	O
Sordariales	2481,2492	O	B-Material
and	2493,2496	O	I-Material
Hypocreales	2497,2508	O	I-Material
.	2508,2509	O	O

-DOCSTART- (S0167880913001229)

Current	0,7	O	O
carbon	8,14	O	B-Process
accounting	15,25	O	I-Process
methodologies	26,39	O	I-Process
often	40,45	O	O
assume	46,52	O	O
interactions	53,65	O	B-Process
between	66,73	O	O
above	74,79	O	B-Material
-	79,80	O	I-Material
ground	80,86	O	I-Material
and	87,90	O	I-Material
below	91,96	O	I-Material
-	96,97	O	I-Material
ground	97,103	O	I-Material
carbon	104,110	O	I-Material
,	110,111	O	O
without	112,119	O	O
considering	120,131	O	O
effects	132,139	O	B-Process
of	140,142	O	O
land	143,147	O	B-Process
management	148,158	O	I-Process
.	158,159	O	O

We	160,162	O	O
used	163,167	O	O
data	168,172	O	O
from	173,177	O	O
two	178,181	O	B-Method
long	182,186	O	I-Method
-	186,187	O	I-Method
term	187,191	O	I-Method
coffee	192,198	O	I-Method
agroforestry	199,211	O	I-Method
experiments	212,223	O	I-Method
in	224,226	O	O
Costa	227,232	O	O
Rica	233,237	O	O
and	238,241	O	O
Nicaragua	242,251	O	O
to	252,254	O	O
assess	255,261	O	B-Process
the	262,265	O	B-Process
effect	266,272	O	I-Process
on	273,275	O	O
total	276,281	O	B-Material
soil	282,286	O	I-Material
organic	287,294	O	I-Material
carbon	295,301	O	I-Material
(	302,303	O	I-Material
SOC	303,306	O	I-Material
)	306,307	O	I-Material
stocks	308,314	O	I-Material
of	315,317	O	O
(	318,319	O	O
i	319,320	O	O
)	320,321	O	O
organic	322,329	O	B-Process
versus	330,336	O	I-Process
conventional	337,349	O	I-Process
management	350,360	O	I-Process
,	360,361	O	O
(	362,363	O	O
ii	363,365	O	O
)	365,366	O	O
higher	367,373	O	B-Material
versus	374,380	O	I-Material
moderate	381,389	O	I-Material
agronomic	390,399	O	I-Material
inputs	400,406	O	I-Material
,	406,407	O	O
(	408,409	O	O
iii	409,412	O	O
)	412,413	O	O
tree	414,418	O	B-Material
shade	419,424	O	I-Material
types	425,430	O	I-Material
.	430,431	O	O

During	432,438	O	O
the	439,442	O	O
first	443,448	O	O
nine	449,453	O	O
years	454,459	O	O
of	460,462	O	O
coffee	463,469	O	B-Process
establishment	470,483	O	I-Process
total	484,489	O	B-Data
0	490,491	O	I-Data
-	491,492	O	I-Data
40	492,494	O	I-Data
cm	494,496	O	I-Data
depth	497,502	O	I-Data
SOC	503,506	O	B-Material
stocks	507,513	O	I-Material
decreased	514,523	O	B-Process
by	524,526	O	O
12.4	527,531	O	B-Data
%	531,532	O	I-Data
in	533,535	O	O
Costa	536,541	O	O
Rica	542,546	O	O
and	547,550	O	O
0.13	551,555	O	B-Data
%	555,556	O	I-Data
in	557,559	O	O
Nicaragua	560,569	O	O
.	569,570	O	O

Change	571,577	O	B-Process
in	578,580	O	I-Process
SOC	581,584	O	I-Process
differed	585,593	O	O
consistently	594,606	O	O
amongst	607,614	O	O
soil	615,619	O	B-Material
layers	620,626	O	I-Material
:	626,627	O	O
at	628,630	O	B-Data
0	631,632	O	I-Data
-	632,633	O	I-Data
10	633,635	O	I-Data
cm	635,637	O	I-Data
SOC	638,641	O	B-Material
stocks	642,648	O	I-Material
increased	649,658	O	B-Process
by	659,661	O	O
2.14	662,666	O	B-Data
and	667,670	O	I-Data
1.26MgCha-1	671,682	O	I-Data
in	683,685	O	O
Costa	686,691	O	O
Rica	692,696	O	O
and	697,700	O	O
Nicaragua	701,710	O	O
respectively	711,723	O	O
;	723,724	O	O
however	725,732	O	O
much	733,737	O	B-Process
greater	738,745	O	I-Process
reduction	746,755	O	I-Process
occurred	756,764	O	O
at	765,767	O	O
20	768,770	O	B-Data
-	770,771	O	I-Data
40	771,773	O	I-Data
cm	773,775	O	I-Data
(	776,777	O	O
9.65	777,781	O	B-Data
and	782,785	O	I-Data
2.85MgCha-1	786,797	O	I-Data
respectively	798,810	O	O
)	810,811	O	O
.	811,812	O	O

Organic	813,820	O	B-Process
management	821,831	O	I-Process
caused	832,838	O	O
a	839,840	O	B-Process
greater	841,848	O	I-Process
increase	849,857	O	I-Process
in	858,860	O	O
0	861,862	O	B-Data
-	862,863	O	I-Data
10	863,865	O	I-Data
cm	865,867	O	I-Data
SOC	868,871	O	B-Material
but	872,875	O	O
did	876,879	O	O
not	880,883	O	O
influence	884,893	O	O
its	894,897	O	B-Process
reduction	898,907	O	I-Process
at	908,910	O	O
depth	911,916	O	B-Data
.	916,917	O	O

Effects	918,925	O	B-Process
of	926,928	O	O
shade	929,934	O	B-Data
type	935,939	O	I-Data
were	940,944	O	O
smaller	945,952	O	B-Data
,	952,953	O	O
though	954,960	O	O
heavily	961,968	O	B-Material
pruned	969,975	O	I-Material
legume	976,982	O	I-Material
shade	983,988	O	I-Material
trees	989,994	O	I-Material
produced	995,1003	O	O
a	1004,1005	O	B-Process
greater	1006,1013	O	I-Process
increase	1014,1022	O	I-Process
in	1023,1025	O	O
0	1026,1027	O	B-Data
-	1027,1028	O	I-Data
10	1028,1030	O	I-Data
cm	1030,1032	O	I-Data
SOC	1033,1036	O	B-Material
than	1037,1041	O	O
unpruned	1042,1050	O	B-Material
timber	1051,1057	O	I-Material
trees	1058,1063	O	I-Material
.	1063,1064	O	O

No	1065,1067	O	O
significant	1068,1079	O	O
differences	1080,1091	O	O
in	1092,1094	O	O
SOC	1095,1098	O	B-Material
stocks	1099,1105	O	I-Material
were	1106,1110	O	O
found	1111,1116	O	O
between	1117,1124	O	O
shaded	1125,1131	O	B-Material
and	1132,1135	O	I-Material
unshaded	1136,1144	O	I-Material
systems	1145,1152	O	I-Material
at	1153,1155	O	O
any	1156,1159	O	B-Data
depth	1160,1165	O	I-Data
and	1166,1169	O	O
SOC	1170,1173	O	B-Material
was	1174,1177	O	O
poorly	1178,1184	O	B-Data
correlated	1185,1195	O	I-Data
with	1196,1200	O	O
above	1201,1206	O	B-Material
-	1206,1207	O	I-Material
ground	1207,1213	O	I-Material
biomass	1214,1221	O	I-Material
stocks	1222,1228	O	I-Material
highlighting	1229,1241	O	O
poor	1242,1246	O	B-Data
validity	1247,1255	O	I-Data
of	1256,1258	O	O
"	1259,1260	O	O
expansion	1260,1269	O	B-Data
factors	1270,1277	O	I-Data
"	1277,1278	O	O
currently	1279,1288	O	O
used	1289,1293	O	O
to	1294,1296	O	O
estimate	1297,1305	O	B-Process
SOC	1306,1309	O	B-Material
.	1309,1310	O	O

SOC	1311,1314	O	B-Process
stock	1315,1320	O	I-Process
changes	1321,1328	O	I-Process
were	1329,1333	O	O
significantly	1334,1347	O	O
negatively	1348,1358	O	B-Data
correlated	1359,1369	O	I-Data
with	1370,1374	O	O
initial	1375,1382	O	B-Material
SOC	1383,1386	O	I-Material
stock	1387,1392	O	I-Material
per	1393,1396	O	I-Material
plot	1397,1401	O	I-Material
,	1401,1402	O	O
providing	1403,1412	O	O
evidence	1413,1421	O	O
that	1422,1426	O	O
during	1427,1433	O	O
establishment	1434,1447	O	B-Process
of	1448,1450	O	O
these	1451,1456	O	B-Material
woody	1457,1462	O	I-Material
-	1462,1463	O	I-Material
plant	1463,1468	O	I-Material
-	1468,1469	O	I-Material
dominated	1469,1478	O	I-Material
agricultural	1479,1491	O	I-Material
systems	1492,1499	O	I-Material
SOC	1500,1503	O	B-Material
stocks	1504,1510	O	I-Material
tend	1511,1515	O	O
to	1516,1518	O	O
converge	1519,1527	O	O
towards	1528,1535	O	O
a	1536,1537	O	B-Process
new	1538,1541	O	I-Process
equilibrium	1542,1553	O	I-Process
as	1554,1556	O	O
a	1557,1558	O	O
function	1559,1567	O	O
of	1568,1570	O	O
the	1571,1574	O	B-Process
change	1575,1581	O	I-Process
in	1582,1584	O	I-Process
the	1585,1588	O	I-Process
quantity	1589,1597	O	I-Process
and	1598,1601	O	I-Process
distribution	1602,1614	O	I-Process
of	1615,1617	O	I-Process
organic	1618,1625	O	I-Process
inputs	1626,1632	O	I-Process
.	1632,1633	O	O

Therefore	1634,1643	O	O
it	1644,1646	O	O
can	1647,1650	O	O
not	1650,1653	O	O
be	1654,1656	O	O
assumed	1657,1664	O	O
that	1665,1669	O	O
tree	1670,1674	O	B-Process
-	1674,1675	O	I-Process
based	1675,1680	O	I-Process
agricultural	1681,1693	O	I-Process
systems	1694,1701	O	I-Process
necessarily	1702,1713	O	O
lead	1714,1718	O	O
to	1719,1721	O	O
increases	1722,1731	O	B-Process
in	1732,1734	O	O
soil	1735,1739	O	B-Material
C	1740,1741	O	I-Material
stocks	1742,1748	O	I-Material
.	1748,1749	O	O

While	1750,1755	O	O
high	1756,1760	O	B-Data
inputs	1761,1767	O	I-Data
of	1768,1770	O	O
organic	1771,1778	O	B-Material
fertiliser	1779,1789	O	I-Material
/	1789,1790	O	I-Material
tree	1790,1794	O	I-Material
pruning	1795,1802	O	I-Material
mulch	1803,1808	O	I-Material
increased	1809,1818	O	B-Process
surface	1819,1826	O	B-Material
-	1826,1827	O	I-Material
layer	1827,1832	O	I-Material
SOC	1833,1836	O	I-Material
stocks	1837,1843	O	I-Material
,	1843,1844	O	O
this	1845,1849	O	O
did	1850,1853	O	O
not	1854,1857	O	O
affect	1858,1864	O	O
stocks	1865,1871	O	B-Material
in	1872,1874	O	I-Material
deeper	1875,1881	O	I-Material
soil	1882,1886	O	I-Material
,	1886,1887	O	O
where	1888,1893	O	O
decreases	1894,1903	O	O
generally	1904,1913	O	O
exceeded	1914,1922	O	O
any	1923,1926	O	O
gains	1927,1932	O	O
in	1933,1935	O	O
surface	1936,1943	O	B-Material
soil	1944,1948	O	I-Material
.	1948,1949	O	O

Therefore	1950,1959	O	O
site-	1960,1965	O	B-Method
and	1966,1969	O	I-Method
system	1970,1976	O	I-Method
-	1976,1977	O	I-Method
specific	1977,1985	O	I-Method
sampling	1986,1994	O	I-Method
is	1995,1997	O	O
essential	1998,2007	O	O
to	2008,2010	O	O
draw	2011,2015	O	O
meaningful	2016,2026	O	O
conclusions	2027,2038	O	O
for	2039,2042	O	O
climate	2043,2050	O	B-Process
change	2051,2057	O	I-Process
mitigation	2058,2068	O	I-Process
strategies	2069,2079	O	I-Process
.	2079,2080	O	O

-DOCSTART- (S0168945213001805)

Biomass	0,7	O	B-Material
is	8,10	O	O
a	11,12	O	O
prime	13,18	O	O
target	19,25	O	O
for	26,29	O	O
genetic	30,37	O	B-Process
engineering	38,49	O	I-Process
in	50,52	O	I-Process
forestry	53,61	O	I-Process
because	62,69	O	O
increased	70,79	O	B-Process
biomass	80,87	O	B-Material
yield	88,93	O	I-Material
will	94,98	O	O
benefit	99,106	O	O
most	107,111	O	B-Process
downstream	112,122	O	I-Process
applications	123,135	O	I-Process
such	136,140	O	O
as	141,143	O	O
timber	144,150	O	B-Material
,	150,151	O	I-Material
fiber	152,157	O	I-Material
,	157,158	O	I-Material
pulp	159,163	O	I-Material
,	163,164	O	I-Material
paper	165,170	O	I-Material
,	170,171	O	I-Material
and	172,175	O	I-Material
bioenergy	176,185	O	I-Material
production	186,196	O	B-Process
.	196,197	O	O

Transgenesis	198,210	O	B-Process
can	211,214	O	O
increase	215,223	O	B-Process
biomass	224,231	O	B-Material
by	232,234	O	O
improving	235,244	O	O
resource	245,253	O	B-Process
acquisition	254,265	O	I-Process
and	266,269	O	I-Process
product	270,277	O	I-Process
utilization	278,289	O	I-Process
and	290,293	O	O
by	294,296	O	O
enhancing	297,306	O	O
competitive	307,318	O	B-Process
ability	319,326	O	I-Process
for	327,330	O	O
solar	331,336	O	B-Material
energy	337,343	O	I-Material
,	343,344	O	I-Material
water	345,350	O	I-Material
,	350,351	O	I-Material
and	352,355	O	I-Material
mineral	356,363	O	I-Material
nutrients	364,373	O	I-Material
.	373,374	O	O

Transgenes	375,385	O	B-Material
that	386,390	O	O
affect	391,397	O	O
juvenility	398,408	O	B-Process
,	408,409	O	O
winter	410,416	O	B-Process
dormancy	417,425	O	I-Process
,	425,426	O	O
and	427,430	O	O
flowering	431,440	O	B-Process
have	441,445	O	O
been	446,450	O	O
shown	451,456	O	O
to	457,459	O	O
influence	460,469	O	O
biomass	470,477	O	B-Material
as	478,480	O	O
well	481,485	O	O
.	485,486	O	O

Transgenic	487,497	O	B-Process
approaches	498,508	O	I-Process
have	509,513	O	O
increased	514,523	O	B-Process
yield	524,529	O	B-Process
potential	530,539	O	I-Process
by	540,542	O	O
mitigating	543,553	O	B-Process
the	554,557	O	B-Process
adverse	558,565	O	I-Process
effects	566,573	O	I-Process
of	574,576	O	O
prevailing	577,587	O	O
stress	588,594	O	B-Data
factors	595,602	O	I-Data
in	603,605	O	O
the	606,609	O	B-Material
environment	610,621	O	I-Material
.	621,622	O	O

Simultaneous	623,635	O	O
introduction	636,648	O	B-Process
of	649,651	O	O
multiple	652,660	O	B-Material
genes	661,666	O	I-Material
for	667,670	O	O
resistance	671,681	O	B-Process
to	682,684	O	O
various	685,692	O	B-Data
stress	693,699	O	I-Data
factors	700,707	O	I-Data
into	708,712	O	O
trees	713,718	O	B-Material
may	719,722	O	O
help	723,727	O	O
forest	728,734	O	B-Material
trees	735,740	O	I-Material
cope	741,745	O	B-Process
with	746,750	O	O
multiple	751,759	O	B-Material
or	760,762	O	I-Material
changing	763,771	O	I-Material
environments	772,784	O	I-Material
.	784,785	O	O

We	786,788	O	O
propose	789,796	O	O
multi	797,802	O	B-Method
-	802,803	O	I-Method
trait	803,808	O	I-Method
engineering	809,820	O	I-Method
for	821,824	O	O
tree	825,829	O	B-Material
crops	830,835	O	I-Material
,	835,836	O	O
simultaneously	837,851	O	O
deploying	852,861	O	B-Process
multiple	862,870	O	B-Material
independent	871,882	O	I-Material
genes	883,888	O	I-Material
to	889,891	O	O
address	892,899	O	O
a	900,901	O	B-Data
set	902,905	O	I-Data
of	906,908	O	I-Data
genetically	909,920	O	I-Data
uncorrelated	921,933	O	I-Data
traits	934,940	O	I-Data
that	941,945	O	O
are	946,949	O	O
important	950,959	O	O
for	960,963	O	O
crop	964,968	O	B-Process
improvement	969,980	O	I-Process
.	980,981	O	O

This	982,986	O	B-Method
strategy	987,995	O	I-Method
increases	996,1005	O	O
the	1006,1009	O	B-Data
probability	1010,1021	O	I-Data
of	1022,1024	O	O
unpredictable	1025,1038	O	B-Process
(	1039,1040	O	I-Process
synergistic	1040,1051	O	I-Process
or	1052,1054	O	I-Process
detrimental	1055,1066	O	I-Process
)	1066,1067	O	I-Process
interactions	1068,1080	O	I-Process
that	1081,1085	O	O
may	1086,1089	O	O
substantially	1090,1103	O	O
affect	1104,1110	O	O
the	1111,1114	O	B-Data
overall	1115,1122	O	I-Data
phenotype	1123,1132	O	I-Data
and	1133,1136	O	O
its	1137,1140	O	B-Data
long	1141,1145	O	I-Data
-	1145,1146	O	I-Data
term	1146,1150	O	I-Data
performance	1151,1162	O	I-Data
.	1162,1163	O	O

The	1164,1167	O	O
very	1168,1172	O	O
limited	1173,1180	O	O
ability	1181,1188	O	O
to	1189,1191	O	O
predict	1192,1199	O	B-Process
the	1200,1203	O	B-Process
physiological	1204,1217	O	I-Process
processes	1218,1227	O	I-Process
that	1228,1232	O	O
may	1233,1236	O	O
be	1237,1239	O	O
impacted	1240,1248	O	O
by	1249,1251	O	O
such	1252,1256	O	B-Method
a	1257,1258	O	I-Method
strategy	1259,1267	O	I-Method
requires	1268,1276	O	O
vigilance	1277,1286	O	B-Process
and	1287,1290	O	I-Process
care	1291,1295	O	I-Process
during	1296,1302	O	O
implementation	1303,1317	O	O
.	1317,1318	O	O

Hence	1319,1324	O	O
,	1324,1325	O	O
we	1326,1328	O	O
recommend	1329,1338	O	O
close	1339,1344	O	B-Process
monitoring	1345,1355	O	I-Process
of	1356,1358	O	O
the	1359,1362	O	B-Material
resultant	1363,1372	O	I-Material
transgenic	1373,1383	O	I-Material
genotypes	1384,1393	O	I-Material
in	1394,1396	O	O
multi	1397,1402	O	B-Process
-	1402,1403	O	I-Process
year	1403,1407	O	I-Process
,	1407,1408	O	I-Process
multi	1409,1414	O	I-Process
-	1414,1415	O	I-Process
location	1415,1423	O	I-Process
field	1424,1429	O	I-Process
trials	1430,1436	O	I-Process
.	1436,1437	O	O

-DOCSTART- (S0254629913003086)

Cyclopia	0,8	O	B-Material
and	9,12	O	I-Material
Aspalathus	13,23	O	I-Material
species	24,31	O	I-Material
are	32,35	O	O
important	36,45	O	O
economic	46,54	O	B-Material
legumes	55,62	O	I-Material
in	63,65	O	O
the	66,69	O	O
Cape	70,74	O	O
fynbos	75,81	O	O
of	82,84	O	O
South	85,90	O	O
Africa	91,97	O	O
,	97,98	O	O
as	99,101	O	O
they	102,106	O	O
are	107,110	O	O
used	111,115	O	O
for	116,119	O	O
making	120,126	O	B-Process
Honeybush	127,136	O	B-Material
and	137,140	O	I-Material
Rooibos	141,148	O	I-Material
tea	149,152	O	I-Material
,	152,153	O	O
and	154,157	O	O
for	158,161	O	O
trade	162,167	O	B-Process
in	168,170	O	O
the	171,174	O	B-Process
cut	175,178	O	I-Process
wild	179,183	O	I-Process
flower	184,190	O	I-Process
industry	191,199	O	I-Process
.	199,200	O	O

The	201,204	O	O
aim	205,208	O	O
of	209,211	O	O
this	212,216	O	O
study	217,222	O	O
was	223,226	O	O
to	227,229	O	O
assess	230,236	O	B-Process
acid	237,241	O	B-Process
and	242,245	O	I-Process
alkaline	246,254	O	I-Process
phosphatase	255,266	O	I-Process
activity	267,275	O	I-Process
in	276,278	O	O
the	279,282	O	B-Material
rhizosphere	283,294	O	I-Material
of	295,297	O	I-Material
Cyclopia	298,306	O	I-Material
genistoides	307,318	O	I-Material
,	318,319	O	I-Material
Cyclopia	320,328	O	I-Material
subternata	329,339	O	I-Material
,	339,340	O	I-Material
Aspalathus	341,351	O	I-Material
caledonensis	352,364	O	I-Material
and	365,368	O	I-Material
Aspalathus	369,379	O	I-Material
aspalathoides	380,393	O	I-Material
as	394,396	O	O
an	397,399	O	B-Data
indicator	400,409	O	I-Data
of	410,412	O	O
P	413,414	O	B-Process
supply	415,421	O	I-Process
and	422,425	O	O
P	426,427	O	B-Process
nutrition	428,437	O	I-Process
in	438,440	O	O
the	441,444	O	B-Material
nutrient	445,453	O	I-Material
-	453,454	O	I-Material
poor	454,458	O	I-Material
soils	459,464	O	I-Material
of	465,467	O	O
the	468,471	O	O
Cape	472,476	O	O
fynbos	477,483	O	O
.	483,484	O	O

Whether	485,492	O	O
at	493,495	O	O
Kokrivier	496,505	O	O
or	506,508	O	O
Kanetberg	509,518	O	O
,	518,519	O	O
the	520,523	O	B-Process
P	524,525	O	I-Process
enzyme	526,532	O	I-Process
activities	533,543	O	I-Process
were	544,548	O	O
much	549,553	O	B-Data
higher	554,560	O	I-Data
in	561,563	O	O
the	564,567	O	B-Material
rhizospheres	568,580	O	I-Material
of	581,583	O	I-Material
the	584,587	O	I-Material
legumes	588,595	O	I-Material
C.	596,598	O	I-Material
genistoides	599,610	O	I-Material
,	610,611	O	I-Material
C.	612,614	O	I-Material
subternata	615,625	O	I-Material
,	625,626	O	I-Material
A.	627,629	O	I-Material
caledonensis	630,642	O	I-Material
,	642,643	O	I-Material
and	644,647	O	I-Material
A.	648,650	O	I-Material
aspalathoides	651,664	O	I-Material
compared	665,673	O	O
to	674,676	O	O
those	677,682	O	B-Material
of	683,685	O	I-Material
the	686,689	O	I-Material
non	690,693	O	I-Material
-	693,694	O	I-Material
legumes	694,701	O	I-Material
Leucadendron	702,714	O	I-Material
strictum	715,723	O	I-Material
,	723,724	O	I-Material
Elegia	725,731	O	I-Material
thyrsoidea	732,742	O	I-Material
and	743,746	O	I-Material
Mimetes	747,754	O	I-Material
cucullatus	755,765	O	I-Material
,	765,766	O	O
or	767,769	O	O
bulk	770,774	O	B-Material
soil	775,779	O	I-Material
.	779,780	O	O

As	781,783	O	O
a	784,785	O	O
result	786,792	O	O
,	792,793	O	O
plant	794,799	O	B-Data
-	799,800	O	I-Data
available	800,809	O	I-Data
P	810,811	O	I-Data
concentration	812,825	O	I-Data
in	826,828	O	O
the	829,832	O	B-Material
rhizosphere	833,844	O	I-Material
,	844,845	O	O
as	846,848	O	O
well	849,853	O	O
as	854,856	O	O
shoot	857,862	O	B-Data
P	863,864	O	I-Data
levels	865,871	O	I-Data
closely	872,879	O	O
mirrored	880,888	O	O
acid	889,893	O	B-Process
and	894,897	O	I-Process
alkaline	898,906	O	I-Process
phosphatase	907,918	O	I-Process
activity	919,927	O	I-Process
in	928,930	O	O
the	931,934	O	B-Material
rhizosphere	935,946	O	I-Material
of	947,949	O	I-Material
each	950,954	O	I-Material
plant	955,960	O	I-Material
species	961,968	O	I-Material
.	968,969	O	O

Relative	970,978	O	O
to	979,981	O	O
younger	982,989	O	B-Material
plants	990,996	O	I-Material
,	996,997	O	O
older	998,1003	O	B-Material
Cyclopia	1004,1012	O	I-Material
species	1013,1020	O	I-Material
exhibited	1021,1030	O	O
,	1030,1031	O	O
much	1032,1036	O	B-Data
greater	1037,1044	O	I-Data
acid	1045,1049	O	B-Process
and	1050,1053	O	I-Process
alkaline	1054,1062	O	I-Process
phosphatase	1063,1074	O	I-Process
activity	1075,1083	O	I-Process
in	1084,1086	O	O
the	1087,1090	O	B-Material
rhizosphere	1091,1102	O	I-Material
and	1103,1106	O	O
this	1107,1111	O	O
again	1112,1117	O	O
resulted	1118,1126	O	O
in	1127,1129	O	O
much	1130,1134	O	B-Data
higher	1135,1141	O	I-Data
plant	1142,1147	O	B-Material
-	1147,1148	O	I-Material
available	1148,1157	O	I-Material
rhizosphere	1158,1169	O	I-Material
P.	1170,1172	O	I-Material
C.	1173,1175	O	B-Material
subternata	1176,1186	O	I-Material
plants	1187,1193	O	I-Material
developed	1194,1203	O	B-Process
from	1204,1208	O	O
cuttings	1209,1217	O	B-Material
at	1218,1220	O	O
Kanetberg	1221,1230	O	O
showed	1231,1237	O	O
greater	1238,1245	O	B-Data
rhizosphere	1246,1257	O	B-Process
acid	1258,1262	O	I-Process
and	1263,1266	O	I-Process
alkaline	1267,1275	O	I-Process
phosphatase	1276,1287	O	I-Process
activity	1288,1296	O	I-Process
than	1297,1301	O	O
seedlings	1302,1311	O	B-Material
and	1312,1315	O	O
bulk	1316,1320	O	B-Material
soil	1321,1325	O	I-Material
.	1325,1326	O	O

As	1327,1329	O	O
a	1330,1331	O	O
result	1332,1338	O	O
,	1338,1339	O	O
the	1340,1343	O	B-Data
concentration	1344,1357	O	I-Data
of	1358,1360	O	O
plant	1361,1366	O	B-Material
available	1367,1376	O	I-Material
-	1376,1377	O	I-Material
P	1377,1378	O	I-Material
and	1379,1382	O	O
organic	1383,1390	O	B-Material
P	1391,1392	O	I-Material
were	1393,1397	O	O
much	1398,1402	O	B-Data
higher	1403,1409	O	I-Data
in	1410,1412	O	O
the	1413,1416	O	B-Material
rhizosphere	1417,1428	O	I-Material
of	1429,1431	O	I-Material
cuttings	1432,1440	O	I-Material
than	1441,1445	O	I-Material
seedlings	1446,1455	O	I-Material
,	1455,1456	O	O
leading	1457,1464	O	O
to	1465,1467	O	O
greater	1468,1475	O	B-Data
shoot	1476,1481	O	B-Material
P	1482,1483	O	I-Material
in	1484,1486	O	O
cuttings	1487,1495	O	B-Material
than	1496,1500	O	O
seedlings	1501,1510	O	B-Material
.	1510,1511	O	O

Taken	1512,1517	O	O
together	1518,1526	O	O
,	1526,1527	O	O
these	1528,1533	O	O
data	1534,1538	O	O
suggest	1539,1546	O	O
that	1547,1551	O	O
rhizosphere	1552,1563	O	B-Process
P	1564,1565	O	I-Process
enzyme	1566,1572	O	I-Process
activity	1573,1581	O	I-Process
can	1582,1585	O	O
be	1586,1588	O	O
used	1589,1593	O	O
as	1594,1596	O	O
a	1597,1598	O	B-Data
good	1599,1603	O	I-Data
indicator	1604,1613	O	I-Data
of	1614,1616	O	O
P	1617,1618	O	B-Process
supply	1619,1625	O	I-Process
and	1626,1629	O	O
P	1630,1631	O	B-Process
nutrition	1632,1641	O	I-Process
in	1642,1644	O	O
Cyclopia	1645,1653	O	B-Material
cuttings	1654,1662	O	I-Material
and	1663,1666	O	I-Material
seedlings	1667,1676	O	I-Material
,	1676,1677	O	O
but	1678,1681	O	O
less	1682,1686	O	O
so	1687,1689	O	O
in	1690,1692	O	O
Aspalathus	1693,1703	O	B-Material
species	1704,1711	O	I-Material
in	1712,1714	O	O
the	1715,1718	O	O
Cape	1719,1723	O	O
fynbos	1724,1730	O	O
.	1730,1731	O	O

The	1732,1735	O	B-Data
enhanced	1736,1744	O	I-Data
P	1745,1746	O	B-Process
nutrition	1747,1756	O	I-Process
in	1757,1759	O	O
plants	1760,1766	O	B-Material
from	1767,1771	O	O
cuttings	1772,1780	O	B-Material
probably	1781,1789	O	O
accounts	1790,1798	O	O
for	1799,1802	O	O
the	1803,1806	O	B-Data
higher	1807,1813	O	I-Data
tea	1814,1817	O	B-Material
yields	1818,1824	O	I-Material
obtained	1825,1833	O	O
by	1834,1836	O	O
farmers	1837,1844	O	O
when	1845,1849	O	O
they	1850,1854	O	O
use	1855,1858	O	O
cuttings	1859,1867	O	B-Material
instead	1868,1875	O	O
of	1876,1878	O	O
seedlings	1879,1888	O	B-Material
in	1889,1891	O	O
their	1892,1897	O	B-Material
plantations	1898,1909	O	I-Material
.	1909,1910	O	O

Highlights	1911,1921	O	O
•	1922,1923	O	O

We	1924,1926	O	O
measured	1927,1935	O	B-Process
acid	1936,1940	O	B-Process
and	1941,1944	O	I-Process
alkaline	1945,1953	O	I-Process
phosphatase	1954,1965	O	I-Process
activity	1966,1974	O	I-Process
in	1975,1977	O	O
rhizosphere	1978,1989	O	B-Material
soils	1990,1995	O	I-Material
relative	1996,2004	O	O
to	2005,2007	O	O
bulk	2008,2012	O	B-Material
soils	2013,2018	O	I-Material
of	2019,2021	O	O
fynbos	2022,2028	O	B-Material
legumes	2029,2036	O	I-Material
.	2036,2037	O	O

•	2038,2039	O	O

We	2040,2042	O	O
concurrently	2043,2055	O	O
measured	2056,2064	O	B-Process
P	2065,2066	O	B-Data
levels	2067,2073	O	I-Data
in	2074,2076	O	O
rhizosphere	2077,2088	O	B-Material
and	2089,2092	O	O
shoots	2093,2099	O	B-Material
.	2099,2100	O	O

•	2101,2102	O	O

We	2103,2105	O	O
found	2106,2111	O	O
significantly	2112,2125	O	O
higher	2126,2132	O	B-Data
acid	2133,2137	O	B-Process
/	2137,2138	O	I-Process
alkaline	2138,2146	O	I-Process
phosphatase	2147,2158	O	I-Process
activity	2159,2167	O	I-Process
in	2168,2170	O	O
rhizosphere	2171,2182	O	B-Material
soils	2183,2188	O	I-Material
relative	2189,2197	O	O
to	2198,2200	O	O
non	2201,2204	O	B-Material
-	2204,2205	O	I-Material
rhizosphere	2205,2216	O	I-Material
bulk	2217,2221	O	I-Material
soils	2222,2227	O	I-Material
.	2227,2228	O	O

•	2229,2230	O	O

Acid	2231,2235	O	B-Process
and	2236,2239	O	I-Process
alkaline	2240,2248	O	I-Process
activity	2249,2257	O	I-Process
increased	2258,2267	O	O
with	2268,2272	O	O
age	2273,2276	O	B-Data
of	2277,2279	O	O
Cyclopia	2280,2288	O	B-Material
plants	2289,2295	O	I-Material
.	2295,2296	O	O

•	2297,2298	O	O

Plants	2299,2305	O	B-Material
developed	2306,2315	O	B-Process
from	2316,2320	O	O
cuttings	2321,2329	O	B-Material
increased	2330,2339	O	O
acid	2340,2344	O	B-Process
/	2344,2345	O	I-Process
alkaline	2345,2353	O	I-Process
phosphatase	2354,2365	O	I-Process
activity	2366,2374	O	I-Process
over	2375,2379	O	O
seedlings	2380,2389	O	B-Material
.	2389,2390	O	O

-DOCSTART- (S0261219413001944)

Laboratory	0,10	O	B-Process
and	11,14	O	I-Process
field	15,20	O	I-Process
studies	21,28	O	I-Process
were	29,33	O	O
conducted	34,43	O	O
to	44,46	O	O
assess	47,53	O	O
the	54,57	O	B-Process
effects	58,65	O	I-Process
of	66,68	O	O
glyphosate	69,79	O	B-Material
on	80,82	O	O
Macrophomina	83,95	O	B-Material
phaseolina	96,106	O	I-Material
culture	107,114	O	I-Material
growth	115,121	O	I-Material
in	122,124	O	B-Method
vitro	125,130	O	I-Method
and	131,134	O	O
the	135,138	O	B-Process
disease	139,146	O	I-Process
severity	147,155	O	I-Process
of	156,158	O	O
charcoal	159,167	O	B-Material
rot	168,171	O	I-Material
in	172,174	O	I-Material
soybean	175,182	O	I-Material
fields	183,189	O	I-Material
at	190,192	O	O
Stoneville	193,203	O	O
,	203,204	O	O
MS	205,207	O	O
and	208,211	O	O
Jackson	212,219	O	O
,	219,220	O	O
TN	221,223	O	O
.	223,224	O	O

Glyphosate	225,235	O	B-Material
inhibited	236,245	O	B-Process
M.	246,248	O	B-Material
phaseolina	249,259	O	I-Material
growth	260,266	O	I-Material
in	267,269	O	O
a	270,271	O	B-Process
linear	272,278	O	I-Process
dose	279,283	O	I-Process
dependent	284,293	O	I-Process
manner	294,300	O	I-Process
when	301,305	O	O
technical	306,315	O	B-Material
grade	316,321	O	I-Material
glyphosate	322,332	O	I-Material
acid	333,337	O	I-Material
(	338,339	O	I-Material
GlyCry	339,345	O	I-Material
)	345,346	O	I-Material
was	347,350	O	O
used	351,355	O	O
;	355,356	O	O
however	357,364	O	O
,	364,365	O	O
growth	366,372	O	B-Process
was	373,376	O	O
inhibited	377,386	O	B-Process
in	387,389	O	O
an	390,392	O	B-Process
exponential	393,404	O	I-Process
dose	405,409	O	I-Process
dependent	410,419	O	I-Process
manner	420,426	O	I-Process
when	427,431	O	O
a	432,433	O	B-Material
commercial	434,444	O	I-Material
formulation	445,456	O	I-Material
of	457,459	O	I-Material
glyphosate	460,470	O	I-Material
-	470,471	O	I-Material
potassium	471,480	O	I-Material
salt	481,485	O	I-Material
(	486,487	O	I-Material
Gly	487,490	O	I-Material
-	490,491	O	I-Material
K	491,492	O	I-Material
salt	493,497	O	I-Material
)	497,498	O	I-Material
was	499,502	O	O
used	503,507	O	O
.	507,508	O	O

The	509,512	O	B-Material
glyphosate	513,523	O	I-Material
GR50	524,528	O	I-Material
values	529,535	O	B-Data
(	536,537	O	O
glyphosate	537,547	O	B-Data
concentration	548,561	O	I-Data
required	562,570	O	O
to	571,573	O	O
cause	574,579	O	O
a	580,581	O	O
50	582,584	O	B-Data
%	584,585	O	I-Data
reduction	586,595	O	B-Process
)	595,596	O	O
in	597,599	O	O
culture	600,607	O	B-Material
radial	608,614	O	I-Material
growth	615,621	O	I-Material
ranged	622,628	O	O
from	629,633	O	B-Data
0.25	634,638	O	I-Data
to	639,641	O	I-Data
9.94	642,646	O	I-Data
mM	647,649	O	I-Data
among	650,655	O	O
the	656,659	O	B-Material
M.	660,662	O	I-Material
Phaseolina	663,673	O	I-Material
isolates	674,682	O	I-Material
,	682,683	O	I-Material
temperatures	684,696	O	I-Material
,	696,697	O	I-Material
and	698,701	O	I-Material
formulations	702,714	O	I-Material
.	714,715	O	O

The	716,719	O	B-Material
three	720,725	O	I-Material
isolates	726,734	O	I-Material
differed	735,743	O	O
in	744,746	O	O
response	747,755	O	O
to	756,758	O	O
various	759,766	O	B-Data
concentrations	767,781	O	I-Data
across	782,788	O	O
the	789,792	O	B-Data
three	793,798	O	I-Data
temperature	799,810	O	I-Data
regimes	811,818	O	I-Data
.	818,819	O	O

Among	820,825	O	O
the	826,829	O	B-Material
three	830,835	O	I-Material
isolates	836,844	O	I-Material
,	844,845	O	O
TN	846,848	O	B-Material
410	849,852	O	I-Material
was	853,856	O	O
the	857,860	O	O
most	861,865	O	O
sensitive	866,875	O	O
for	876,879	O	O
both	880,884	O	B-Material
GlyCry	885,891	O	I-Material
(	892,893	O	I-Material
GR50	893,897	O	I-Material
=	898,899	O	I-Material
7.74	900,904	O	I-Material
mM	905,907	O	I-Material
)	907,908	O	I-Material
and	909,912	O	I-Material
Gly	913,916	O	I-Material
-	916,917	O	I-Material
K	917,918	O	I-Material
salt	919,923	O	I-Material
(	924,925	O	I-Material
GR50	925,929	O	I-Material
=	930,931	O	I-Material
0.25	932,936	O	I-Material
mM	937,939	O	I-Material
)	939,940	O	I-Material
at	941,943	O	O
30	944,946	O	B-Data
°	947,948	O	I-Data
C	948,949	O	I-Data
.	949,950	O	O

This	951,955	O	O
research	956,964	O	O
indicates	965,974	O	O
that	975,979	O	O
glyphosate	980,990	O	B-Material
has	991,994	O	O
the	995,998	O	O
ability	999,1006	O	O
to	1007,1009	O	O
inhibit	1010,1017	O	B-Process
growth	1018,1024	O	B-Process
of	1025,1027	O	O
M.	1028,1030	O	B-Material
phaseolina	1031,1041	O	I-Material
in	1042,1044	O	I-Material
culture	1045,1052	O	I-Material
in	1053,1055	O	B-Method
vitro	1056,1061	O	I-Method
.	1061,1062	O	O

The	1063,1066	O	O
preliminary	1067,1078	O	O
field	1079,1084	O	O
studies	1085,1092	O	O
demonstrated	1093,1105	O	O
that	1106,1110	O	O
application	1111,1122	O	O
of	1123,1125	O	O
glyphosate	1126,1136	O	B-Material
to	1137,1139	O	O
glyphosate	1140,1150	O	B-Material
-	1150,1151	O	I-Material
resistant	1151,1160	O	I-Material
soybeans	1161,1169	O	I-Material
did	1170,1173	O	O
not	1174,1177	O	O
enhance	1178,1185	O	B-Process
or	1186,1188	O	I-Process
reduce	1189,1195	O	I-Process
the	1196,1199	O	B-Process
severity	1200,1208	O	I-Process
of	1209,1211	O	O
charcoal	1212,1220	O	B-Material
rot	1221,1224	O	I-Material
in	1225,1227	O	I-Material
a	1228,1229	O	I-Material
no	1230,1232	O	I-Material
-	1232,1233	O	I-Material
till	1233,1237	O	I-Material
field	1238,1243	O	I-Material
in	1244,1246	O	O
TN	1247,1249	O	O
but	1250,1253	O	O
had	1254,1257	O	O
some	1258,1262	O	B-Process
suppressing	1263,1274	O	I-Process
effect	1275,1281	O	I-Process
in	1282,1284	O	O
a	1285,1286	O	B-Material
tilled	1287,1293	O	I-Material
environment	1294,1305	O	I-Material
in	1306,1308	O	O
MS	1309,1311	O	O
when	1312,1316	O	O
single	1317,1323	O	B-Material
applications	1324,1336	O	I-Material
were	1337,1341	O	O
made	1342,1346	O	O
at	1347,1349	O	O
growth	1350,1356	O	B-Data
stage	1357,1362	O	I-Data
V3	1363,1365	O	I-Data
and	1366,1369	O	I-Data
V6	1370,1372	O	I-Data
.	1372,1373	O	O

Highlights	1374,1384	O	O
•	1385,1386	O	O

Glyphosate	1387,1397	O	B-Material
effect	1398,1404	O	B-Process
on	1405,1407	O	O
growth	1408,1414	O	B-Process
of	1415,1417	O	O
Macrophomina	1418,1430	O	B-Material
phaseolina	1431,1441	O	I-Material
in	1442,1444	O	I-Material
culture	1445,1452	O	I-Material
and	1453,1456	O	O
severity	1457,1465	O	B-Process
was	1466,1469	O	O
assessed	1470,1478	O	B-Process
.	1478,1479	O	O

•	1480,1481	O	O

Glyphosate	1482,1492	O	B-Material
inhibited	1493,1502	O	B-Process
M.	1503,1505	O	B-Material
phaseolina	1506,1516	O	I-Material
in	1517,1519	O	B-Method
vitro	1520,1525	O	I-Method
.	1525,1526	O	O

•	1527,1528	O	O

Sensitivity	1529,1540	O	O
to	1541,1543	O	O
glyphosate	1544,1554	O	B-Data
concentrations	1555,1569	O	I-Data
differed	1570,1578	O	O
between	1579,1586	O	O
isolates	1587,1595	O	B-Material
.	1595,1596	O	O

•	1597,1598	O	O

Disease	1599,1606	O	B-Process
severity	1607,1615	O	I-Process
was	1616,1619	O	O
not	1620,1623	O	O
affected	1624,1632	O	O
by	1633,1635	O	O
Glyphosate	1636,1646	O	B-Process
application	1647,1658	O	I-Process
of	1659,1661	O	O
no	1662,1664	O	B-Material
-	1664,1665	O	I-Material
till	1665,1669	O	I-Material
field	1670,1675	O	I-Material
.	1675,1676	O	O

•	1677,1678	O	O
Glyphosate	1679,1689	O	B-Material
had	1690,1693	O	O
suppressing	1694,1705	O	B-Process
effect	1706,1712	O	I-Process
in	1713,1715	O	O
tilled	1716,1722	O	B-Material
field	1723,1728	O	I-Material
under	1729,1734	O	O
hot	1735,1738	O	B-Data
and	1739,1742	O	I-Data
dry	1743,1746	O	I-Data
conditions	1747,1757	O	I-Data
.	1757,1758	O	O

-DOCSTART- (S0378112713005288)

In	0,2	O	O
upland	3,9	O	O
areas	10,15	O	O
of	16,18	O	O
Great	19,24	O	O
Britain	25,32	O	O
,	32,33	O	O
large	34,39	O	B-Material
tracts	40,46	O	I-Material
of	47,49	O	I-Material
non	50,53	O	I-Material
-	53,54	O	I-Material
native	54,60	O	I-Material
conifer	61,68	O	I-Material
plantations	69,80	O	I-Material
have	81,85	O	O
been	86,90	O	O
established	91,102	O	B-Process
on	103,105	O	O
poor	106,110	O	B-Data
quality	111,118	O	I-Data
agricultural	119,131	O	B-Material
land	132,136	O	I-Material
.	136,137	O	O

There	138,143	O	O
is	144,146	O	O
now	147,150	O	O
considerable	151,163	O	O
interest	164,172	O	O
in	173,175	O	O
the	176,179	O	B-Process
conversion	180,190	O	I-Process
of	191,193	O	O
some	194,198	O	O
of	199,201	O	O
these	202,207	O	B-Material
plantations	208,219	O	I-Material
to	220,222	O	O
a	223,224	O	B-Material
more	225,229	O	I-Material
natural	230,237	O	I-Material
woodland	238,246	O	I-Material
comprised	247,256	O	O
of	257,259	O	O
native	260,266	O	B-Material
tree	267,271	O	I-Material
species	272,279	O	I-Material
.	279,280	O	O

We	281,283	O	O
studied	284,291	O	O
the	292,295	O	B-Process
tree	296,300	O	I-Process
regeneration	301,313	O	I-Process
and	314,317	O	O
ground	318,324	O	B-Material
flora	325,330	O	I-Material
on	331,333	O	O
15	334,336	O	B-Data
upland	337,343	O	B-Material
sites	344,349	O	I-Material
(	350,351	O	O
altitudes	351,360	O	B-Data
ranging	361,368	O	I-Data
from	369,373	O	I-Data
120	374,377	O	I-Data
m	377,378	O	I-Data
to	379,381	O	I-Data
380	382,385	O	I-Data
m	385,386	O	I-Data
above	387,392	O	O
sea	393,396	O	B-Data
level	397,402	O	I-Data
)	402,403	O	O
that	404,408	O	O
had	409,412	O	O
been	413,417	O	O
clearfelled	418,429	O	B-Process
of	430,432	O	O
conifers	433,441	O	B-Material
.	441,442	O	O

Regeneration	443,455	O	B-Process
of	456,458	O	O
native	459,465	O	B-Material
tree	466,470	O	I-Material
species	471,478	O	I-Material
was	479,482	O	O
successful	483,493	O	O
where	494,499	O	O
a	500,501	O	B-Material
clearcut	502,510	O	I-Material
site	511,515	O	I-Material
was	516,519	O	O
adjacent	520,528	O	O
to	529,531	O	O
mature	532,538	O	B-Material
native	539,545	O	I-Material
trees	546,551	O	I-Material
,	551,552	O	O
which	553,558	O	O
acted	559,564	O	O
as	565,567	O	O
a	568,569	O	B-Material
seed	570,574	O	I-Material
source	575,581	O	I-Material
.	581,582	O	O

Mean	583,587	O	B-Data
regeneration	588,600	O	I-Data
densities	601,610	O	I-Data
of	611,613	O	O
native	614,620	O	B-Material
tree	621,625	O	I-Material
species	626,633	O	I-Material
on	634,636	O	I-Material
clearcut	637,645	O	I-Material
sites	646,651	O	I-Material
were	652,656	O	O
typically	657,666	O	O
greater	667,674	O	B-Data
than	675,679	O	I-Data
1000stems	680,689	O	I-Data
/	689,690	O	I-Data
ha	690,692	O	I-Data
,	692,693	O	O
exceeding	694,703	O	O
minimum	704,711	O	O
recommended	712,723	O	O
planting	724,732	O	B-Data
densities	733,742	O	I-Data
for	743,746	O	O
the	747,750	O	B-Process
establishment	751,764	O	I-Process
of	765,767	O	O
new	768,771	O	B-Material
native	772,778	O	I-Material
woodland	779,787	O	I-Material
.	787,788	O	O

Whilst	789,795	O	O
10	796,798	O	B-Data
native	799,805	O	B-Material
woody	806,811	O	I-Material
tree	812,816	O	I-Material
species	817,824	O	I-Material
were	825,829	O	O
recorded	830,838	O	B-Process
,	838,839	O	O
the	840,843	O	B-Process
regeneration	844,856	O	I-Process
was	857,860	O	O
dominated	861,870	O	O
by	871,873	O	O
birch	874,879	O	B-Material
species	880,887	O	I-Material
.	887,888	O	O

Regeneration	889,901	O	B-Data
densities	902,911	O	I-Data
were	912,916	O	O
significantly	917,930	O	O
higher	931,937	O	O
on	938,940	O	O
clearcut	941,949	O	B-Material
sites	950,955	O	I-Material
than	956,960	O	O
on	961,963	O	O
adjacent	964,972	O	B-Material
areas	973,978	O	I-Material
of	979,981	O	O
unplanted	982,991	O	B-Material
moorland	992,1000	O	I-Material
,	1000,1001	O	O
probably	1002,1010	O	O
due	1011,1014	O	O
to	1015,1017	O	O
the	1018,1021	O	O
lack	1022,1026	O	O
of	1027,1029	O	O
a	1030,1031	O	B-Material
dense	1032,1037	O	I-Material
ground	1038,1044	O	I-Material
flora	1045,1050	O	I-Material
following	1051,1060	O	O
the	1061,1064	O	B-Process
clearfelling	1065,1077	O	I-Process
operations	1078,1088	O	I-Process
.	1088,1089	O	O

Our	1090,1093	O	O
results	1094,1101	O	O
indicate	1102,1110	O	O
that	1111,1115	O	O
where	1116,1121	O	O
local	1122,1127	O	B-Material
native	1128,1134	O	I-Material
seed	1135,1139	O	I-Material
sources	1140,1147	O	I-Material
exist	1148,1153	O	O
,	1153,1154	O	O
clearfelling	1155,1167	O	B-Process
upland	1168,1174	O	B-Material
conifer	1175,1182	O	I-Material
plantation	1183,1193	O	I-Material
sites	1194,1199	O	I-Material
to	1200,1202	O	O
allow	1203,1208	O	O
natural	1209,1216	O	B-Process
regeneration	1217,1229	O	I-Process
has	1230,1233	O	O
the	1234,1237	O	O
potential	1238,1247	O	O
to	1248,1250	O	O
be	1251,1253	O	O
an	1254,1256	O	O
effective	1257,1266	O	O
method	1267,1273	O	O
of	1274,1276	O	O
establishing	1277,1289	O	B-Process
native	1290,1296	O	B-Material
woodland	1297,1305	O	I-Material
.	1305,1306	O	O

-DOCSTART- (S037842901300244X)

Striga	0,6	O	B-Material
hermonthica	7,18	O	I-Material
(	19,20	O	I-Material
Del.	20,24	O	I-Material
)	24,25	O	I-Material
Benth	26,31	O	I-Material
.	31,32	O	I-Material
is	33,35	O	O
a	36,37	O	B-Process
persistent	38,48	O	I-Process
threat	49,55	O	I-Process
to	56,58	O	O
pearl	59,64	O	B-Material
millet	65,71	O	I-Material
[	72,73	O	I-Material
Cenchrus	73,81	O	I-Material
americanus	82,92	O	I-Material
(	93,94	O	I-Material
L.	94,96	O	I-Material
)	96,97	O	I-Material

Morrone	98,105	O	I-Material
,	105,106	O	I-Material
comb	107,111	O	I-Material
.	111,112	O	I-Material

nov	113,116	O	I-Material
.	116,117	O	I-Material
]	117,118	O	I-Material
production	119,129	O	B-Process
,	129,130	O	O
especially	131,141	O	O
in	142,144	O	O
West	145,149	O	O
Africa	150,156	O	O
.	156,157	O	O

This	158,162	O	O
study	163,168	O	O
aimed	169,174	O	O
at	175,177	O	O
evaluating	178,188	O	B-Process
the	189,192	O	B-Process
response	193,201	O	I-Process
of	202,204	O	O
a	205,206	O	B-Material
diversified	207,218	O	I-Material
pearl	219,224	O	I-Material
millet	225,231	O	I-Material
genepool	232,240	O	I-Material
to	241,243	O	O
five	244,248	O	B-Process
cycles	249,255	O	I-Process
of	256,258	O	I-Process
recurrent	259,268	O	I-Process
selection	269,278	O	I-Process
targeting	279,288	O	B-Process
Striga	289,295	O	B-Process
resistance	296,306	O	I-Process
and	307,310	O	O
panicle	311,318	O	B-Process
yield	319,324	O	I-Process
,	324,325	O	O
and	326,329	O	O
to	330,332	O	O
a	333,334	O	B-Data
lesser	335,341	O	I-Data
extent	342,348	O	I-Data
downy	349,354	O	B-Material
mildew	355,361	O	I-Material

[	362,363	O	I-Material
Sclerospora	363,374	O	I-Material
graminicola	375,386	O	I-Material
(	387,388	O	I-Material
Sacc	388,392	O	I-Material
.	392,393	O	I-Material
)	393,394	O	I-Material

J.	395,397	O	I-Material
Schroet	398,405	O	I-Material
.	405,406	O	I-Material
]	406,407	O	I-Material
resistance	408,418	O	B-Process
.	418,419	O	O

Two	420,423	O	B-Material
-	423,424	O	I-Material
hundred	424,431	O	I-Material
full	432,436	O	I-Material
-	436,437	O	I-Material
sib	437,440	O	I-Material
families	441,449	O	I-Material
(	450,451	O	I-Material
FS	451,453	O	I-Material
)	453,454	O	I-Material
representing	455,467	O	O
the	468,471	O	B-Process
C5	472,474	O	I-Process
selection	475,484	O	I-Process
cycle	485,490	O	I-Process
were	491,495	O	O
evaluated	496,505	O	B-Process
together	506,514	O	O
with	515,519	O	O
the	520,523	O	B-Material
genepool	524,532	O	I-Material
parental	533,541	O	I-Material
landraces	542,551	O	I-Material
,	551,552	O	O
experimental	553,565	O	B-Material
varieties	566,575	O	I-Material
derived	576,583	O	B-Process
from	584,588	O	O
previous	589,597	O	B-Process
cycles	598,604	O	I-Process
and	605,608	O	O
local	609,614	O	B-Process
checks	615,621	O	I-Process
in	622,624	O	O
Striga	625,631	O	B-Material
-	631,632	O	I-Material
infested	632,640	O	I-Material
fields	641,647	O	I-Material
at	648,650	O	O
Sadoré	651,657	O	O
(	658,659	O	O
Niger	659,664	O	O
)	664,665	O	O
and	666,669	O	O
Cinzana	670,677	O	O
(	678,679	O	O
Mali	679,683	O	O
)	683,684	O	O
.	684,685	O	O

Substantial	686,697	O	O
and	698,701	O	O
mostly	702,708	O	O
significant	709,720	O	O
selection	721,730	O	B-Process
progress	731,739	O	I-Process
could	740,745	O	O
be	746,748	O	O
documented	749,759	O	B-Process
.	759,760	O	O

The	761,764	O	B-Data
accumulated	765,776	O	I-Data
percentage	777,787	O	I-Data
gain	788,792	O	I-Data
from	793,797	O	O
selection	798,807	O	B-Material
amounted	808,816	O	O
to	817,819	O	O
51%/1	820,825	O	B-Data
%	825,826	O	I-Data
lower	827,832	O	I-Data
Striga	833,839	O	B-Process
infestation	840,851	O	I-Process
(	852,853	O	O
measured	853,861	O	O
by	862,864	O	O
area	865,869	O	B-Data
under	870,875	O	I-Data
Striga	876,882	O	I-Data
number	883,889	O	I-Data
progress	890,898	O	I-Data
curve	899,904	O	I-Data
,	904,905	O	I-Data
ASNPC	906,911	O	I-Data
)	911,912	O	O
,	912,913	O	O
46%/62	914,920	O	B-Data
%	920,921	O	I-Data
lower	922,927	O	I-Data
downy	928,933	O	B-Process
mildew	934,940	O	I-Process
incidence	941,950	O	I-Process
,	950,951	O	O
and	952,955	O	O
49%/31	956,962	O	B-Data
%	962,963	O	I-Data
higher	964,970	O	I-Data
panicle	971,978	O	B-Process
yield	979,984	O	I-Process
of	985,987	O	O
the	988,991	O	B-Material
C5-FS	992,997	O	I-Material
compared	998,1006	O	O
to	1007,1009	O	O
the	1010,1013	O	B-Data
mean	1014,1018	O	I-Data
of	1019,1021	O	O
the	1022,1025	O	B-Material
genepool	1026,1034	O	I-Material
parents	1035,1042	O	I-Material
at	1043,1045	O	O
Sadoré	1046,1052	O	O
/	1052,1053	O	O
Cinzana	1053,1060	O	O
,	1060,1061	O	O
respectively	1062,1074	O	O
.	1074,1075	O	O

Experimental	1076,1088	O	B-Material
varieties	1089,1098	O	I-Material
selected	1099,1107	O	O
from	1108,1112	O	O
previous	1113,1121	O	B-Process
cycles	1122,1128	O	I-Process
also	1129,1133	O	O
revealed	1134,1142	O	O
lower	1143,1148	O	B-Data
ASNPC	1149,1154	O	I-Data
and	1155,1158	O	O
mostly	1159,1165	O	O
higher	1166,1172	O	B-Data
yield	1173,1178	O	I-Data
compared	1179,1187	O	O
to	1188,1190	O	O
genepool	1191,1199	O	B-Material
parents	1200,1207	O	I-Material
at	1208,1210	O	O
their	1211,1216	O	B-Material
selection	1217,1226	O	I-Material
sites	1227,1232	O	I-Material
.	1232,1233	O	O

Significant	1234,1245	O	B-Process
genetic	1246,1253	O	I-Process
variation	1254,1263	O	I-Process
among	1264,1269	O	O
the	1270,1273	O	B-Material
C5-FS	1274,1279	O	I-Material
and	1280,1283	O	O
operative	1284,1293	O	B-Process
heritabilities	1294,1308	O	I-Process
of	1309,1311	O	O
76	1312,1314	O	B-Data
%	1314,1315	O	I-Data
(	1316,1317	O	I-Data
Cinzana	1317,1324	O	I-Data
)	1324,1325	O	I-Data
,	1325,1326	O	I-Data
84	1327,1329	O	I-Data
%	1329,1330	O	I-Data
(	1331,1332	O	I-Data
Sadoré	1332,1338	O	I-Data
)	1338,1339	O	I-Data
and	1340,1343	O	I-Data
34	1344,1346	O	I-Data
%	1346,1347	O	I-Data
(	1348,1349	O	I-Data
combined	1349,1357	O	I-Data
across	1358,1364	O	I-Data
locations	1365,1374	O	I-Data
)	1374,1375	O	I-Data
for	1376,1379	O	O
ASNPC	1380,1385	O	B-Data
will	1386,1390	O	O
enable	1391,1397	O	O
continued	1398,1407	O	B-Process
selection	1408,1417	O	I-Process
gain	1418,1422	O	I-Process
for	1423,1426	O	O
Striga	1427,1433	O	B-Process
resistance	1434,1444	O	I-Process
.	1444,1445	O	O

High	1446,1450	O	B-Data
genotype×environment	1451,1471	O	I-Data
interaction	1472,1483	O	I-Data
variances	1484,1493	O	I-Data
for	1494,1497	O	O
all	1498,1501	O	B-Data
target	1502,1508	O	I-Data
traits	1509,1515	O	I-Data
suggest	1516,1523	O	O
that	1524,1528	O	O
different	1529,1538	O	B-Material
experimental	1539,1551	O	I-Material
varieties	1552,1561	O	I-Material
need	1562,1566	O	O
to	1567,1569	O	O
be	1570,1572	O	O
extracted	1573,1582	O	B-Process
from	1583,1587	O	O
the	1588,1591	O	B-Material
genepool	1592,1600	O	I-Material
for	1601,1604	O	O
different	1605,1614	O	B-Material
sites	1615,1620	O	I-Material
.	1620,1621	O	O

The	1622,1625	O	B-Material
genepool	1626,1634	O	I-Material
-	1634,1635	O	I-Material
derived	1635,1642	O	I-Material
varieties	1643,1652	O	I-Material
will	1653,1657	O	O
be	1658,1660	O	O
further	1661,1668	O	O
validated	1669,1678	O	B-Process
on	1679,1681	O	B-Material
-	1681,1682	O	I-Material
farm	1682,1686	O	I-Material
and	1687,1690	O	O
are	1691,1694	O	O
expected	1695,1703	O	O
to	1704,1706	O	O
contribute	1707,1717	O	O
to	1718,1720	O	O
integrated	1721,1731	O	B-Process
Striga	1732,1738	O	I-Process
control	1739,1746	O	I-Process
in	1747,1749	O	O
pearl	1750,1755	O	B-Material
millet	1756,1762	O	I-Material
in	1763,1765	O	O
West	1766,1770	O	O
Africa	1771,1777	O	O
.	1777,1778	O	O

